﻿<?xml version="1.0" encoding="utf-8"?>
<!DOCTYPE svg PUBLIC "-//W3C//DTD SVG 1.0//EN" "http://www.w3.org/TR/2001/REC-SVG-20010904/DTD/svg10.dtd"[
	<!ENTITY ns_flows "http://ns.adobe.com/Flows/1.0/">
	<!ENTITY ns_svg "http://www.w3.org/2000/svg">
	<!ENTITY ns_xlink "http://www.w3.org/1999/xlink">
	<!ENTITY st0 "font-size:7px;font-family:'MS-PGothic';adobe-font-script:japanese;">
	<!ENTITY st1 "font-size:6px;font-family:'ArialMT';">
	<!-- White fill  -->
	<!ENTITY st2 "fill:#FFFFFF;stroke:#000000; stroke-width:1.41;stroke-linecap:round;stroke-linejoin:round;">
	<!-- Yellow fill  -->
	<!ENTITY st3 "fill:#FFFFCC;stroke:#FFFFCC; stroke-width:0.1;stroke-linecap:round;stroke-linejoin:round;">
	<!-- Gray fill  -->
	<!ENTITY st4 "fill:#CCCCCC;stroke:#CCCCCC; stroke-width:0.1;stroke-linecap:round;stroke-linejoin:round;">
	<!-- Light-blue fill -->
	<!ENTITY st5 "fill:#CCECF4;stroke:#000000; stroke-width:1.133;stroke-linecap:round;stroke-linejoin:round;">
	<!ENTITY st6 "fill:none;stroke-linecap:butt; stroke-linejoin:round;">
	<!ENTITY st7 "fill:none;stroke:#000000;stroke-linecap:round;stroke-linejoin:round;">
	<!ENTITY st8 "enable-background:new    ;">
	<!-- Black fill -->
	<!ENTITY st9 "fill:#000000;stroke:#000000; stroke-linecap:round;stroke-linejoin:round;">
	<!-- SRS note   -->
	<!ENTITY st10 "font-size:9px;font-family:'ArialMT';">
	<!ENTITY st11 "font-size:9px;font-family:'Svg Symbol';">
	<!ENTITY st12 "font-size:6px;font-family:'Svg Symbol';">
	<!ENTITY st13 "fill:none;stroke:#ff0000;stroke-linecap:round;stroke-linejoin:round;">
	<!-- Yellow fill  -->
	<!ENTITY st14 "fill:#FFFF00;stroke:#FFFF00; stroke-width:0.1;stroke-linecap:round;stroke-linejoin:round;">
	<!ENTITY st15 "font-size:6px;font-family:'MS-PGothic';adobe-font-script:japanese;">
	<!ENTITY st16 "1.00 0.00 0.00 1.00">
	<!ENTITY st17 "0.00 -1.00 1.00 0.00">
	<!ENTITY st18 "font-size:6px;font-family:'Arial';">
	<!ENTITY st19 "font-size:9px;font-family:'Arial';">
	<!ENTITY st20 "font-size:6px;font-family:'MS-PGothic','MS PGothic';adobe-font-script:japanese;">
	<!ENTITY st21 "font-size:7px;font-family:'MS-PGothic','MS PGothic';adobe-font-script:japanese;">
	<!ATTLIST svg
		xmlns:ewd CDATA #FIXED "http://shcl.co.jp/ewd"
		xmlns:a CDATA #FIXED "http://ns.adobe.com/AdobeSVGViewerExtensions/3.0/"
		ewd:ver CDATA #IMPLIED
	>
	<!ATTLIST a
		ewd:lineID CDATA #IMPLIED
		ewd:groupID CDATA #IMPLIED
		ewd:figtype CDATA #IMPLIED
		ewd:code CDATA #IMPLIED
		ewd:figID CDATA #IMPLIED
		ewd:pinNo CDATA #IMPLIED
		ewd:comment CDATA #IMPLIED >
	<!ATTLIST g
		ewd:lineID CDATA #IMPLIED
		ewd:groupID CDATA #IMPLIED
		ewd:figtype CDATA #IMPLIED
		ewd:code CDATA #IMPLIED
		ewd:figID CDATA #IMPLIED
		ewd:pinNo CDATA #IMPLIED
		ewd:comment CDATA #IMPLIED >
	<!ATTLIST text
		ewd:textID CDATA #IMPLIED >
	<!ATTLIST title
		ewd:textID CDATA #IMPLIED >
]>
<!-- Generator: Shintec Hozumi YS   -->
<svg onload="call_execInitLoadProc_svg('system')" style="overflow:visible;  enable-background:new 0 0 3590.538 710.000" viewBox="0 0 3590.538 710.000" height="710.000" width="3590.538" xml:space="preserve" ewd:ver="2.1.2.9" xmlns="&ns_svg;" xmlns:a="http://ns.adobe.com/AdobeSVGViewerExtensions/3.0/" xmlns:ewd="http://shcl.co.jp/ewd" xmlns:xlink="&ns_xlink;"><script type="text/javascript" xlink:href="../../../../../system/js/ewd/fig/svgfig.js" xmlns:xlink="http://www.w3.org/1999/xlink" />
<g id="ewd_top"><a ewd:figtype="conn" style="cursor:pointer;" ewd:code="G67" ewd:figID="1"><path style="fill:#CCECF4;stroke:#000000; stroke-width:1.133; stroke-linecap:round;stroke-linejoin:round; " d=" M  2694.05,   273.74  L  2966.00,   273.74  L  2966.00,   299.24  L  2694.05,   299.24  L  2694.05,   273.74 " /><title ewd:textID="16">No. 1 CAN Junction Connector</title></a><a ewd:figtype="conn" style="cursor:pointer;" ewd:code="G50,G94" ewd:figID="2"><path style="fill:#CCECF4;stroke:#000000; stroke-width:1.133; stroke-linecap:round;stroke-linejoin:round; " d=" M  3288.95,   239.75  L  3305.95,   239.75  L  3305.95,   256.74  L  3288.95,   256.74  L  3288.95,   239.75 " /><title ewd:textID="25">No. 10 Junction Connector , No. 27 Junction Connector</title></a><a ewd:figtype="rb" style="cursor:pointer;" ewd:code="FUSE71" ewd:figID="3"><path style="fill:#CCECF4;stroke:#000000; stroke-width:0; stroke-linecap:round;stroke-linejoin:round; " d=" M    21.25,    35.78  L    21.25,    78.27  L    46.74,    78.27  L    46.74,    35.78  L    21.25,    35.78 " /></a><a ewd:figtype="rb" style="cursor:pointer;" ewd:code="FUSE7" ewd:figID="4"><path style="fill:#CCECF4;stroke:#000000; stroke-width:0; stroke-linecap:round;stroke-linejoin:round; " d=" M    97.73,    35.78  L    97.73,    78.27  L   123.23,    78.27  L   123.23,    35.78  L    97.73,    35.78 " /></a><a ewd:figtype="conn" style="cursor:pointer;" ewd:code="C7" ewd:figID="5"><path style="fill:#CCECF4;stroke:#000000; stroke-width:1.133; stroke-linecap:round;stroke-linejoin:round; " d=" M   339.94,   197.25  L   339.94,   265.24  L   484.42,   265.24  L   484.42,   197.25  L   339.94,   197.25 " /><title ewd:textID="14">Differential Motor Actuator Assembly</title></a><a ewd:figtype="rb" style="cursor:pointer;" ewd:code="FUSE67" ewd:figID="6"><path style="fill:#CCECF4;stroke:#000000; stroke-width:0; stroke-linecap:round;stroke-linejoin:round; " d=" M  3191.22,    35.78  L  3191.22,    78.27  L  3216.71,    78.27  L  3216.71,    35.78  L  3191.22,    35.78 " /></a><a ewd:figtype="conn" style="cursor:pointer;" ewd:code="C47" ewd:figID="7"><path style="fill:#CCECF4;stroke:#000000; stroke-width:1.133; stroke-linecap:round;stroke-linejoin:round; " d=" M   560.91,   197.25  L   620.40,   197.25  L   620.40,   214.25  L   560.91,   214.25  L   560.91,   197.25 " /><title ewd:textID="22">No. 4 Junction Connector</title></a><a ewd:figtype="conn" style="cursor:pointer;" ewd:code="E1" ewd:figID="8"><path style="fill:#CCECF4;stroke:#000000; stroke-width:1.133; stroke-linecap:round;stroke-linejoin:round; " d=" M   679.89,   239.75  L   679.89,   282.24  L   756.37,   282.24  L   756.37,   239.75  L   679.89,   239.75 " /><title ewd:textID="35">Oil Temperature Sensor</title></a><a ewd:figtype="conn" style="cursor:pointer;" ewd:code="G12" ewd:figID="9"><path style="fill:#CCECF4;stroke:#000000; stroke-width:1.133; stroke-linecap:round;stroke-linejoin:round; " d=" M   798.87,   239.75  L   798.87,   324.73  L   883.85,   324.73  L   883.85,   239.75  L   798.87,   239.75 " /><title ewd:textID="37">Transfer Position Switch</title></a><a ewd:figtype="conn" style="cursor:pointer;" ewd:code="G66" ewd:figID="10"><path style="fill:#CCECF4;stroke:#000000; stroke-width:1.133; stroke-linecap:round;stroke-linejoin:round; " d=" M   832.86,   409.72  L   849.86,   409.72  L   849.86,   426.71  L   832.86,   426.71  L   832.86,   409.72 " /><title ewd:textID="30">No. 25 Junction Connector</title></a><a ewd:figtype="conn" style="cursor:pointer;" ewd:code="F1" ewd:figID="11"><path style="fill:#CCECF4;stroke:#000000; stroke-width:1.133; stroke-linecap:round;stroke-linejoin:round; " d=" M  2116.15,   443.71  L  2116.15,   486.20  L  2192.63,   486.20  L  2192.63,   443.71  L  2116.15,   443.71 " /><title ewd:textID="12">Differential Lock Coil</title></a><a ewd:figtype="rb" style="cursor:pointer;" ewd:code="1" ewd:figID="12"><path style="fill:#CCECF4;stroke:#000000; stroke-width:0; stroke-linecap:round;stroke-linejoin:round; " d=" M   968.84,   205.75  L   926.35,   205.75  L   926.35,   239.75  L   968.84,   239.75  L   968.84,   205.75 " /></a><a ewd:figtype="conn" style="cursor:pointer;" ewd:code="G13" ewd:figID="13"><path style="fill:#CCECF4;stroke:#000000; stroke-width:1.133; stroke-linecap:round;stroke-linejoin:round; " d=" M  2286.12,   239.75  L  2286.12,   205.75  L  2269.12,   205.75  L  2269.12,   239.75  L  2286.12,   239.75 " /><title ewd:textID="13">Differential Lock Switch</title></a><a ewd:figtype="conn" style="cursor:pointer;" ewd:code="G66" ewd:figID="14"><path style="fill:#CCECF4;stroke:#000000; stroke-width:1.133; stroke-linecap:round;stroke-linejoin:round; " d=" M  2269.12,   358.73  L  2286.12,   358.73  L  2286.12,   375.72  L  2269.12,   375.72  L  2269.12,   358.73 " /><title ewd:textID="30">No. 25 Junction Connector</title></a><a ewd:figtype="rb" style="cursor:pointer;" ewd:code="FUSE9" ewd:figID="15"><path style="fill:#CCECF4;stroke:#000000; stroke-width:0; stroke-linecap:round;stroke-linejoin:round; " d=" M  3284.70,    35.78  L  3284.70,    78.27  L  3310.20,    78.27  L  3310.20,    35.78  L  3284.70,    35.78 " /></a><a ewd:figtype="conn" style="cursor:pointer;" ewd:code="C46" ewd:figID="16"><path style="fill:#CCECF4;stroke:#000000; stroke-width:1.133; stroke-linecap:round;stroke-linejoin:round; " d=" M  1206.80,   265.24  L  1206.80,   282.24  L  1223.80,   282.24  L  1223.80,   265.24  L  1206.80,   265.24 " /><title ewd:textID="21">No. 3 Junction Connector</title></a><a ewd:figtype="conn" style="cursor:pointer;" ewd:code="A47" ewd:figID="17"><path style="fill:#CCECF4;stroke:#000000; stroke-width:1.133; stroke-linecap:round;stroke-linejoin:round; " d=" M  2379.60,   205.75  L  2456.09,   205.75  L  2456.09,   222.75  L  2379.60,   222.75  L  2379.60,   205.75 " /><title ewd:textID="20">No. 2 Junction Connector</title></a><a ewd:figtype="conn" style="cursor:pointer;" ewd:code="F2" ewd:figID="18"><path style="fill:#CCECF4;stroke:#000000; stroke-width:1.133; stroke-linecap:round;stroke-linejoin:round; " d=" M  2371.10,   418.22  L  2371.10,   452.21  L  2405.10,   452.21  L  2405.10,   418.22  L  2371.10,   418.22 " /><title ewd:textID="18">No. 1 Transfer Indicator Switch</title></a><a ewd:figtype="conn" style="cursor:pointer;" ewd:code="B2" ewd:figID="19"><path style="fill:#CCECF4;stroke:#000000; stroke-width:1.133; stroke-linecap:round;stroke-linejoin:round; " d=" M  1130.31,   486.20  L  1130.31,   452.21  L  1113.31,   452.21  L  1113.31,   486.20  L  1130.31,   486.20 " /><title ewd:textID="10">Clutch Start Switch Assembly</title></a><a ewd:figtype="conn" style="cursor:pointer;" ewd:code="G68" ewd:figID="20"><path style="fill:#CCECF4;stroke:#000000; stroke-width:1.133; stroke-linecap:round;stroke-linejoin:round; " d=" M  2694.05,   205.75  L  2753.54,   205.75  L  2753.54,   222.75  L  2694.05,   222.75  L  2694.05,   205.75 " /><title ewd:textID="19">No. 2 CAN Junction Connector</title></a><a ewd:figtype="conn" style="cursor:pointer;" ewd:code="A49" ewd:figID="21"><path style="fill:#CCECF4;stroke:#000000; stroke-width:1.133; stroke-linecap:round;stroke-linejoin:round; " d=" M   951.84,   656.18  L   968.84,   656.18  L   968.84,   673.17  L   951.84,   673.17  L   951.84,   656.18 " /><title ewd:textID="17">No. 1 Ground Junction Connector</title></a><a ewd:figtype="conn" style="cursor:pointer;" ewd:code="G89" ewd:figID="22"><path style="fill:#CCECF4;stroke:#000000; stroke-width:1.133; stroke-linecap:round;stroke-linejoin:round; " d=" M  1376.77,   426.71  L  1376.77,   460.71  L  1410.76,   460.71  L  1410.76,   426.71  L  1376.77,   426.71 " /><title ewd:textID="39">Transmission Control ECU Assembly</title></a><a ewd:figtype="conn" style="cursor:pointer;" ewd:code="G52,G108" ewd:figID="23"><path style="fill:#CCECF4;stroke:#000000; stroke-width:1.133; stroke-linecap:round;stroke-linejoin:round; " d=" M  1206.80,   418.22  L  1223.80,   418.22  L  1223.80,   435.21  L  1206.80,   435.21  L  1206.80,   418.22 " /><title ewd:textID="33">No. 40 Junction Connector , No. 12 Junction Connector</title></a><a ewd:figtype="conn" style="cursor:pointer;" ewd:code="G52,G53" ewd:figID="24"><path style="fill:#CCECF4;stroke:#000000; stroke-width:1.133; stroke-linecap:round;stroke-linejoin:round; " d=" M  1113.31,   248.24  L  1130.31,   248.24  L  1130.31,   265.24  L  1113.31,   265.24  L  1113.31,   248.24 " /><title ewd:textID="27">No. 12 Junction Connector , No. 13 Junction Connector</title></a><a ewd:figtype="conn" style="cursor:pointer;" ewd:code="G61,G108" ewd:figID="25"><path style="fill:#CCECF4;stroke:#000000; stroke-width:1.133; stroke-linecap:round;stroke-linejoin:round; " d=" M  3195.47,   239.75  L  3212.46,   239.75  L  3212.46,   256.74  L  3195.47,   256.74  L  3195.47,   239.75 " /><title ewd:textID="34">No. 40 Junction Connector , No. 20 Junction Connector</title></a><a ewd:figtype="conn" style="cursor:pointer;" ewd:code="G9,G10" ewd:figID="26"><path style="fill:#CCECF4;stroke:#000000; stroke-width:1.133; stroke-linecap:round;stroke-linejoin:round; " d=" M  3178.47,   316.23  L  3178.47,   554.19  L  3467.42,   554.19  L  3467.42,   316.23  L  3178.47,   316.23 " /><title ewd:textID="11">Combination Meter Assembly</title></a><a ewd:figtype="conn" style="cursor:pointer;" ewd:code="C39,C40" ewd:figID="27"><path style="fill:#CCECF4;stroke:#000000; stroke-width:1.133; stroke-linecap:round;stroke-linejoin:round; " d=" M   186.97,    35.78  L   186.97,    86.77  L  2762.04,    86.77  L  2762.04,    35.78  L   186.97,    35.78 " /><title ewd:textID="7">4WD Control ECU</title></a><a ewd:figtype="conn" style="cursor:pointer;" ewd:code="A3,A4" ewd:figID="28"><path style="fill:#CCECF4;stroke:#000000; stroke-width:1.133; stroke-linecap:round;stroke-linejoin:round; " d=" M  2685.55,   469.21  L  2685.55,   426.71  L  2821.53,   426.71  L  2821.53,   469.21  L  2685.55,   469.21 " /><title ewd:textID="8">Brake Actuator Assembly</title></a><a ewd:figtype="conn" style="cursor:pointer;" ewd:code="C41" ewd:figID="29"><path style="fill:#CCECF4;stroke:#000000; stroke-width:1.133; stroke-linecap:round;stroke-linejoin:round; " d=" M  1665.72,   307.73  L  1665.72,   401.22  L  2014.16,   401.22  L  2014.16,   307.73  L  1665.72,   307.73 " /><title ewd:textID="38">Transfer Shift Actuator Assembly</title></a><a ewd:figtype="conn" style="cursor:pointer;" ewd:code="C115" ewd:figID="30"><path style="fill:#CCECF4;stroke:#000000; stroke-width:1.133; stroke-linecap:round;stroke-linejoin:round; " d=" M  1640.23,   537.20  L  1657.22,   537.20  L  1657.22,   554.19  L  1640.23,   554.19  L  1640.23,   537.20 " /><title ewd:textID="23">No. 7 Junction Connector</title></a><a ewd:figtype="conn" style="cursor:pointer;" ewd:code="C60,G45,G46" ewd:figID="31"><path style="fill:#CCECF4;stroke:#000000; stroke-width:1.133; stroke-linecap:round;stroke-linejoin:round; " d=" M  1291.78,   426.71  L  1291.78,   460.71  L  1325.78,   460.71  L  1325.78,   426.71  L  1291.78,   426.71 " /><title>ECM</title></a><a ewd:figtype="conn" style="cursor:pointer;" ewd:code="C47" ewd:figID="32"><path style="fill:#CCECF4;stroke:#000000; stroke-width:1.133; stroke-linecap:round;stroke-linejoin:round; " d=" M  1385.27,   222.75  L  1495.75,   222.75  L  1495.75,   239.75  L  1385.27,   239.75  L  1385.27,   222.75 " /><title ewd:textID="22">No. 4 Junction Connector</title></a><a ewd:figtype="conn" style="cursor:pointer;" ewd:code="C47" ewd:figID="33"><path style="fill:#CCECF4;stroke:#000000; stroke-width:1.133; stroke-linecap:round;stroke-linejoin:round; " d=" M  1614.73,   163.26  L  1708.21,   163.26  L  1708.21,   180.26  L  1614.73,   180.26  L  1614.73,   163.26 " /><title ewd:textID="22">No. 4 Junction Connector</title></a><a ewd:figtype="jb" style="cursor:pointer;" ewd:code="2" ewd:figID="39"><path style="&st4; " d=" M  3416.43,    35.78  L  3416.43,   103.77  L  3475.92,   103.77  L  3475.92,    35.78  L  3416.43,    35.78  " /></a><a ewd:figtype="fuse" style="cursor:pointer;" ewd:code="FUSE71" ewd:figID="91"><path style="&st7; stroke-width:0;" d=" M    21.25,    35.78  L    21.25,    78.27  L    46.74,    78.27  L    46.74,    35.78  L    21.25,    35.78 " /></a><a ewd:figtype="fuse" style="cursor:pointer;" ewd:code="FUSE7" ewd:figID="92"><path style="&st7; stroke-width:0;" d=" M    97.73,    35.78  L    97.73,    78.27  L   123.23,    78.27  L   123.23,    35.78  L    97.73,    35.78 " /></a><a ewd:figtype="fuse" style="cursor:pointer;" ewd:code="FUSE67" ewd:figID="93"><path style="&st7; stroke-width:0;" d=" M  3191.22,    35.78  L  3191.22,    78.27  L  3216.71,    78.27  L  3216.71,    35.78  L  3191.22,    35.78 " /></a><a ewd:figtype="fuse" style="cursor:pointer;" ewd:code="FUSE9" ewd:figID="94"><path style="&st7; stroke-width:0;" d=" M  3284.70,    35.78  L  3284.70,    78.27  L  3310.20,    78.27  L  3310.20,    35.78  L  3284.70,    35.78 " /></a><a ewd:figtype="fuse" style="cursor:pointer;" ewd:code="FUSE42" ewd:figID="95"><path style="&st7; stroke-width:0;" d=" M  3420.68,    35.78  L  3420.68,    78.27  L  3446.17,    78.27  L  3446.17,    35.78  L  3420.68,    35.78 " /></a><a style="cursor:pointer;" ewd:lineID="1"><path style="stroke:#008837;stroke-width: 5.10 ;&st6;" d=" M    33.99,   171.76  L    33.99,   299.24  L   246.46,   299.24  L   246.46,    95.84  " /></a><a style="cursor:pointer;" ewd:lineID="2"><path style="stroke:#008837;stroke-width: 5.10 ;&st6;" d=" M    33.99,   103.77  L    33.99,   157.03  " /></a><a style="cursor:pointer;" ewd:lineID="3"><path style="stroke:#00A0C6;stroke-width: 5.10 ;&st6;" d=" M   110.48,   171.76  L   110.48,   265.24  L   203.97,   265.24  L   203.97,    95.84  " /></a><a style="cursor:pointer;" ewd:lineID="4"><path style="stroke:#56077D;stroke-width: 5.10 ;&st6;" d=" M   110.48,   103.77  L   110.48,   157.03  " /></a><a style="cursor:pointer;" ewd:lineID="5"><path style="stroke:#000000;stroke-width: 5.10 ;&st6;" d=" M   271.95,   681.67  L   271.95,   222.75  L   297.45,   222.75  L   305.95,   214.25  L   305.95,   211.98  " /><path style="stroke:#FFFFFF;stroke-width: 4.53 ;&st6;" d=" M   271.95,   681.67  L   271.95,   222.75  L   297.45,   222.75  L   305.95,   214.25  L   305.95,   211.98  " /><path style="stroke:#000000;stroke-width: 1.13 ;&st6;" d=" M   271.95,   681.67  L   271.95,   222.75  L   297.45,   222.75  L   305.95,   214.25  L   305.95,   211.98  " /></a><a style="cursor:pointer;" ewd:lineID="6"><path style="stroke:#000000;stroke-width: 5.10 ;&st6;" d=" M   305.95,   211.98  L   305.95,   681.67  " /><path style="stroke:#FFFFFF;stroke-width: 4.53 ;&st6;" d=" M   305.95,   211.98  L   305.95,   681.67  " /><path style="stroke:#000000;stroke-width: 1.13 ;&st6;" d=" M   305.95,   211.98  L   305.95,   681.67  " /></a><a style="cursor:pointer;" ewd:lineID="7"><path style="stroke:#000000;stroke-width: 5.10 ;&st6;" d=" M   305.95,    95.84  L   305.95,   197.25  " /><path style="stroke:#FFFFFF;stroke-width: 4.53 ;&st6;" d=" M   305.95,    95.84  L   305.95,   197.25  " /><path style="stroke:#000000;stroke-width: 1.13 ;&st6;" d=" M   305.95,    95.84  L   305.95,   197.25  " /></a><a ewd:comment="2" style="cursor:pointer;" ewd:lineID="8"><path style="stroke:#008837;stroke-width: 5.10 ;&st6;" d=" M   356.94,    95.84  L   356.94,   197.25  " /></a><a ewd:comment="2,13,2,14" style="cursor:pointer;" ewd:lineID="9"><path style="stroke:#000000;stroke-width: 5.10 ;&st6;" d=" M   373.94,   384.22  L   373.94,   681.67  " /><path style="stroke:#FFFFFF;stroke-width: 4.53 ;&st6;" d=" M   373.94,   384.22  L   373.94,   681.67  " /><path style="stroke:#000000;stroke-width: 1.13 ;&st6;" d=" M   373.94,   384.22  L   373.94,   681.67  " /></a><a ewd:comment="2" style="cursor:pointer;" ewd:lineID="10"><path style="stroke:#000000;stroke-width: 5.10 ;&st6;" d=" M   373.94,   265.24  L   373.94,   367.22  " /><path style="stroke:#FFFFFF;stroke-width: 4.53 ;&st6;" d=" M   373.94,   265.24  L   373.94,   367.22  " /><path style="stroke:#000000;stroke-width: 1.13 ;&st6;" d=" M   373.94,   265.24  L   373.94,   367.22  " /></a><a ewd:comment="2" style="cursor:pointer;" ewd:lineID="11"><path style="stroke:#000000;stroke-width: 5.10 ;&st6;" d=" M   390.93,    95.84  L   390.93,   197.25  " /></a><a ewd:comment="2" style="cursor:pointer;" ewd:lineID="12"> d=" M   424.93,    95.84  L   424.93,   197.25 
	
		<path style="stroke:#000000;stroke-width: 5.10 ;&st6;" d=" M   424.93,    95.84  L   424.93,   197.25  " /><path style="stroke:#FFFFFF;stroke-width: 4.53 ;&st6;" d=" M   424.93,    95.84  L   424.93,   197.25  " /></a><a ewd:comment="2" style="cursor:pointer;" ewd:lineID="13"> d=" M   441.93,   265.24  L   441.93,   333.23  L   569.40,   333.23  L   569.40,   214.25 
	
		<path style="stroke:#000000;stroke-width: 5.10 ;&st6;" d=" M   441.93,   265.24  L   441.93,   333.23  L   569.40,   333.23  L   569.40,   214.25  " /><path style="stroke:#FFFFFF;stroke-width: 4.53 ;&st6;" d=" M   441.93,   265.24  L   441.93,   333.23  L   569.40,   333.23  L   569.40,   214.25  " /></a><a ewd:comment="2" style="cursor:pointer;" ewd:lineID="14"><path style="stroke:#FF0000;stroke-width: 5.10 ;&st6;" d=" M   458.92,    95.84  L   458.92,   197.25  " /></a><a ewd:comment="2" style="cursor:pointer;" ewd:lineID="15"> d=" M   569.40,    95.84  L   569.40,   197.25 
	
		<path style="stroke:#000000;stroke-width: 5.10 ;&st6;" d=" M   569.40,    95.84  L   569.40,   197.25  " /><path style="stroke:#FFFFFF;stroke-width: 4.53 ;&st6;" d=" M   569.40,    95.84  L   569.40,   197.25  " /></a><a style="cursor:pointer;" ewd:lineID="16"><path style="stroke:#00A0C6;stroke-width: 5.10 ;&st6;" d=" M   611.90,   305.47  L   611.90,   630.68  L  2804.53,   630.68  L  2804.53,   487.34  " /></a><a ewd:comment="2" style="cursor:pointer;" ewd:lineID="17"> d=" M   611.90,   214.25  L   611.90,   290.74 
	
		<path style="stroke:#000000;stroke-width: 5.10 ;&st6;" d=" M   611.90,   214.25  L   611.90,   290.74  " /><path style="stroke:#FFFFFF;stroke-width: 4.53 ;&st6;" d=" M   611.90,   214.25  L   611.90,   290.74  " /></a><a style="cursor:pointer;" ewd:lineID="18"><path style="stroke:#008837;stroke-width: 5.10 ;&st6;" d=" M   696.88,   239.75  L   696.88,   177.99  " /></a><a style="cursor:pointer;" ewd:lineID="19"><path style="stroke:#008837;stroke-width: 5.10 ;&st6;" d=" M   696.88,    95.84  L   696.88,   163.26  " /></a><a style="cursor:pointer;" ewd:lineID="20"><path style="stroke:#000000;stroke-width: 5.10 ;&st6;" d=" M   739.38,   239.75  L   739.38,   177.99  " /></a><a style="cursor:pointer;" ewd:lineID="21"><path style="stroke:#000000;stroke-width: 5.10 ;&st6;" d=" M   739.38,    95.84  L   739.38,   163.26  " /></a><a style="cursor:pointer;" ewd:lineID="22"><path style="stroke:#00A0C6;stroke-width: 5.10 ;&st6;" d=" M   815.86,   239.75  L   815.86,   177.99  " /></a><a style="cursor:pointer;" ewd:lineID="23"><path style="stroke:#00A0C6;stroke-width: 5.10 ;&st6;" d=" M   815.86,    95.84  L   815.86,   163.26  " /></a><a style="cursor:pointer;" ewd:lineID="24"><path style="stroke:#000000;stroke-width: 5.10 ;&st6;" d=" M   841.36,   426.71  L   841.36,   681.67  " /><path style="stroke:#FFFFFF;stroke-width: 4.53 ;&st6;" d=" M   841.36,   426.71  L   841.36,   681.67  " /><path style="stroke:#000000;stroke-width: 1.13 ;&st6;" d=" M   841.36,   426.71  L   841.36,   681.67  " /></a><a style="cursor:pointer;" ewd:lineID="25"><path style="stroke:#000000;stroke-width: 5.10 ;&st6;" d=" M   841.36,   324.73  L   841.36,   409.72  " /><path style="stroke:#FFFFFF;stroke-width: 4.53 ;&st6;" d=" M   841.36,   324.73  L   841.36,   409.72  " /><path style="stroke:#000000;stroke-width: 1.13 ;&st6;" d=" M   841.36,   324.73  L   841.36,   409.72  " /></a><a style="cursor:pointer;" ewd:lineID="26"><path style="stroke:#000000;stroke-width: 5.10 ;&st6;" d=" M   866.86,   239.75  L   866.86,   177.99  " /></a><a style="cursor:pointer;" ewd:lineID="27"><path style="stroke:#000000;stroke-width: 5.10 ;&st6;" d=" M   866.86,    95.84  L   866.86,   163.26  " /></a><a style="cursor:pointer;" ewd:lineID="28"><path style="stroke:#000000;stroke-width: 5.10 ;&st6;" d=" M   960.34,   656.18  L   960.34,   375.72  " /><path style="stroke:#FFFFFF;stroke-width: 4.53 ;&st6;" d=" M   960.34,   656.18  L   960.34,   375.72  " /><path style="stroke:#000000;stroke-width: 1.13 ;&st6;" d=" M   960.34,   656.18  L   960.34,   375.72  " /></a><a style="cursor:pointer;" ewd:lineID="29"><path style="stroke:#000000;stroke-width: 5.10 ;&st6;" d=" M   960.34,   273.74  L   960.34,   358.73  " /><path style="stroke:#FFFFFF;stroke-width: 4.53 ;&st6;" d=" M   960.34,   273.74  L   960.34,   358.73  " /><path style="stroke:#000000;stroke-width: 1.13 ;&st6;" d=" M   960.34,   273.74  L   960.34,   358.73  " /></a><a style="cursor:pointer;" ewd:lineID="30"><path style="stroke:#00A0C6;stroke-width: 5.10 ;&st6;" d=" M  1121.81,   486.20  L  1121.81,   588.19  L  1215.30,   588.19  L  1215.30,   562.69  " /></a><a style="cursor:pointer;" ewd:lineID="31"><path style="stroke:#008837;stroke-width: 5.10 ;&st6;" d=" M  1121.81,   401.22  L  1121.81,   452.21  " /></a><a style="cursor:pointer;" ewd:lineID="32"><path style="stroke:#008837;stroke-width: 5.10 ;&st6;" d=" M  1121.81,   350.23  L  1121.81,   386.49  " /></a><a style="cursor:pointer;" ewd:lineID="33"><path style="stroke:#008837;stroke-width: 5.10 ;&st6;" d=" M  1121.81,   335.50  L  1121.81,   283.37  " /></a><a style="cursor:pointer;" ewd:lineID="34"><path style="stroke:#008837;stroke-width: 5.10 ;&st6;" d=" M  1121.81,   194.99  L  1121.81,   230.11  " /></a><a style="cursor:pointer;" ewd:lineID="35"><path style="stroke:#00A0C6;stroke-width: 5.10 ;&st6;" d=" M  1121.81,   180.26  L  1121.81,   129.26  L   960.34,   129.26  L   960.34,   171.76  " /></a><a style="cursor:pointer;" ewd:lineID="36"><path style="stroke:#C3AF96;stroke-width: 5.10 ;&st6;" d=" M  1215.30,   547.96  L  1215.30,   503.20  " /></a><a style="cursor:pointer;" ewd:lineID="37"><path style="stroke:#00A0C6;stroke-width: 5.10 ;&st6;" d=" M  1215.30,   488.47  L  1215.30,   453.34  " /></a><a style="cursor:pointer;" ewd:lineID="38"><path style="stroke:#00A0C6;stroke-width: 5.10 ;&st6;" d=" M  1215.30,   356.46  L  1215.30,   400.09  " /></a><a style="cursor:pointer;" ewd:lineID="39"><path style="stroke:#00A0C6;stroke-width: 5.10 ;&st6;" d=" M  1215.30,   282.24  L  1215.30,   341.73  " /></a><a style="cursor:pointer;" ewd:lineID="40"><path style="stroke:#00A0C6;stroke-width: 5.10 ;&st6;" d=" M  1215.30,   265.24  L  1215.30,    95.84  " /></a><a ewd:comment="7,14" style="cursor:pointer;" ewd:lineID="41"> d=" M  1308.78,   562.69  L  1308.78,   613.68  L  1623.23,   613.68  L  1623.23,   180.26 
	
		<path style="stroke:#000000;stroke-width: 5.10 ;&st6;" d=" M  1308.78,   562.69  L  1308.78,   613.68  L  1623.23,   613.68  L  1623.23,   180.26  " /><path style="stroke:#FFFFFF;stroke-width: 4.53 ;&st6;" d=" M  1308.78,   562.69  L  1308.78,   613.68  L  1623.23,   613.68  L  1623.23,   180.26  " /></a><a ewd:comment="7,14" style="cursor:pointer;" ewd:lineID="42"> d=" M  1308.78,   469.77  L  1308.78,   547.68 
	
		<path style="stroke:#000000;stroke-width: 5.10 ;&st6;" d=" M  1308.78,   469.77  L  1308.78,   547.68  " /><path style="stroke:#FFFFFF;stroke-width: 4.53 ;&st6;" d=" M  1308.78,   469.77  L  1308.78,   547.68  " /></a><a ewd:comment="7,14" style="cursor:pointer;" ewd:lineID="43"><path style="stroke:#FFE600;stroke-width: 5.10 ;&st6;" d=" M  1308.78,   408.58  L  1308.78,   401.22  L  1325.78,   384.22  L  1325.78,   358.73  L  1385.27,   358.73  L  1393.77,   350.23  L  1393.77,   347.96  " /></a><a ewd:comment="8" style="cursor:pointer;" ewd:lineID="44"><path style="stroke:#FFE600;stroke-width: 5.10 ;&st6;" d=" M  1393.77,   417.65  L  1393.77,   347.96  " /></a><a ewd:comment="6" style="cursor:pointer;" ewd:lineID="45"><path style="stroke:#FFE600;stroke-width: 5.10 ;&st6;" d=" M  1393.77,   239.75  L  1393.77,   248.24  L  1385.27,   256.74  L  1308.78,   256.74  L  1308.78,   408.58  " /></a><a ewd:comment="7,8,14" style="cursor:pointer;" ewd:lineID="46"><path style="stroke:#FFE600;stroke-width: 5.10 ;&st6;" d=" M  1393.77,   239.75  L  1393.77,   333.23  " /></a><a style="cursor:pointer;" ewd:lineID="47"><path style="stroke:#FFE600;stroke-width: 5.10 ;&st6;" d=" M  1393.77,    95.84  L  1393.77,   222.75  " /></a><a ewd:comment="5" style="cursor:pointer;" ewd:lineID="48"><path style="stroke:#008837;stroke-width: 5.10 ;&st6;" d=" M  1487.25,   356.46  L  1487.25,   579.69  L  2753.54,   579.69  L  2753.54,   487.34  " /></a><a ewd:comment="4" style="cursor:pointer;" ewd:lineID="49"><path style="stroke:#99D9E8;stroke-width: 5.10 ;&st6;" d=" M  1487.25,   356.46  L  1487.25,   358.73  L  1478.75,   367.22  L  1453.26,   367.22  L  1453.26,   596.69  L  2779.04,   596.69  L  2779.04,   503.20  L  2762.04,   503.20  L  2753.54,   494.70  L  2753.54,   487.34  " /></a><a style="cursor:pointer;" ewd:lineID="50"><path style="stroke:#FFE600;stroke-width: 5.10 ;&st6;" d=" M  1487.25,   239.75  L  1487.25,   341.73  " /></a><a ewd:comment="11" style="cursor:pointer;" ewd:lineID="51"> d=" M  1623.23,   163.26  L  1623.23,   112.27  L   654.39,   112.27  L   654.39,   273.74  L   620.40,   273.74  L   611.90,   282.24  L   611.90,   290.74 
	
		<path style="stroke:#000000;stroke-width: 5.10 ;&st6;" d=" M  1623.23,   163.26  L  1623.23,   112.27  L   654.39,   112.27  L   654.39,   273.74  L   620.40,   273.74  L   611.90,   282.24  L   611.90,   290.74  " /><path style="stroke:#FFFFFF;stroke-width: 4.53 ;&st6;" d=" M  1623.23,   163.26  L  1623.23,   112.27  L   654.39,   112.27  L   654.39,   273.74  L   620.40,   273.74  L   611.90,   282.24  L   611.90,   290.74  " /></a><a ewd:comment="10" style="cursor:pointer;" ewd:lineID="52"><path style="stroke:#000000;stroke-width: 5.10 ;&st6;" d=" M  1691.22,   469.21  L  1648.72,   469.21  L  1648.72,   537.20  " /><path style="stroke:#FFFFFF;stroke-width: 4.53 ;&st6;" d=" M  1691.22,   469.21  L  1648.72,   469.21  L  1648.72,   537.20  " /><path style="stroke:#000000;stroke-width: 1.13 ;&st6;" d=" M  1691.22,   469.21  L  1648.72,   469.21  L  1648.72,   537.20  " /></a><a ewd:comment="10" style="cursor:pointer;" ewd:lineID="53"><path style="stroke:#000000;stroke-width: 5.10 ;&st6;" d=" M  1699.72,   681.67  L  1699.72,   673.17  L  1682.72,   656.18  L  1648.72,   656.18  L  1648.72,   554.19  " /><path style="stroke:#FFFFFF;stroke-width: 4.53 ;&st6;" d=" M  1699.72,   681.67  L  1699.72,   673.17  L  1682.72,   656.18  L  1648.72,   656.18  L  1648.72,   554.19  " /><path style="stroke:#000000;stroke-width: 1.13 ;&st6;" d=" M  1699.72,   681.67  L  1699.72,   673.17  L  1682.72,   656.18  L  1648.72,   656.18  L  1648.72,   554.19  " /></a><a ewd:comment="6,7,14" style="cursor:pointer;" ewd:lineID="54"><path style="stroke:#000000;stroke-width: 5.10 ;&st6;" d=" M  1699.72,   681.67  L  1699.72,   477.71  " /><path style="stroke:#FFFFFF;stroke-width: 4.53 ;&st6;" d=" M  1699.72,   681.67  L  1699.72,   477.71  " /><path style="stroke:#000000;stroke-width: 1.13 ;&st6;" d=" M  1699.72,   681.67  L  1699.72,   477.71  " /></a><a style="cursor:pointer;" ewd:lineID="55"><path style="stroke:#000000;stroke-width: 5.10 ;&st6;" d=" M  1699.72,   401.22  L  1699.72,   460.71  " /><path style="stroke:#FFFFFF;stroke-width: 4.53 ;&st6;" d=" M  1699.72,   401.22  L  1699.72,   460.71  " /><path style="stroke:#000000;stroke-width: 1.13 ;&st6;" d=" M  1699.72,   401.22  L  1699.72,   460.71  " /></a><a style="cursor:pointer;" ewd:lineID="56"> d=" M  1699.72,   180.26  L  1699.72,   307.73 
	
		<path style="stroke:#000000;stroke-width: 5.10 ;&st6;" d=" M  1699.72,   180.26  L  1699.72,   307.73  " /><path style="stroke:#FFFFFF;stroke-width: 4.53 ;&st6;" d=" M  1699.72,   180.26  L  1699.72,   307.73  " /></a><a style="cursor:pointer;" ewd:lineID="57"> d=" M  1699.72,    95.84  L  1699.72,   163.26 
	
		<path style="stroke:#000000;stroke-width: 5.10 ;&st6;" d=" M  1699.72,    95.84  L  1699.72,   163.26  " /><path style="stroke:#FFFFFF;stroke-width: 4.53 ;&st6;" d=" M  1699.72,    95.84  L  1699.72,   163.26  " /></a><a style="cursor:pointer;" ewd:lineID="58"><path style="stroke:#FFE600;stroke-width: 5.10 ;&st6;" d=" M  1767.70,   307.73  L  1767.70,   231.25  L  1495.75,   231.25  " /></a><a style="cursor:pointer;" ewd:lineID="59"><path style="stroke:#000000;stroke-width: 5.10 ;&st6;" d=" M  1801.70,   401.22  L  1801.70,   469.21  L  1708.21,   469.21  " /><path style="stroke:#FFFFFF;stroke-width: 4.53 ;&st6;" d=" M  1801.70,   401.22  L  1801.70,   469.21  L  1708.21,   469.21  " /><path style="stroke:#000000;stroke-width: 1.13 ;&st6;" d=" M  1801.70,   401.22  L  1801.70,   469.21  L  1708.21,   469.21  " /></a><a style="cursor:pointer;" ewd:lineID="60"><path style="stroke:#00A0C6;stroke-width: 5.10 ;&st6;" d=" M  1801.70,    95.84  L  1801.70,   307.73  " /></a><a style="cursor:pointer;" ewd:lineID="61"><path style="stroke:#008837;stroke-width: 5.10 ;&st6;" d=" M  1844.19,    95.84  L  1844.19,   307.73  " /></a><a style="cursor:pointer;" ewd:lineID="62"> d=" M  1886.68,    95.84  L  1886.68,   307.73 
	
		<path style="stroke:#000000;stroke-width: 5.10 ;&st6;" d=" M  1886.68,    95.84  L  1886.68,   307.73  " /><path style="stroke:#FFFFFF;stroke-width: 4.53 ;&st6;" d=" M  1886.68,    95.84  L  1886.68,   307.73  " /></a><a style="cursor:pointer;" ewd:lineID="63"><path style="stroke:#000000;stroke-width: 5.10 ;&st6;" d=" M  1929.18,    95.84  L  1929.18,   307.73  " /></a><a style="cursor:pointer;" ewd:lineID="64"><path style="stroke:#FFE600;stroke-width: 5.10 ;&st6;" d=" M  1980.17,    95.84  L  1980.17,   307.73  " /></a><a ewd:comment="1" style="cursor:pointer;" ewd:lineID="65"> d=" M  2133.14,   443.71  L  2133.14,   382.24 
	
		<path style="stroke:#000000;stroke-width: 5.10 ;&st6;" d=" M  2133.14,   443.71  L  2133.14,   382.24  " /><path style="stroke:#FFFFFF;stroke-width: 4.53 ;&st6;" d=" M  2133.14,   443.71  L  2133.14,   382.24  " /></a><a ewd:comment="1" style="cursor:pointer;" ewd:lineID="66"> d=" M  2133.14,   367.22  L  2133.14,   299.24 
	
		<path style="stroke:#000000;stroke-width: 5.10 ;&st6;" d=" M  2133.14,   367.22  L  2133.14,   299.24  " /><path style="stroke:#FFFFFF;stroke-width: 4.53 ;&st6;" d=" M  2133.14,   367.22  L  2133.14,   299.24  " /></a><a ewd:comment="1" style="cursor:pointer;" ewd:lineID="67"> d=" M  2133.14,   220.77  L  2133.14,   284.22 
	
		<path style="stroke:#000000;stroke-width: 5.10 ;&st6;" d=" M  2133.14,   220.77  L  2133.14,   284.22  " /><path style="stroke:#FFFFFF;stroke-width: 4.53 ;&st6;" d=" M  2133.14,   220.77  L  2133.14,   284.22  " /></a><a ewd:comment="1" style="cursor:pointer;" ewd:lineID="68"> d=" M  2133.14,   205.75  L  2133.14,   161.28 
	
		<path style="stroke:#000000;stroke-width: 5.10 ;&st6;" d=" M  2133.14,   205.75  L  2133.14,   161.28  " /><path style="stroke:#FFFFFF;stroke-width: 4.53 ;&st6;" d=" M  2133.14,   205.75  L  2133.14,   161.28  " /></a><a ewd:comment="1" style="cursor:pointer;" ewd:lineID="69"> d=" M  2133.14,    95.84  L  2133.14,   146.26 
	
		<path style="stroke:#000000;stroke-width: 5.10 ;&st6;" d=" M  2133.14,    95.84  L  2133.14,   146.26  " /><path style="stroke:#FFFFFF;stroke-width: 4.53 ;&st6;" d=" M  2133.14,    95.84  L  2133.14,   146.26  " /></a><a ewd:comment="1" style="cursor:pointer;" ewd:lineID="70"><path style="stroke:#FF0000;stroke-width: 5.10 ;&st6;" d=" M  2175.64,   443.71  L  2175.64,   381.95  " /></a><a ewd:comment="1" style="cursor:pointer;" ewd:lineID="71"><path style="stroke:#FF0000;stroke-width: 5.10 ;&st6;" d=" M  2175.64,   367.22  L  2175.64,   299.24  " /></a><a ewd:comment="1" style="cursor:pointer;" ewd:lineID="72"><path style="stroke:#FF0000;stroke-width: 5.10 ;&st6;" d=" M  2175.64,   220.48  L  2175.64,   284.50  " /></a><a ewd:comment="1" style="cursor:pointer;" ewd:lineID="73"><path style="stroke:#FF0000;stroke-width: 5.10 ;&st6;" d=" M  2175.64,   205.75  L  2175.64,   160.99  " /></a><a ewd:comment="1" style="cursor:pointer;" ewd:lineID="74"><path style="stroke:#FF0000;stroke-width: 5.10 ;&st6;" d=" M  2175.64,    95.84  L  2175.64,   146.26  " /></a><a ewd:comment="1" style="cursor:pointer;" ewd:lineID="75"><path style="stroke:#000000;stroke-width: 5.10 ;&st6;" d=" M  2277.62,   375.72  L  2277.62,   681.67  " /><path style="stroke:#FFFFFF;stroke-width: 4.53 ;&st6;" d=" M  2277.62,   375.72  L  2277.62,   681.67  " /><path style="stroke:#000000;stroke-width: 1.13 ;&st6;" d=" M  2277.62,   375.72  L  2277.62,   681.67  " /></a><a ewd:comment="1" style="cursor:pointer;" ewd:lineID="76"> d=" M  2277.62,   358.73  L  2277.62,   239.75 
	
		<path style="stroke:#000000;stroke-width: 5.10 ;&st6;" d=" M  2277.62,   358.73  L  2277.62,   239.75  " /><path style="stroke:#FFFFFF;stroke-width: 4.53 ;&st6;" d=" M  2277.62,   358.73  L  2277.62,   239.75  " /></a><a ewd:comment="1" style="cursor:pointer;" ewd:lineID="77"><path style="stroke:#008837;stroke-width: 5.10 ;&st6;" d=" M  2277.62,   160.99  L  2277.62,   205.75  " /></a><a ewd:comment="1" style="cursor:pointer;" ewd:lineID="78"><path style="stroke:#008837;stroke-width: 5.10 ;&st6;" d=" M  2277.62,    95.84  L  2277.62,   146.26  " /></a><a ewd:comment="1" style="cursor:pointer;" ewd:lineID="79"><path style="stroke:#000000;stroke-width: 5.10 ;&st6;" d=" M  2388.10,   560.42  L  2388.10,   681.67  " /><path style="stroke:#FFFFFF;stroke-width: 4.53 ;&st6;" d=" M  2388.10,   560.42  L  2388.10,   681.67  " /><path style="stroke:#000000;stroke-width: 1.13 ;&st6;" d=" M  2388.10,   560.42  L  2388.10,   681.67  " /></a><a ewd:comment="1" style="cursor:pointer;" ewd:lineID="80"> d=" M  2388.10,   511.70  L  2388.10,   545.69 
	
		<path style="stroke:#000000;stroke-width: 5.10 ;&st6;" d=" M  2388.10,   511.70  L  2388.10,   545.69  " /><path style="stroke:#FFFFFF;stroke-width: 4.53 ;&st6;" d=" M  2388.10,   511.70  L  2388.10,   545.69  " /></a><a ewd:comment="1" style="cursor:pointer;" ewd:lineID="81"><path style="stroke:#000000;stroke-width: 5.10 ;&st6;" d=" M  2388.10,   452.21  L  2388.10,   496.97  " /><path style="stroke:#FFFFFF;stroke-width: 4.53 ;&st6;" d=" M  2388.10,   452.21  L  2388.10,   496.97  " /><path style="stroke:#000000;stroke-width: 1.13 ;&st6;" d=" M  2388.10,   452.21  L  2388.10,   496.97  " /></a><a ewd:comment="1" style="cursor:pointer;" ewd:lineID="82"><path style="stroke:#008837;stroke-width: 5.10 ;&st6;" d=" M  2388.10,   381.95  L  2388.10,   418.22  " /></a><a ewd:comment="1" style="cursor:pointer;" ewd:lineID="83"><path style="stroke:#008837;stroke-width: 5.10 ;&st6;" d=" M  2388.10,   333.23  L  2388.10,   367.22  " /></a><a ewd:comment="1" style="cursor:pointer;" ewd:lineID="84"><path style="stroke:#008837;stroke-width: 5.10 ;&st6;" d=" M  2388.10,   279.97  L  2388.10,   318.50  " /></a><a ewd:comment="1" style="cursor:pointer;" ewd:lineID="85"><path style="stroke:#56077D;stroke-width: 5.10 ;&st6;" d=" M  2388.10,   222.75  L  2388.10,   265.24  " /></a><a ewd:comment="1" style="cursor:pointer;" ewd:lineID="86"><path style="stroke:#FF0000;stroke-width: 5.10 ;&st6;" d=" M  2388.10,   160.99  L  2388.10,   205.75  " /></a><a ewd:comment="1" style="cursor:pointer;" ewd:lineID="87"><path style="stroke:#FF0000;stroke-width: 5.10 ;&st6;" d=" M  2388.10,    95.84  L  2388.10,   146.26  " /></a><a ewd:comment="1" style="cursor:pointer;" ewd:lineID="88"><path style="stroke:#99D9E8;stroke-width: 5.10 ;&st6;" d=" M  2702.55,   487.34  L  2702.55,   562.69  L  2447.59,   562.69  L  2447.59,   222.75  " /></a><a style="cursor:pointer;" ewd:lineID="89"><path style="stroke:#000000;stroke-width: 5.10 ;&st6;" d=" M  2702.55,   408.58  L  2702.55,   358.73  " /></a><a style="cursor:pointer;" ewd:lineID="90"><path style="stroke:#000000;stroke-width: 5.10 ;&st6;" d=" M  2702.55,   299.24  L  2702.55,   343.99  " /></a><a style="cursor:pointer;" ewd:lineID="91"><path style="stroke:#7FC97F;stroke-width: 5.10 ;&st6;" d=" M  2702.55,   222.75  L  2702.55,   273.74  " /></a><a style="cursor:pointer;" ewd:lineID="92"><path style="stroke:#FF0000;stroke-width: 5.10 ;&st6;" d=" M  2702.55,   160.99  L  2702.55,   205.75  " /></a><a style="cursor:pointer;" ewd:lineID="93"><path style="stroke:#FF0000;stroke-width: 5.10 ;&st6;" d=" M  2702.55,    95.84  L  2702.55,   146.26  " /></a><a style="cursor:pointer;" ewd:lineID="94"> d=" M  2745.04,   408.58  L  2745.04,   358.73 
	
		<path style="stroke:#000000;stroke-width: 5.10 ;&st6;" d=" M  2745.04,   408.58  L  2745.04,   358.73  " /><path style="stroke:#FFFFFF;stroke-width: 4.53 ;&st6;" d=" M  2745.04,   408.58  L  2745.04,   358.73  " /></a><a style="cursor:pointer;" ewd:lineID="95"> d=" M  2745.04,   299.24  L  2745.04,   343.71 
	
		<path style="stroke:#000000;stroke-width: 5.10 ;&st6;" d=" M  2745.04,   299.24  L  2745.04,   343.71  " /><path style="stroke:#FFFFFF;stroke-width: 4.53 ;&st6;" d=" M  2745.04,   299.24  L  2745.04,   343.71  " /></a><a style="cursor:pointer;" ewd:lineID="96"> d=" M  2745.04,   222.75  L  2745.04,   273.74 
	
		<path style="stroke:#000000;stroke-width: 5.10 ;&st6;" d=" M  2745.04,   222.75  L  2745.04,   273.74  " /><path style="stroke:#FFFFFF;stroke-width: 4.53 ;&st6;" d=" M  2745.04,   222.75  L  2745.04,   273.74  " /></a><a style="cursor:pointer;" ewd:lineID="97"> d=" M  2745.04,   161.28  L  2745.04,   205.75 
	
		<path style="stroke:#000000;stroke-width: 5.10 ;&st6;" d=" M  2745.04,   161.28  L  2745.04,   205.75  " /><path style="stroke:#FFFFFF;stroke-width: 4.53 ;&st6;" d=" M  2745.04,   161.28  L  2745.04,   205.75  " /></a><a style="cursor:pointer;" ewd:lineID="98"> d=" M  2745.04,    95.84  L  2745.04,   146.26 
	
		<path style="stroke:#000000;stroke-width: 5.10 ;&st6;" d=" M  2745.04,    95.84  L  2745.04,   146.26  " /><path style="stroke:#FFFFFF;stroke-width: 4.53 ;&st6;" d=" M  2745.04,    95.84  L  2745.04,   146.26  " /></a><a style="cursor:pointer;" ewd:lineID="99"> d=" M  2915.01,   299.24  L  2915.01,   630.68  L  3382.43,   630.68  L  3382.43,   563.26 
	
		<path style="stroke:#000000;stroke-width: 5.10 ;&st6;" d=" M  2915.01,   299.24  L  2915.01,   630.68  L  3382.43,   630.68  L  3382.43,   563.26  " /><path style="stroke:#FFFFFF;stroke-width: 4.53 ;&st6;" d=" M  2915.01,   299.24  L  2915.01,   630.68  L  3382.43,   630.68  L  3382.43,   563.26  " /></a><a style="cursor:pointer;" ewd:lineID="100"><path style="stroke:#99D9E8;stroke-width: 5.10 ;&st6;" d=" M  2957.51,   299.24  L  2957.51,   613.68  L  3348.44,   613.68  L  3348.44,   563.26  " /></a><a ewd:comment="3" style="cursor:pointer;" ewd:lineID="101"><path style="stroke:#000000;stroke-width: 5.10 ;&st6;" d=" M  3203.96,   563.26  L  3203.96,   681.67  " /><path style="stroke:#FFFFFF;stroke-width: 4.53 ;&st6;" d=" M  3203.96,   563.26  L  3203.96,   681.67  " /><path style="stroke:#000000;stroke-width: 1.13 ;&st6;" d=" M  3203.96,   563.26  L  3203.96,   681.67  " /></a><a style="cursor:pointer;" ewd:lineID="102"><path style="stroke:#999999;stroke-width: 5.10 ;&st6;" d=" M  3203.96,   307.17  L  3203.96,   274.87  " /></a><a style="cursor:pointer;" ewd:lineID="103"><path style="stroke:#999999;stroke-width: 5.10 ;&st6;" d=" M  3203.96,   103.77  L  3203.96,   221.61  " /></a><a style="cursor:pointer;" ewd:lineID="104"> d=" M  3297.45,   307.17  L  3297.45,   274.87 
	
		<path style="stroke:#000000;stroke-width: 5.10 ;&st6;" d=" M  3297.45,   307.17  L  3297.45,   274.87  " /><path style="stroke:#FFFFFF;stroke-width: 4.53 ;&st6;" d=" M  3297.45,   307.17  L  3297.45,   274.87  " /></a><a style="cursor:pointer;" ewd:lineID="105"> d=" M  3297.45,   178.27  L  3297.45,   221.61 
	
		<path style="stroke:#000000;stroke-width: 5.10 ;&st6;" d=" M  3297.45,   178.27  L  3297.45,   221.61  " /><path style="stroke:#FFFFFF;stroke-width: 4.53 ;&st6;" d=" M  3297.45,   178.27  L  3297.45,   221.61  " /></a><a style="cursor:pointer;" ewd:lineID="106"><path style="stroke:#999999;stroke-width: 5.10 ;&st6;" d=" M  3297.45,   103.77  L  3297.45,   163.26  " /></a><a style="cursor:pointer;" ewd:lineID="107"><path style="stroke:#000000;stroke-width: 5.10 ;&st6;" d=" M  3433.43,   563.26  L  3433.43,   681.67  " /><path style="stroke:#FFFFFF;stroke-width: 4.53 ;&st6;" d=" M  3433.43,   563.26  L  3433.43,   681.67  " /><path style="stroke:#000000;stroke-width: 1.13 ;&st6;" d=" M  3433.43,   563.26  L  3433.43,   681.67  " /></a><a style="cursor:pointer;" ewd:lineID="108"><path style="stroke:#FFE600;stroke-width: 5.10 ;&st6;" d=" M  3433.43,   103.77  L  3433.43,   307.17  " /></a><a style="cursor:pointer;" ewd:lineID="109"><path style="stroke:#000000;stroke-width: 5.10 ;&st6;" d=" M  3475.92,   681.67  L  3475.92,   579.69  L  3441.92,   579.69  L  3433.43,   571.19  L  3433.43,   563.26  " /><path style="stroke:#FFFFFF;stroke-width: 4.53 ;&st6;" d=" M  3475.92,   681.67  L  3475.92,   579.69  L  3441.92,   579.69  L  3433.43,   571.19  L  3433.43,   563.26  " /><path style="stroke:#000000;stroke-width: 1.13 ;&st6;" d=" M  3475.92,   681.67  L  3475.92,   579.69  L  3441.92,   579.69  L  3433.43,   571.19  L  3433.43,   563.26  " /></a><a ewd:figtype="w2w" style="cursor:pointer;" ewd:pinNo="6" ewd:code="CG3" ewd:figID="40"><path style="&st2;" d=" M    42.49,   163.26  L    25.50,   163.26  L    25.50,   171.76  L    42.49,   171.76  L    42.49,   163.26 " /><text style="&st8;" transform="matrix(&st16;  28.24  169.63 )"><tspan x="0" style="&st18;" y="0">CG3</tspan></text></a><a ewd:figtype="w2w" style="cursor:pointer;" ewd:pinNo="10" ewd:code="CA2" ewd:figID="41"><path style="&st2;" d=" M   118.98,   163.26  L   101.98,   163.26  L   101.98,   171.76  L   118.98,   171.76  L   118.98,   163.26 " /><text style="&st8;" transform="matrix(&st16;  104.88  169.63 )"><tspan x="0" style="&st18;" y="0">CA2</tspan></text></a><a ewd:figtype="w2w" style="cursor:pointer;" ewd:pinNo="18" ewd:code="CG3" ewd:figID="42"><path style="&st2;" d=" M   314.45,   197.25  L   297.45,   197.25  L   297.45,   205.75  L   314.45,   205.75  L   314.45,   197.25 " /><text style="&st8;" transform="matrix(&st16;  300.19  203.62 )"><tspan x="0" style="&st18;" y="0">CG3</tspan></text></a><a ewd:figtype="w2w" style="cursor:pointer;" ewd:pinNo="18" ewd:code="CA2" ewd:figID="43"><path style="&st2;" d=" M   620.40,   290.74  L   603.40,   290.74  L   603.40,   299.24  L   620.40,   299.24  L   620.40,   290.74 " /><text style="&st8;" transform="matrix(&st16;  606.29  297.11 )"><tspan x="0" style="&st18;" y="0">CA2</tspan></text></a><a ewd:figtype="w2w" style="cursor:pointer;" ewd:pinNo="2" ewd:code="CE1" ewd:figID="44"><path style="&st2;" d=" M   705.38,   163.26  L   688.38,   163.26  L   688.38,   171.76  L   705.38,   171.76  L   705.38,   163.26 " /><text style="&st8;" transform="matrix(&st16;  691.47  169.63 )"><tspan x="0" style="&st18;" y="0">CE1</tspan></text></a><a ewd:figtype="w2w" style="cursor:pointer;" ewd:pinNo="1" ewd:code="CE1" ewd:figID="45"><path style="&st2;" d=" M   747.88,   163.26  L   730.88,   163.26  L   730.88,   171.76  L   747.88,   171.76  L   747.88,   163.26 " /><text style="&st8;" transform="matrix(&st16;  733.96  169.63 )"><tspan x="0" style="&st18;" y="0">CE1</tspan></text></a><a ewd:figtype="w2w" style="cursor:pointer;" ewd:pinNo="16" ewd:code="CG3" ewd:figID="46"><path style="&st2;" d=" M   824.36,   163.26  L   807.37,   163.26  L   807.37,   171.76  L   824.36,   171.76  L   824.36,   163.26 " /><text style="&st8;" transform="matrix(&st16;  810.11  169.63 )"><tspan x="0" style="&st18;" y="0">CG3</tspan></text></a><a ewd:figtype="w2w" style="cursor:pointer;" ewd:pinNo="15" ewd:code="CG3" ewd:figID="47"><path style="&st2;" d=" M   875.35,   163.26  L   858.36,   163.26  L   858.36,   171.76  L   875.35,   171.76  L   875.35,   163.26 " /><text style="&st8;" transform="matrix(&st16;  861.1  169.63 )"><tspan x="0" style="&st18;" y="0">CG3</tspan></text></a><a ewd:figtype="w2w" style="cursor:pointer;" ewd:pinNo="1" ewd:code="BA1" ewd:figID="48"><path style="&st2;" d=" M  1130.31,   392.72  L  1113.31,   392.72  L  1113.31,   401.22  L  1130.31,   401.22  L  1130.31,   392.72 " /><text style="&st8;" transform="matrix(&st16;  1116.43  399.09 )"><tspan x="0" style="&st18;" y="0">BA1</tspan></text></a><a ewd:figtype="w2w" style="cursor:pointer;" ewd:pinNo="15" ewd:code="AG2" ewd:figID="49"><path style="&st2;" d=" M  1130.31,   341.73  L  1113.31,   341.73  L  1113.31,   350.23  L  1130.31,   350.23  L  1130.31,   341.73 " /><text style="&st8;" transform="matrix(&st16;  1116.17  348.1 )"><tspan x="0" style="&st18;" y="0">AG2</tspan></text></a><a ewd:figtype="w2w" style="cursor:pointer;" ewd:pinNo="6" ewd:code="AG2" ewd:figID="50"><path style="&st2;" d=" M  1130.31,   180.26  L  1113.31,   180.26  L  1113.31,   188.75  L  1130.31,   188.75  L  1130.31,   180.26 " /><text style="&st8;" transform="matrix(&st16;  1116.17  186.62 )"><tspan x="0" style="&st18;" y="0">AG2</tspan></text></a><a ewd:figtype="w2w" style="cursor:pointer;" ewd:pinNo="2" ewd:code="BA1" ewd:figID="51"><path style="&st2;" d=" M  1223.80,   554.19  L  1206.80,   554.19  L  1206.80,   562.69  L  1223.80,   562.69  L  1223.80,   554.19 " /><text style="&st8;" transform="matrix(&st16;  1209.92  560.56 )"><tspan x="0" style="&st18;" y="0">BA1</tspan></text></a><a ewd:figtype="w2w" style="cursor:pointer;" ewd:pinNo="4" ewd:code="AG2" ewd:figID="52"><path style="&st2;" d=" M  1223.80,   494.70  L  1206.80,   494.70  L  1206.80,   503.20  L  1223.80,   503.20  L  1223.80,   494.70 " /><text style="&st8;" transform="matrix(&st16;  1209.65  501.07 )"><tspan x="0" style="&st18;" y="0">AG2</tspan></text></a><a ewd:figtype="w2w" style="cursor:pointer;" ewd:pinNo="10" ewd:code="CG2" ewd:figID="53"><path style="&st2;" d=" M  1223.80,   341.73  L  1206.80,   341.73  L  1206.80,   350.23  L  1223.80,   350.23  L  1223.80,   341.73 " /><text style="&st8;" transform="matrix(&st16;  1209.54  348.1 )"><tspan x="0" style="&st18;" y="0">CG2</tspan></text></a><a ewd:figtype="w2w" style="cursor:pointer;" ewd:pinNo="14" ewd:code="CG3" ewd:figID="54"><path style="&st2;" d=" M  1317.28,   554.19  L  1300.28,   554.19  L  1300.28,   562.69  L  1317.28,   562.69  L  1317.28,   554.19 " /><text style="&st8;" transform="matrix(&st16;  1303.02  560.56 )"><tspan x="0" style="&st18;" y="0">CG3</tspan></text></a><a ewd:figtype="w2w" style="cursor:pointer;" ewd:pinNo="9" ewd:code="CG3" ewd:figID="55"><path style="&st2;" d=" M  1402.27,   333.23  L  1385.27,   333.23  L  1385.27,   341.73  L  1402.27,   341.73  L  1402.27,   333.23 " /><text style="&st8;" transform="matrix(&st16;  1388.01  339.6 )"><tspan x="0" style="&st18;" y="0">CG3</tspan></text></a><a ewd:figtype="w2w" style="cursor:pointer;" ewd:pinNo="19" ewd:code="CA2" ewd:figID="56"><path style="&st2;" d=" M  1495.75,   341.73  L  1478.75,   341.73  L  1478.75,   350.23  L  1495.75,   350.23  L  1495.75,   341.73 " /><text style="&st8;" transform="matrix(&st16;  1481.65  348.1 )"><tspan x="0" style="&st18;" y="0">CA2</tspan></text></a><a ewd:figtype="w2w" style="cursor:pointer;" ewd:pinNo="5" ewd:code="OF1" ewd:figID="57"><path style="&st2;" d=" M  2141.64,   367.22  L  2124.65,   367.22  L  2124.65,   375.72  L  2141.64,   375.72  L  2141.64,   367.22 " /><text style="&st8;" transform="matrix(&st16;  2127.54  373.59 )"><tspan x="0" style="&st18;" y="0">OF1</tspan></text></a><a ewd:figtype="w2w" style="cursor:pointer;" ewd:pinNo="2" ewd:code="ON3" ewd:figID="58"><path style="&st2;" d=" M  2141.64,   290.74  L  2124.65,   290.74  L  2124.65,   299.24  L  2141.64,   299.24  L  2141.64,   290.74 " /><text style="&st8;" transform="matrix(&st16;  2127.35  297.11 )"><tspan x="0" style="&st18;" y="0">ON3</tspan></text></a><a ewd:figtype="w2w" style="cursor:pointer;" ewd:pinNo="11" ewd:code="GN1" ewd:figID="59"><path style="&st2;" d=" M  2141.64,   205.75  L  2124.65,   205.75  L  2124.65,   214.25  L  2141.64,   214.25  L  2141.64,   205.75 " /><text style="&st8;" transform="matrix(&st16;  2127.5  212.12 )"><tspan x="0" style="&st18;" y="0">GN1</tspan></text></a><a ewd:figtype="w2w" style="cursor:pointer;" ewd:pinNo="10" ewd:code="CG1" ewd:figID="60"><path style="&st2;" d=" M  2141.64,   146.26  L  2124.65,   146.26  L  2124.65,   154.76  L  2141.64,   154.76  L  2141.64,   146.26 " /><text style="&st8;" transform="matrix(&st16;  2127.39  152.63 )"><tspan x="0" style="&st18;" y="0">CG1</tspan></text></a><a ewd:figtype="w2w" style="cursor:pointer;" ewd:pinNo="4" ewd:code="OF1" ewd:figID="61"><path style="&st2;" d=" M  2184.14,   367.22  L  2167.14,   367.22  L  2167.14,   375.72  L  2184.14,   375.72  L  2184.14,   367.22 " /><text style="&st8;" transform="matrix(&st16;  2170.03  373.59 )"><tspan x="0" style="&st18;" y="0">OF1</tspan></text></a><a ewd:figtype="w2w" style="cursor:pointer;" ewd:pinNo="3" ewd:code="ON3" ewd:figID="62"><path style="&st2;" d=" M  2184.14,   290.74  L  2167.14,   290.74  L  2167.14,   299.24  L  2184.14,   299.24  L  2184.14,   290.74 " /><text style="&st8;" transform="matrix(&st16;  2169.84  297.11 )"><tspan x="0" style="&st18;" y="0">ON3</tspan></text></a><a ewd:figtype="w2w" style="cursor:pointer;" ewd:pinNo="16" ewd:code="GN1" ewd:figID="63"><path style="&st2;" d=" M  2184.14,   205.75  L  2167.14,   205.75  L  2167.14,   214.25  L  2184.14,   214.25  L  2184.14,   205.75 " /><text style="&st8;" transform="matrix(&st16;  2169.99  212.12 )"><tspan x="0" style="&st18;" y="0">GN1</tspan></text></a><a ewd:figtype="w2w" style="cursor:pointer;" ewd:pinNo="20" ewd:code="CG1" ewd:figID="64"><path style="&st2;" d=" M  2184.14,   146.26  L  2167.14,   146.26  L  2167.14,   154.76  L  2184.14,   154.76  L  2184.14,   146.26 " /><text style="&st8;" transform="matrix(&st16;  2169.88  152.63 )"><tspan x="0" style="&st18;" y="0">CG1</tspan></text></a><a ewd:figtype="w2w" style="cursor:pointer;" ewd:pinNo="17" ewd:code="CG3" ewd:figID="65"><path style="&st2;" d=" M  2286.12,   146.26  L  2269.12,   146.26  L  2269.12,   154.76  L  2286.12,   154.76  L  2286.12,   146.26 " /><text style="&st8;" transform="matrix(&st16;  2271.86  152.63 )"><tspan x="0" style="&st18;" y="0">CG3</tspan></text></a><a ewd:figtype="w2w" style="cursor:pointer;" ewd:pinNo="5" ewd:code="ON1" ewd:figID="66"><path style="&st2;" d=" M  2396.60,   545.69  L  2379.60,   545.69  L  2379.60,   554.19  L  2396.60,   554.19  L  2396.60,   545.69 " /><text style="&st8;" transform="matrix(&st16;  2382.31  552.06 )"><tspan x="0" style="&st18;" y="0">ON1</tspan></text></a><a ewd:figtype="w2w" style="cursor:pointer;" ewd:pinNo="1" ewd:code="OF1" ewd:figID="67"><path style="&st2;" d=" M  2396.60,   503.20  L  2379.60,   503.20  L  2379.60,   511.70  L  2396.60,   511.70  L  2396.60,   503.20 " /><text style="&st8;" transform="matrix(&st16;  2382.5  509.57 )"><tspan x="0" style="&st18;" y="0">OF1</tspan></text></a><a ewd:figtype="w2w" style="cursor:pointer;" ewd:pinNo="2" ewd:code="OF1" ewd:figID="68"><path style="&st2;" d=" M  2396.60,   367.22  L  2379.60,   367.22  L  2379.60,   375.72  L  2396.60,   375.72  L  2396.60,   367.22 " /><text style="&st8;" transform="matrix(&st16;  2382.5  373.59 )"><tspan x="0" style="&st18;" y="0">OF1</tspan></text></a><a ewd:figtype="w2w" style="cursor:pointer;" ewd:pinNo="3" ewd:code="ON1" ewd:figID="69"><path style="&st2;" d=" M  2396.60,   324.73  L  2379.60,   324.73  L  2379.60,   333.23  L  2396.60,   333.23  L  2396.60,   324.73 " /><text style="&st8;" transform="matrix(&st16;  2382.31  331.1 )"><tspan x="0" style="&st18;" y="0">ON1</tspan></text></a><a ewd:figtype="w2w" style="cursor:pointer;" ewd:pinNo="14" ewd:code="AN1" ewd:figID="70"><path style="&st2;" d=" M  2396.60,   265.24  L  2379.60,   265.24  L  2379.60,   273.74  L  2396.60,   273.74  L  2396.60,   265.24 " /><text style="&st8;" transform="matrix(&st16;  2382.61  271.61 )"><tspan x="0" style="&st18;" y="0">AN1</tspan></text></a><a ewd:figtype="w2w" style="cursor:pointer;" ewd:pinNo="8" ewd:code="CA2" ewd:figID="71"><path style="&st2;" d=" M  2396.60,   146.26  L  2379.60,   146.26  L  2379.60,   154.76  L  2396.60,   154.76  L  2396.60,   146.26 " /><text style="&st8;" transform="matrix(&st16;  2382.5  152.63 )"><tspan x="0" style="&st18;" y="0">CA2</tspan></text></a><a ewd:figtype="w2w" style="cursor:pointer;" ewd:pinNo="20" ewd:code="AG1" ewd:figID="72"><path style="&st2;" d=" M  2711.05,   350.23  L  2694.05,   350.23  L  2694.05,   358.73  L  2711.05,   358.73  L  2711.05,   350.23 " /><text style="&st8;" transform="matrix(&st16;  2696.9  356.6 )"><tspan x="0" style="&st18;" y="0">AG1</tspan></text></a><a ewd:figtype="w2w" style="cursor:pointer;" ewd:pinNo="11" ewd:code="CG3" ewd:figID="73"><path style="&st2;" d=" M  2711.05,   146.26  L  2694.05,   146.26  L  2694.05,   154.76  L  2711.05,   154.76  L  2711.05,   146.26 " /><text style="&st8;" transform="matrix(&st16;  2696.79  152.63 )"><tspan x="0" style="&st18;" y="0">CG3</tspan></text></a><a ewd:figtype="w2w" style="cursor:pointer;" ewd:pinNo="21" ewd:code="AG1" ewd:figID="74"><path style="&st2;" d=" M  2753.54,   350.23  L  2736.54,   350.23  L  2736.54,   358.73  L  2753.54,   358.73  L  2753.54,   350.23 " /><text style="&st8;" transform="matrix(&st16;  2739.4  356.6 )"><tspan x="0" style="&st18;" y="0">AG1</tspan></text></a><a ewd:figtype="w2w" style="cursor:pointer;" ewd:pinNo="10" ewd:code="CG3" ewd:figID="75"><path style="&st2;" d=" M  2753.54,   146.26  L  2736.54,   146.26  L  2736.54,   154.76  L  2753.54,   154.76  L  2753.54,   146.26 " /><text style="&st8;" transform="matrix(&st16;  2739.28  152.63 )"><tspan x="0" style="&st18;" y="0">CG3</tspan></text></a><a ewd:figtype="w2w" style="cursor:pointer;" ewd:pinNo="24" ewd:code="AG1" ewd:figID="76"><path style="&st2;" d=" M  3305.95,   163.26  L  3288.95,   163.26  L  3288.95,   171.76  L  3305.95,   171.76  L  3305.95,   163.26 " /><text style="&st8;" transform="matrix(&st16;  3291.81  169.63 )"><tspan x="0" style="&st18;" y="0">AG1</tspan></text></a><a ewd:figtype="gp" style="cursor:pointer;" ewd:code="GE" ewd:figID="77"><path style="&st2;" d=" M   261.33,   681.67  L   282.58,   681.67  L   271.95,   697.25  L   261.33,   681.67 " /><text style="&st8;" transform="matrix(&st16;  268.0  689.46 )"><tspan x="0" style="&st18;" y="0">GE</tspan></text></a><a ewd:figtype="gp" style="cursor:pointer;" ewd:code="GA" ewd:figID="78"><path style="&st2;" d=" M   295.33,   681.67  L   316.57,   681.67  L   305.95,   697.25  L   295.33,   681.67 " /><text style="&st8;" transform="matrix(&st16;  301.81  689.46 )"><tspan x="0" style="&st18;" y="0">GA</tspan></text></a><a ewd:figtype="gp" style="cursor:pointer;" ewd:code="CB" ewd:figID="79"><path style="&st2;" d=" M   363.31,   681.67  L   384.56,   681.67  L   373.94,   697.25  L   363.31,   681.67 " /><text style="&st8;" transform="matrix(&st16;  369.95  689.46 )"><tspan x="0" style="&st18;" y="0">CB</tspan></text></a><a ewd:figtype="gp" style="cursor:pointer;" ewd:code="GC" ewd:figID="80"><path style="&st2;" d=" M   830.74,   681.67  L   851.98,   681.67  L   841.36,   697.25  L   830.74,   681.67 " /><text style="&st8;" transform="matrix(&st16;  837.11  689.46 )"><tspan x="0" style="&st18;" y="0">GC</tspan></text></a><a ewd:figtype="gp" style="cursor:pointer;" ewd:code="AC" ewd:figID="81"><path style="&st2;" d=" M   949.72,   681.67  L   970.96,   681.67  L   960.34,   697.25  L   949.72,   681.67 " /><text style="&st8;" transform="matrix(&st16;  956.24  689.46 )"><tspan x="0" style="&st18;" y="0">AC</tspan></text></a><a ewd:figtype="gp" style="cursor:pointer;" ewd:code="CB" ewd:figID="82"><path style="&st2;" d=" M  1689.09,   681.67  L  1710.34,   681.67  L  1699.72,   697.25  L  1689.09,   681.67 " /><text style="&st8;" transform="matrix(&st16;  1695.73  689.46 )"><tspan x="0" style="&st18;" y="0">CB</tspan></text></a><a ewd:figtype="gp" style="cursor:pointer;" ewd:code="GC" ewd:figID="83"><path style="&st2;" d=" M  2267.00,   681.67  L  2288.24,   681.67  L  2277.62,   697.25  L  2267.00,   681.67 " /><text style="&st8;" transform="matrix(&st16;  2273.37  689.46 )"><tspan x="0" style="&st18;" y="0">GC</tspan></text></a><a ewd:figtype="gp" style="cursor:pointer;" ewd:code="NB" ewd:figID="84"><path style="&st2;" d=" M  2377.48,   681.67  L  2398.72,   681.67  L  2388.10,   697.25  L  2377.48,   681.67 " /><text style="&st8;" transform="matrix(&st16;  2384.23  689.46 )"><tspan x="0" style="&st18;" y="0">NB</tspan></text></a><a ewd:figtype="gp" style="cursor:pointer;" ewd:code="GC" ewd:figID="85"><path style="&st2;" d=" M  3193.34,   681.67  L  3214.59,   681.67  L  3203.96,   697.25  L  3193.34,   681.67 " /><text style="&st8;" transform="matrix(&st16;  3199.71  689.46 )"><tspan x="0" style="&st18;" y="0">GC</tspan></text></a><a ewd:figtype="gp" style="cursor:pointer;" ewd:code="GD" ewd:figID="86"><path style="&st2;" d=" M  3422.80,   681.67  L  3444.05,   681.67  L  3433.43,   697.25  L  3422.80,   681.67 " /><text style="&st8;" transform="matrix(&st16;  3429.21  689.46 )"><tspan x="0" style="&st18;" y="0">GD</tspan></text></a><a ewd:figtype="gp" style="cursor:pointer;" ewd:code="GA" ewd:figID="87"><path style="&st2;" d=" M  3465.30,   681.67  L  3486.54,   681.67  L  3475.92,   697.25  L  3465.30,   681.67 " /><text style="&st8;" transform="matrix(&st16;  3471.78  689.46 )"><tspan x="0" style="&st18;" y="0">GA</tspan></text></a><a ewd:figtype="sp" style="cursor:pointer;" ewd:code="SP8" ewd:figID="88"><path style="&st2;" d=" M   369.69,   367.22  L   378.19,   367.22  L   382.44,   371.47  L   382.44,   379.97  L   378.19,   384.22  L   369.69,   384.22  L   365.44,   379.97  L   365.44,   371.47  L   369.69,   367.22 " /></a><a ewd:figtype="sp" style="cursor:pointer;" ewd:code="SP1" ewd:figID="89"><path style="&st2;" d=" M   956.09,   358.73  L   964.59,   358.73  L   968.84,   362.97  L   968.84,   371.47  L   964.59,   375.72  L   956.09,   375.72  L   951.84,   371.47  L   951.84,   362.97  L   956.09,   358.73 " /></a><a ewd:figtype="sp" style="cursor:pointer;" ewd:code="SP8" ewd:figID="90"><path style="&st2;" d=" M  1695.47,   460.71  L  1703.97,   460.71  L  1708.21,   464.96  L  1708.21,   473.46  L  1703.97,   477.71  L  1695.47,   477.71  L  1691.22,   473.46  L  1691.22,   464.96  L  1695.47,   460.71 " /></a></g></svg>