﻿<?xml version="1.0" encoding="utf-8"?>
<!DOCTYPE svg PUBLIC "-//W3C//DTD SVG 1.0//EN" "http://www.w3.org/TR/2001/REC-SVG-20010904/DTD/svg10.dtd"[
	<!ENTITY ns_flows "http://ns.adobe.com/Flows/1.0/">
	<!ENTITY ns_svg "http://www.w3.org/2000/svg">
	<!ENTITY ns_xlink "http://www.w3.org/1999/xlink">
	<!ENTITY st0 "font-size:7px;font-family:'MS-PGothic';adobe-font-script:japanese;">
	<!ENTITY st1 "font-size:6px;font-family:'ArialMT';">
	<!-- White fill  -->
	<!ENTITY st2 "fill:#FFFFFF;stroke:#000000; stroke-width:1.41;stroke-linecap:round;stroke-linejoin:round;">
	<!-- Yellow fill  -->
	<!ENTITY st3 "fill:#FFFFCC;stroke:#FFFFCC; stroke-width:0.1;stroke-linecap:round;stroke-linejoin:round;">
	<!-- Gray fill  -->
	<!ENTITY st4 "fill:#CCCCCC;stroke:#CCCCCC; stroke-width:0.1;stroke-linecap:round;stroke-linejoin:round;">
	<!-- Light-blue fill -->
	<!ENTITY st5 "fill:#CCECF4;stroke:#000000; stroke-width:1.133;stroke-linecap:round;stroke-linejoin:round;">
	<!ENTITY st6 "fill:none;stroke-linecap:butt; stroke-linejoin:round;">
	<!ENTITY st7 "fill:none;stroke:#000000;stroke-linecap:round;stroke-linejoin:round;">
	<!ENTITY st8 "enable-background:new    ;">
	<!-- Black fill -->
	<!ENTITY st9 "fill:#000000;stroke:#000000; stroke-linecap:round;stroke-linejoin:round;">
	<!-- SRS note   -->
	<!ENTITY st10 "font-size:9px;font-family:'ArialMT';">
	<!ENTITY st11 "font-size:9px;font-family:'Svg Symbol';">
	<!ENTITY st12 "font-size:6px;font-family:'Svg Symbol';">
	<!ENTITY st13 "fill:none;stroke:#ff0000;stroke-linecap:round;stroke-linejoin:round;">
	<!-- Yellow fill  -->
	<!ENTITY st14 "fill:#FFFF00;stroke:#FFFF00; stroke-width:0.1;stroke-linecap:round;stroke-linejoin:round;">
	<!ENTITY st15 "font-size:6px;font-family:'MS-PGothic';adobe-font-script:japanese;">
	<!ENTITY st16 "1.00 0.00 0.00 1.00">
	<!ENTITY st17 "0.00 -1.00 1.00 0.00">
	<!ENTITY st18 "font-size:6px;font-family:'Arial';">
	<!ENTITY st19 "font-size:9px;font-family:'Arial';">
	<!ENTITY st20 "font-size:6px;font-family:'MS-PGothic','MS PGothic';adobe-font-script:japanese;">
	<!ENTITY st21 "font-size:7px;font-family:'MS-PGothic','MS PGothic';adobe-font-script:japanese;">
	<!ATTLIST svg
		xmlns:ewd CDATA #FIXED "http://shcl.co.jp/ewd"
		xmlns:a CDATA #FIXED "http://ns.adobe.com/AdobeSVGViewerExtensions/3.0/"
		ewd:ver CDATA #IMPLIED
	>
	<!ATTLIST a
		ewd:lineID CDATA #IMPLIED
		ewd:groupID CDATA #IMPLIED
		ewd:figtype CDATA #IMPLIED
		ewd:code CDATA #IMPLIED
		ewd:figID CDATA #IMPLIED
		ewd:pinNo CDATA #IMPLIED
		ewd:comment CDATA #IMPLIED >
	<!ATTLIST g
		ewd:lineID CDATA #IMPLIED
		ewd:groupID CDATA #IMPLIED
		ewd:figtype CDATA #IMPLIED
		ewd:code CDATA #IMPLIED
		ewd:figID CDATA #IMPLIED
		ewd:pinNo CDATA #IMPLIED
		ewd:comment CDATA #IMPLIED >
	<!ATTLIST text
		ewd:textID CDATA #IMPLIED >
	<!ATTLIST title
		ewd:textID CDATA #IMPLIED >
]>
<!-- Generator: Shintec Hozumi YS   -->
<svg onload="call_execInitLoadProc_svg('system')" style="overflow:visible;  enable-background:new 0 0 3096.855 710.000" viewBox="0 0 3096.855 710.000" height="710.000" width="3096.855" xml:space="preserve" ewd:ver="2.1.2.9" xmlns="&ns_svg;" xmlns:a="http://ns.adobe.com/AdobeSVGViewerExtensions/3.0/" xmlns:ewd="http://shcl.co.jp/ewd" xmlns:xlink="&ns_xlink;">
<path style="stroke-width: 1.42 ;&st7;  " d=" M   110.48,   358.73  L   101.98,   358.73  " /><path style="stroke-width: 1.42 ;&st7;  " d=" M   450.42,   205.75  L   458.92,   205.75  " /><path style="stroke-width: 1.42 ;&st7;  " d=" M    93.48,   426.71  L   101.98,   426.71  " /><path style="stroke-width: 1.42 ;&st7;  " d=" M    76.49,   358.73  L    67.99,   358.73  " /><path style="stroke-width: 1.42 ;&st7;  " d=" M    59.49,   426.71  L    67.99,   426.71  " /><path style="stroke-width: 1.42 ;&st7;  " d=" M   450.42,   358.73  L   441.93,   358.73  " /><path style="stroke-width: 1.42 ;&st7;  " d=" M   433.43,   426.71  L   441.93,   426.71  " /><path style="stroke-width: 1.42 ;&st7;  " d=" M   407.93,   358.73  L   399.43,   358.73  " /><path style="stroke-width: 1.42 ;&st7;  " d=" M   390.93,   426.71  L   399.43,   426.71  " /><path style="stroke-width: 1.42 ;&st7;  " d=" M   322.95,   163.26  L   314.45,   163.26  " /><text style="&st18;" transform="matrix(&st17;  98.29  470.9 )">Y</text><text style="&st18;" transform="matrix(&st17;  438.23  395.18 )">W</text><text style="&st18;" transform="matrix(&st17;  64.29  474.39 )">Y-B</text><text style="&st18;" transform="matrix(&st17;  64.29  385.91 )">B</text><text style="&st18;" transform="matrix(&st17;  98.29  385.91 )">Y</text><text style="&st18;" transform="matrix(&st17;  64.29  326.42 )">B</text><text style="&st18;" transform="matrix(&st17;  98.29  326.42 )">Y</text><text style="&st18;" transform="matrix(&st17;  183.27  327.2 )">W</text><text style="&st18;" transform="matrix(&st17;  217.27  326.34 )">R</text><text style="&st18;" transform="matrix(&st17;  285.26  326.34 )">R</text><text style="&st18;" transform="matrix(&st17;  319.25  326.69 )">G</text><text style="&st18;" transform="matrix(&st17;  395.74  470.9 )">B</text><text style="&st18;" transform="matrix(&st17;  438.23  470.82 )">R</text><text style="&st18;" transform="matrix(&st17;  395.74  394.41 )">B</text><text style="&st18;" transform="matrix(&st17;  395.74  326.42 )">B</text><text style="&st18;" transform="matrix(&st17;  438.23  327.2 )">W</text><text style="&st18;" transform="matrix(&st17;  455.23  232.82 )">L</text><text style="&st18;" transform="matrix(&st17;  310.75  190.37 )">R</text><text style="&st18;" transform="matrix(&st17;  310.75  132.81 )">BE</text><text style="&st18;" transform="matrix(&st17;  234.26  164.95 )">B</text><text style="&st18;" transform="matrix(&st17;  455.23  181.83 )">L</text><text style="&st18;" transform="matrix(&st17;  166.28  164.87 )">R</text><text style="&st18;" transform="matrix(&st17;  455.23  79.88 )">R</text><g ewd:figtype="rb" ewd:figID="7" ewd:code="FUSE25"><path style="stroke-width: 1.42 ;&st7;  " d=" M   240.08,    95.27  L   235.84,    95.27  " /><path style="stroke-width: 1.42 ;&st7;  " d=" M   240.08,   103.77  L   235.84,   103.77  " /><path style="stroke-width: 0.85 ;&st7;  " d=" M   237.96,    78.27  L   237.96,    95.27  " /><path style="stroke-width: 1.42 ;&st7;   " d=" M   235.84,    95.27  C   233.49     95.27    231.59     97.17    231.59     99.52  " /><path style="stroke-width: 1.42 ;&st7;   " d=" M   231.59,    99.52  C   231.59    101.87    233.49    103.77    235.84    103.77  " /><path style="stroke-width: 1.42 ;&st7;   " d=" M   240.08,   103.77  C   242.43    103.77    244.33    101.87    244.33     99.52  " /><path style="stroke-width: 1.42 ;&st7;   " d=" M   244.33,    99.52  C   244.33     97.17    242.43     95.27    240.08     95.27  " /><path style="stroke-width: 0.28 ;&st9;  " d=" M   237.96,    90.37  L   235.13,    87.54  L   235.13,    91.79  L   237.96,    94.62  L   240.79,    91.79  L   240.79,    87.54  L   237.96,    90.37  " /><text style="&st18;" transform="matrix(&st16;  254.38  53.34 )">30A <tspan x="0 " dy="6.0">ABS </tspan><tspan x="0 " dy="6.0">NO.2</tspan></text><text style="&st18;" transform="matrix(&st16;  236.16  101.49 )">1</text><text style="&st18;" transform="matrix(&st16;  231.78  86.47 )">2</text><text style="&st18;" transform="matrix(&st16;  229.92  32.08 )">(BAT)</text><path style="stroke-width: 0.85 ;&st7;  " d=" M   237.96,    69.77  L   237.96,    78.27  " /><path style="stroke-width: 1.42 ;&st7;   " d=" M   237.96,    47.11  C   235.22     48.72    234.31     52.25    235.92     54.99  " /><path style="stroke-width: 1.42 ;&st7;   " d=" M   235.92,    54.99  C   236.44     55.87    237.08     56.51    237.96     57.03  " /><path style="stroke-width: 1.42 ;&st7;   " d=" M   237.96,    66.94  C   240.70     65.33    241.61     61.80    240.00     59.06  " /><path style="stroke-width: 1.42 ;&st7;   " d=" M   240.00,    59.06  C   239.48     58.18    238.84     57.55    237.96     57.03  " /><path style="stroke-width: 0.85 ;&st7;   " d=" M   239.38,    45.69  C   239.38     44.91    238.74     44.28    237.96     44.28  " /><path style="stroke-width: 0.85 ;&st7;   " d=" M   237.96,    44.28  C   237.18     44.28    236.54     44.91    236.54     45.69  " /><path style="stroke-width: 0.85 ;&st7;   " d=" M   236.54,    45.69  C   236.54     46.48    237.18     47.11    237.96     47.11  " /><path style="stroke-width: 0.85 ;&st7;   " d=" M   237.96,    47.11  C   238.74     47.11    239.38     46.48    239.38     45.69  " /><path style="stroke-width: 0.85 ;&st7;   " d=" M   239.38,    68.36  C   239.38     67.57    238.74     66.94    237.96     66.94  " /><path style="stroke-width: 0.85 ;&st7;   " d=" M   237.96,    66.94  C   237.18     66.94    236.54     67.57    236.54     68.36  " /><path style="stroke-width: 0.85 ;&st7;   " d=" M   236.54,    68.36  C   236.54     69.14    237.18     69.77    237.96     69.77  " /><path style="stroke-width: 0.85 ;&st7;   " d=" M   237.96,    69.77  C   238.74     69.77    239.38     69.14    239.38     68.36  " /><path style="stroke-width: 1.42 ;&st7;  " d=" M   225.21,    35.78  L   225.21,    78.27  L   250.71,    78.27  L   250.71,    35.78  L   225.21,    35.78  " /></g><g ewd:figtype="rb" ewd:figID="8" ewd:code="FUSE31"><path style="stroke-width: 1.42 ;&st7;  " d=" M   172.10,    95.27  L   167.85,    95.27  " /><path style="stroke-width: 1.42 ;&st7;  " d=" M   172.10,   103.77  L   167.85,   103.77  " /><path style="stroke-width: 0.85 ;&st7;  " d=" M   169.97,    78.27  L   169.97,    95.27  " /><path style="stroke-width: 1.42 ;&st7;   " d=" M   167.85,    95.27  C   165.50     95.27    163.60     97.17    163.60     99.52  " /><path style="stroke-width: 1.42 ;&st7;   " d=" M   163.60,    99.52  C   163.60    101.87    165.50    103.77    167.85    103.77  " /><path style="stroke-width: 1.42 ;&st7;   " d=" M   172.10,   103.77  C   174.44    103.77    176.35    101.87    176.35     99.52  " /><path style="stroke-width: 1.42 ;&st7;   " d=" M   176.35,    99.52  C   176.35     97.17    174.44     95.27    172.10     95.27  " /><path style="stroke-width: 0.28 ;&st9;  " d=" M   169.97,    90.37  L   167.14,    87.54  L   167.14,    91.79  L   169.97,    94.62  L   172.80,    91.79  L   172.80,    87.54  L   169.97,    90.37  " /><text style="&st18;" transform="matrix(&st16;  186.4  53.34 )">50A <tspan x="0 " dy="6.0">ABS </tspan><tspan x="0 " dy="6.0">NO.1</tspan></text><text style="&st18;" transform="matrix(&st16;  168.17  101.49 )">1</text><text style="&st18;" transform="matrix(&st16;  163.79  86.47 )">2</text><text style="&st18;" transform="matrix(&st16;  161.93  32.08 )">(BAT)</text><path style="stroke-width: 0.85 ;&st7;  " d=" M   169.97,    69.77  L   169.97,    78.27  " /><path style="stroke-width: 1.42 ;&st7;   " d=" M   169.97,    66.94  C   172.71     65.33    173.62     61.80    172.01     59.06  " /><path style="stroke-width: 1.42 ;&st7;   " d=" M   172.01,    59.06  C   171.49     58.18    170.85     57.55    169.97     57.03  " /><path style="stroke-width: 0.85 ;&st7;   " d=" M   171.39,    45.69  C   171.39     44.91    170.75     44.28    169.97     44.28  " /><path style="stroke-width: 0.85 ;&st7;   " d=" M   169.97,    44.28  C   169.19     44.28    168.56     44.91    168.56     45.69  " /><path style="stroke-width: 0.85 ;&st7;   " d=" M   168.56,    45.69  C   168.56     46.48    169.19     47.11    169.97     47.11  " /><path style="stroke-width: 0.85 ;&st7;   " d=" M   169.97,    47.11  C   170.75     47.11    171.39     46.48    171.39     45.69  " /><path style="stroke-width: 0.85 ;&st7;   " d=" M   171.39,    68.36  C   171.39     67.57    170.75     66.94    169.97     66.94  " /><path style="stroke-width: 0.85 ;&st7;   " d=" M   169.97,    66.94  C   169.19     66.94    168.56     67.57    168.56     68.36  " /><path style="stroke-width: 0.85 ;&st7;   " d=" M   168.56,    68.36  C   168.56     69.14    169.19     69.77    169.97     69.77  " /><path style="stroke-width: 0.85 ;&st7;   " d=" M   169.97,    69.77  C   170.75     69.77    171.39     69.14    171.39     68.36  " /><path style="stroke-width: 1.42 ;&st7;  " d=" M   157.22,    35.78  L   157.22,    78.27  L   182.72,    78.27  L   182.72,    35.78  L   157.22,    35.78  " /><path style="stroke-width: 1.42 ;&st7;   " d=" M   169.97,    47.11  C   167.23     48.72    166.32     52.25    167.93     54.99  " /><path style="stroke-width: 1.42 ;&st7;   " d=" M   167.93,    54.99  C   168.45     55.87    169.09     56.51    169.97     57.03  " /></g><g ewd:figtype="conn" ewd:figID="11" ewd:code="O3"><path style="stroke-width: 1.42 ;&st7;  " d=" M    50.99,   503.20  L    50.99,   537.20  L   118.98,   537.20  L   118.98,   503.20  L    50.99,   503.20  " /><g ewd:lineID="1"><text style="&st18;" transform="matrix(&st16;  61.8  499.51 )">2</text><text style="&st18;" transform="matrix(&st16;  62.47  510.84 )">RR+</text></g><g ewd:lineID="4"><text style="&st18;" transform="matrix(&st16;  95.8  499.51 )">1</text><text style="&st18;" transform="matrix(&st16;  96.46  510.84 )">RR-</text></g><g ewd:figtype="title"><text style="&st18;" transform="matrix(&st16;  47.58  545.09 )">O3</text><text style="&st18;" transform="matrix(&st16;  47.59  551.91 )" ewd:textID="37">Rear Speed Sensor RH</text></g></g><g ewd:figtype="conn" ewd:figID="12" ewd:code="A8"><path style="stroke-width: 1.42 ;&st7;  " d=" M   169.97,   367.22  L   169.97,   401.22  L   237.96,   401.22  L   237.96,   367.22  L   169.97,   367.22  " /><g ewd:lineID="8"><text style="&st18;" transform="matrix(&st16;  180.78  363.53 )">2</text><text style="&st18;" transform="matrix(&st16;  181.45  374.86 )">FR+</text></g><g ewd:lineID="9"><text style="&st18;" transform="matrix(&st16;  214.78  363.53 )">1</text><text style="&st18;" transform="matrix(&st16;  215.44  374.86 )">FR-</text></g><g ewd:figtype="title"><text style="&st18;" transform="matrix(&st16;  166.56  409.11 )">A8</text><text style="&st18;" transform="matrix(&st16;  166.57  415.94 )" ewd:textID="15">Front Speed Sensor RH</text></g></g><g ewd:figtype="conn" ewd:figID="13" ewd:code="A9"><path style="stroke-width: 1.42 ;&st7;  " d=" M   271.95,   367.22  L   271.95,   401.22  L   339.94,   401.22  L   339.94,   367.22  L   271.95,   367.22  " /><g ewd:lineID="11"><text style="&st18;" transform="matrix(&st16;  282.77  363.53 )">2</text><text style="&st18;" transform="matrix(&st16;  283.47  374.86 )">FL+</text></g><g ewd:lineID="14"><text style="&st18;" transform="matrix(&st16;  316.76  363.53 )">1</text><text style="&st18;" transform="matrix(&st16;  317.46  374.86 )">FL-</text></g><g ewd:figtype="title"><text style="&st18;" transform="matrix(&st16;  268.54  409.11 )">A9</text><text style="&st18;" transform="matrix(&st16;  268.55  415.94 )" ewd:textID="14">Front Speed Sensor LH</text></g></g><g ewd:figtype="conn" ewd:figID="14" ewd:code="O4"><path style="stroke-width: 1.42 ;&st7;  " d=" M   382.44,   503.20  L   382.44,   537.20  L   458.92,   537.20  L   458.92,   503.20  L   382.44,   503.20  " /><g ewd:lineID="15"><text style="&st18;" transform="matrix(&st16;  393.25  499.51 )">1</text><text style="&st18;" transform="matrix(&st16;  393.95  510.84 )">RL-</text></g><g ewd:lineID="18"><text style="&st18;" transform="matrix(&st16;  435.74  499.51 )">2</text><text style="&st18;" transform="matrix(&st16;  436.44  510.84 )">RL+</text></g><g ewd:figtype="title"><text style="&st18;" transform="matrix(&st16;  379.02  545.09 )">O4</text><text style="&st18;" transform="matrix(&st16;  379.03  551.91 )" ewd:textID="36">Rear Speed Sensor LH</text></g></g><g ewd:figtype="conn" ewd:figID="23" ewd:code="G48,G95"><path style="stroke-width: 1.42 ;&st7;  " d=" M   450.42,   120.77  L   467.42,   120.77  L   467.42,   137.76  L   450.42,   137.76  L   450.42,   120.77  " /><path style="stroke-width: 0.85 ;&st7;  " d=" M   458.92,   120.77  L   458.92,   137.76  " /><text style="&st18;" transform="matrix(&st16;  447.13  109.14 )">12</text><text style="&st18;" transform="matrix(&st16;  450.23  118.2 )">1</text><path style="stroke-width: 1.42 ;&st7;   " d=" M   463.46,   116.23  C   463.46    113.73    461.43    111.70    458.92    111.70  " /><path style="stroke-width: 1.42 ;&st7;   " d=" M   458.92,   111.70  C   456.42    111.70    454.39    113.73    454.39    116.23  " /><path style="stroke-width: 1.42 ;&st7;   " d=" M   454.39,   116.23  C   454.39    118.74    456.42    120.77    458.92    120.77  " /><path style="stroke-width: 1.42 ;&st7;   " d=" M   458.92,   120.77  C   461.43    120.77    463.46    118.74    463.46    116.23  " /><path style="stroke-width: 1.42 ;&st7;   " d=" M   463.46,   107.17  C   463.46    104.66    461.43    102.63    458.92    102.63  " /><path style="stroke-width: 1.42 ;&st7;   " d=" M   458.92,   102.63  C   456.42    102.63    454.39    104.66    454.39    107.17  " /><path style="stroke-width: 1.42 ;&st7;   " d=" M   454.39,   107.17  C   454.39    109.67    456.42    111.70    458.92    111.70  " /><path style="stroke-width: 1.42 ;&st7;   " d=" M   458.92,   111.70  C   461.43    111.70    463.46    109.67    463.46    107.17  " /><text style="&st18;" transform="matrix(&st16;  456.62  109.14 )">A</text><text style="&st18;" transform="matrix(&st16;  456.74  118.2 )">B</text><text style="&st18;" transform="matrix(&st16;  447.13  144.26 )">16</text><text style="&st18;" transform="matrix(&st16;  450.23  153.33 )">5</text><path style="stroke-width: 1.42 ;&st7;   " d=" M   463.46,   151.36  C   463.46    148.86    461.43    146.83    458.92    146.83  " /><path style="stroke-width: 1.42 ;&st7;   " d=" M   458.92,   146.83  C   456.42    146.83    454.39    148.86    454.39    151.36  " /><path style="stroke-width: 1.42 ;&st7;   " d=" M   454.39,   151.36  C   454.39    153.86    456.42    155.89    458.92    155.89  " /><path style="stroke-width: 1.42 ;&st7;   " d=" M   458.92,   155.89  C   461.43    155.89    463.46    153.86    463.46    151.36  " /><path style="stroke-width: 1.42 ;&st7;   " d=" M   463.46,   142.29  C   463.46    139.79    461.43    137.76    458.92    137.76  " /><path style="stroke-width: 1.42 ;&st7;   " d=" M   458.92,   137.76  C   456.42    137.76    454.39    139.79    454.39    142.29  " /><path style="stroke-width: 1.42 ;&st7;   " d=" M   454.39,   142.29  C   454.39    144.80    456.42    146.83    458.92    146.83  " /><path style="stroke-width: 1.42 ;&st7;   " d=" M   458.92,   146.83  C   461.43    146.83    463.46    144.80    463.46    142.29  " /><text style="&st18;" transform="matrix(&st16;  456.62  144.26 )">A</text><text style="&st18;" transform="matrix(&st16;  456.74  153.33 )">B</text><g ewd:figtype="title"><text style="&st18;" transform="matrix(&st17;  437.95  140.67 )" ewd:textID="33">No. 28 <tspan x="0 " dy="6.0">Junction Connector</tspan></text><text style="&st18;" transform="matrix(&st17;  417.83  140.67 )" ewd:textID="27">No. 8 <tspan x="0 " dy="6.0">Junction Connector</tspan></text><text style="&st18;" transform="matrix(&st17;  411.01  140.66 )">G48(A)</text><text style="&st18;" transform="matrix(&st17;  431.12  140.66 )">G95(B)</text></g><g ewd:code="" ewd:figID="97" ewd:comment="" ewd:figtype="commref"><text style="&st18;" transform="matrix(&st16;  464.02  144.26 )">(LHD)</text></g><g ewd:code="" ewd:figID="98" ewd:comment="" ewd:figtype="commref"><text style="&st18;" transform="matrix(&st16;  464.02  153.33 )">(RHD)</text></g><g ewd:code="" ewd:figID="99" ewd:comment="" ewd:figtype="commref"><text style="&st18;" transform="matrix(&st16;  464.02  109.14 )">(LHD)</text></g><g ewd:code="" ewd:figID="100" ewd:comment="" ewd:figtype="commref"><text style="&st18;" transform="matrix(&st16;  464.02  118.2 )">(RHD)</text></g></g><g ewd:figtype="conn" ewd:figID="28" ewd:code="A3"><path style="stroke-width: 1.42 ;&st7;  " d=" M    50.99,   256.74  L    50.99,   299.24  L  1181.30,   299.24  L  1181.30,   256.74  L    50.99,   256.74  " /><g ewd:lineID="10"><text style="&st18;" transform="matrix(&st16;  228.67  253.05 )">12</text><text style="&st18;" transform="matrix(&st16;  232.67  264.38 )">+BS</text></g><g ewd:lineID="11"><text style="&st18;" transform="matrix(&st16;  279.67  307.43 )">19</text><text style="&st18;" transform="matrix(&st16;  283.47  295.54 )">FL+</text></g><g ewd:lineID="14"><text style="&st18;" transform="matrix(&st16;  313.66  307.43 )">18</text><text style="&st18;" transform="matrix(&st16;  317.46  295.54 )">FL-</text></g><g ewd:lineID="17"><text style="&st18;" transform="matrix(&st16;  393.25  307.43 )">4</text><text style="&st18;" transform="matrix(&st16;  393.95  295.54 )">RL-</text></g><g ewd:lineID="20"><text style="&st18;" transform="matrix(&st16;  435.74  307.43 )">5</text><text style="&st18;" transform="matrix(&st16;  436.44  295.54 )">RL+</text></g><g ewd:lineID="21"><text style="&st18;" transform="matrix(&st16;  449.64  253.05 )">34</text><text style="&st18;" transform="matrix(&st16;  454.02  264.38 )">IG1</text></g><g ewd:lineID="3"><text style="&st18;" transform="matrix(&st16;  58.7  307.43 )">17</text><text style="&st18;" transform="matrix(&st16;  62.47  295.54 )">RR+</text></g><g ewd:lineID="6"><text style="&st18;" transform="matrix(&st16;  92.7  307.43 )">16</text><text style="&st18;" transform="matrix(&st16;  96.46  295.54 )">RR-</text></g><g ewd:lineID="7"><text style="&st18;" transform="matrix(&st16;  160.69  253.05 )">24</text><text style="&st18;" transform="matrix(&st16;  163.75  264.38 )">+BM</text></g><g ewd:lineID="8"><text style="&st18;" transform="matrix(&st16;  180.78  307.43 )">7</text><text style="&st18;" transform="matrix(&st16;  181.45  295.54 )">FR+</text></g><g ewd:lineID="9"><text style="&st18;" transform="matrix(&st16;  214.78  307.43 )">6</text><text style="&st18;" transform="matrix(&st16;  215.44  295.54 )">FR-</text></g><g ewd:figtype="title"><text style="&st18;" transform="matrix(&st16;  64.58  246.22 )">A3</text><text style="&st18;" transform="matrix(&st16;  64.58  253.05 )" ewd:textID="8">Brake Actuator Assembly</text></g></g><g ewd:code="2" ewd:figID="39" ewd:comment="2,1,11" ewd:figtype="jb"><path style="stroke-width: 0.85 ;&st7;  " d=" M   314.45,    69.77  L   314.45,    78.27  " /><path style="stroke-width: 0.85 ;&st7;  " d=" M   314.45,    78.27  L   314.45,    95.27  " /><path style="stroke-width: 1.42 ;&st7;   " d=" M   314.45,    47.11  C   311.71     48.72    310.80     52.25    312.41     54.99  " /><path style="stroke-width: 1.42 ;&st7;   " d=" M   312.41,    54.99  C   312.93     55.87    313.57     56.51    314.45     57.03  " /><path style="stroke-width: 1.42 ;&st7;   " d=" M   314.45,    66.94  C   317.19     65.33    318.10     61.80    316.48     59.06  " /><path style="stroke-width: 1.42 ;&st7;   " d=" M   316.48,    59.06  C   315.96     58.18    315.33     57.55    314.45     57.03  " /><path style="stroke-width: 0.85 ;&st7;   " d=" M   315.86,    45.69  C   315.86     44.91    315.23     44.28    314.45     44.28  " /><path style="stroke-width: 0.85 ;&st7;   " d=" M   314.45,    44.28  C   313.67     44.28    313.03     44.91    313.03     45.69  " /><path style="stroke-width: 0.85 ;&st7;   " d=" M   313.03,    45.69  C   313.03     46.48    313.67     47.11    314.45     47.11  " /><path style="stroke-width: 0.85 ;&st7;   " d=" M   314.45,    47.11  C   315.23     47.11    315.86     46.48    315.86     45.69  " /><path style="stroke-width: 0.85 ;&st7;   " d=" M   315.86,    68.36  C   315.86     67.57    315.23     66.94    314.45     66.94  " /><path style="stroke-width: 0.85 ;&st7;   " d=" M   314.45,    66.94  C   313.67     66.94    313.03     67.57    313.03     68.36  " /><path style="stroke-width: 0.85 ;&st7;   " d=" M   313.03,    68.36  C   313.03     69.14    313.67     69.77    314.45     69.77  " /><path style="stroke-width: 0.85 ;&st7;   " d=" M   314.45,    69.77  C   315.23     69.77    315.86     69.14    315.86     68.36  " /><path style="stroke-width: 1.42 ;&st7;  " d=" M   301.70,    35.78  L   301.70,    78.27  L   327.20,    78.27  L   327.20,    35.78  L   301.70,    35.78  " /><text style="&st18;" transform="matrix(&st16;  330.87  56.17 )">10A <tspan x="0 " dy="6.0">IG1 NO.3</tspan></text><text style="&st18;" transform="matrix(&st16;  308.26  86.47 )">2</text><text style="&st18;" transform="matrix(&st16;  309.23  32.08 )">(IG)</text><path style="stroke-width: 1.42 ;&st7;  " d=" M   316.57,    95.27  L   312.32,    95.27  " /><path style="stroke-width: 1.42 ;&st7;  " d=" M   316.57,   112.27  L   312.32,   112.27  " /><path style="stroke-width: 1.42 ;&st7;  " d=" M   316.57,   103.77  L   312.32,   103.77  " /><path style="stroke-width: 1.42 ;&st7;   " d=" M   312.32,    95.27  C   309.98     95.27    308.07     97.17    308.07     99.52  " /><path style="stroke-width: 1.42 ;&st7;   " d=" M   308.07,    99.52  C   308.07    101.87    309.98    103.77    312.32    103.77  " /><path style="stroke-width: 1.42 ;&st7;   " d=" M   316.57,   103.77  C   318.92    103.77    320.82    101.87    320.82     99.52  " /><path style="stroke-width: 1.42 ;&st7;   " d=" M   320.82,    99.52  C   320.82     97.17    318.92     95.27    316.57     95.27  " /><path style="stroke-width: 1.42 ;&st7;   " d=" M   308.07,   108.02  C   308.07    110.36    309.98    112.27    312.32    112.27  " /><path style="stroke-width: 1.42 ;&st7;   " d=" M   312.32,   103.77  C   309.98    103.77    308.07    105.67    308.07    108.02  " /><path style="stroke-width: 1.42 ;&st7;   " d=" M   320.82,   108.02  C   320.82    105.67    318.92    103.77    316.57    103.77  " /><path style="stroke-width: 1.42 ;&st7;   " d=" M   316.57,   112.27  C   318.92    112.27    320.82    110.36    320.82    108.02  " /><path style="stroke-width: 0.28 ;&st9;  " d=" M   314.45,    90.37  L   311.61,    87.54  L   311.61,    91.79  L   314.45,    94.62  L   317.28,    91.79  L   317.28,    87.54  L   314.45,    90.37  " /><text style="&st18;" transform="matrix(&st16;  310.48  109.99 )">2C</text><text style="&st18;" transform="matrix(&st16;  310.48  101.49 )">2C</text><text style="&st18;" transform="matrix(&st16;  303.94  109.99 )">3</text><text style="&st18;" transform="matrix(&st16;  303.94  101.49 )">1</text><g ewd:code="" ewd:figID="113" ewd:comment="1" ewd:figtype="commref"><text style="&st18;" transform="matrix(&st16;  321.35  101.49 )">(*1)</text></g><g ewd:code="" ewd:figID="112" ewd:comment="2,11" ewd:figtype="commref"><text style="&st18;" transform="matrix(&st16;  321.35  109.99 )">(*2,*11)</text></g></g><g ewd:figtype="w2w" ewd:figID="40" ewd:code="ON1"><path style="stroke-width: 1.42 ;&st7;  " d=" M    63.74,   417.65  L    67.99,   421.90  L    72.24,   417.65  " /><path style="stroke-width: 1.42 ;&st7;  " d=" M    72.24,   421.05  L    67.99,   425.30  L    63.74,   421.05  " /><text style="&st18;" transform="matrix(&st16;  55.36  432.93 )">9</text></g><g ewd:figtype="w2w" ewd:figID="41" ewd:code="AN1"><path style="stroke-width: 1.42 ;&st7;  " d=" M    72.24,   367.79  L    67.99,   363.54  L    63.74,   367.79  " /><path style="stroke-width: 1.42 ;&st7;  " d=" M    72.24,   364.39  L    67.99,   360.14  L    63.74,   364.39  " /><text style="&st18;" transform="matrix(&st16;  55.36  356.45 )">2</text></g><g ewd:figtype="w2w" ewd:figID="42" ewd:code="ON1"><path style="stroke-width: 1.42 ;&st7;  " d=" M    97.73,   417.65  L   101.98,   421.90  L   106.23,   417.65  " /><path style="stroke-width: 1.42 ;&st7;  " d=" M   106.23,   421.05  L   101.98,   425.30  L    97.73,   421.05  " /><text style="&st18;" transform="matrix(&st16;  89.35  432.93 )">8</text></g><g ewd:figtype="w2w" ewd:figID="43" ewd:code="AN1"><path style="stroke-width: 1.42 ;&st7;  " d=" M   106.23,   367.79  L   101.98,   363.54  L    97.73,   367.79  " /><path style="stroke-width: 1.42 ;&st7;  " d=" M   106.23,   364.39  L   101.98,   360.14  L    97.73,   364.39  " /><text style="&st18;" transform="matrix(&st16;  89.35  356.45 )">3</text></g><g ewd:figtype="w2w" ewd:figID="44" ewd:code="AG1"><path style="stroke-width: 1.42 ;&st7;  " d=" M   318.70,   172.32  L   314.45,   168.07  L   310.20,   172.32  " /><path style="stroke-width: 1.42 ;&st7;  " d=" M   318.70,   168.92  L   314.45,   164.67  L   310.20,   168.92  " /><text style="&st18;" transform="matrix(&st16;  298.71  160.98 )">23</text></g><g ewd:figtype="w2w" ewd:figID="45" ewd:code="ON1"><path style="stroke-width: 1.42 ;&st7;  " d=" M   395.18,   417.65  L   399.43,   421.90  L   403.68,   417.65  " /><path style="stroke-width: 1.42 ;&st7;  " d=" M   403.68,   421.05  L   399.43,   425.30  L   395.18,   421.05  " /><text style="&st18;" transform="matrix(&st16;  383.7  432.93 )">10</text></g><g ewd:figtype="w2w" ewd:figID="46" ewd:code="AN1"><path style="stroke-width: 1.42 ;&st7;  " d=" M   403.68,   367.79  L   399.43,   363.54  L   395.18,   367.79  " /><path style="stroke-width: 1.42 ;&st7;  " d=" M   403.68,   364.39  L   399.43,   360.14  L   395.18,   364.39  " /><text style="&st18;" transform="matrix(&st16;  386.8  356.45 )">5</text></g><g ewd:figtype="w2w" ewd:figID="47" ewd:code="ON1"><path style="stroke-width: 1.42 ;&st7;  " d=" M   437.68,   417.65  L   441.93,   421.90  L   446.18,   417.65  " /><path style="stroke-width: 1.42 ;&st7;  " d=" M   446.18,   421.05  L   441.93,   425.30  L   437.68,   421.05  " /><text style="&st18;" transform="matrix(&st16;  426.19  432.93 )">11</text></g><g ewd:figtype="w2w" ewd:figID="48" ewd:code="AN1"><path style="stroke-width: 1.42 ;&st7;  " d=" M   446.18,   367.79  L   441.93,   363.54  L   437.68,   367.79  " /><path style="stroke-width: 1.42 ;&st7;  " d=" M   446.18,   364.39  L   441.93,   360.14  L   437.68,   364.39  " /><text style="&st18;" transform="matrix(&st16;  429.29  356.45 )">4</text></g><g ewd:figtype="w2w" ewd:figID="49" ewd:code="AG1"><path style="stroke-width: 1.42 ;&st7;  " d=" M   454.67,   196.69  L   458.92,   200.94  L   463.17,   196.69  " /><path style="stroke-width: 1.42 ;&st7;  " d=" M   463.17,   200.09  L   458.92,   204.33  L   454.67,   200.09  " /><text style="&st18;" transform="matrix(&st16;  443.19  211.97 )">22</text></g></svg>