﻿<?xml version="1.0" encoding="utf-8"?>
<!DOCTYPE svg PUBLIC "-//W3C//DTD SVG 1.0//EN" "http://www.w3.org/TR/2001/REC-SVG-20010904/DTD/svg10.dtd"[
	<!ENTITY ns_flows "http://ns.adobe.com/Flows/1.0/">
	<!ENTITY ns_svg "http://www.w3.org/2000/svg">
	<!ENTITY ns_xlink "http://www.w3.org/1999/xlink">
	<!ENTITY st0 "font-size:7px;font-family:'MS-PGothic';adobe-font-script:japanese;">
	<!ENTITY st1 "font-size:6px;font-family:'ArialMT';">
	<!-- White fill  -->
	<!ENTITY st2 "fill:#FFFFFF;stroke:#000000; stroke-width:1.41;stroke-linecap:round;stroke-linejoin:round;">
	<!-- Yellow fill  -->
	<!ENTITY st3 "fill:#FFFFCC;stroke:#FFFFCC; stroke-width:0.1;stroke-linecap:round;stroke-linejoin:round;">
	<!-- Gray fill  -->
	<!ENTITY st4 "fill:#CCCCCC;stroke:#CCCCCC; stroke-width:0.1;stroke-linecap:round;stroke-linejoin:round;">
	<!-- Light-blue fill -->
	<!ENTITY st5 "fill:#CCECF4;stroke:#000000; stroke-width:1.133;stroke-linecap:round;stroke-linejoin:round;">
	<!ENTITY st6 "fill:none;stroke-linecap:butt; stroke-linejoin:round;">
	<!ENTITY st7 "fill:none;stroke:#000000;stroke-linecap:round;stroke-linejoin:round;">
	<!ENTITY st8 "enable-background:new    ;">
	<!-- Black fill -->
	<!ENTITY st9 "fill:#000000;stroke:#000000; stroke-linecap:round;stroke-linejoin:round;">
	<!-- SRS note   -->
	<!ENTITY st10 "font-size:9px;font-family:'ArialMT';">
	<!ENTITY st11 "font-size:9px;font-family:'Svg Symbol';">
	<!ENTITY st12 "font-size:6px;font-family:'Svg Symbol';">
	<!ENTITY st13 "fill:none;stroke:#ff0000;stroke-linecap:round;stroke-linejoin:round;">
	<!-- Yellow fill  -->
	<!ENTITY st14 "fill:#FFFF00;stroke:#FFFF00; stroke-width:0.1;stroke-linecap:round;stroke-linejoin:round;">
	<!ENTITY st15 "font-size:6px;font-family:'MS-PGothic';adobe-font-script:japanese;">
	<!ENTITY st16 "1.00 0.00 0.00 1.00">
	<!ENTITY st17 "0.00 -1.00 1.00 0.00">
	<!ENTITY st18 "font-size:6px;font-family:'Arial';">
	<!ENTITY st19 "font-size:9px;font-family:'Arial';">
	<!ENTITY st20 "font-size:6px;font-family:'MS-PGothic','MS PGothic';adobe-font-script:japanese;">
	<!ENTITY st21 "font-size:7px;font-family:'MS-PGothic','MS PGothic';adobe-font-script:japanese;">
	<!ATTLIST svg
		xmlns:ewd CDATA #FIXED "http://shcl.co.jp/ewd"
		xmlns:a CDATA #FIXED "http://ns.adobe.com/AdobeSVGViewerExtensions/3.0/"
		ewd:ver CDATA #IMPLIED
	>
	<!ATTLIST a
		ewd:lineID CDATA #IMPLIED
		ewd:groupID CDATA #IMPLIED
		ewd:figtype CDATA #IMPLIED
		ewd:code CDATA #IMPLIED
		ewd:figID CDATA #IMPLIED
		ewd:pinNo CDATA #IMPLIED
		ewd:comment CDATA #IMPLIED >
	<!ATTLIST g
		ewd:lineID CDATA #IMPLIED
		ewd:groupID CDATA #IMPLIED
		ewd:figtype CDATA #IMPLIED
		ewd:code CDATA #IMPLIED
		ewd:figID CDATA #IMPLIED
		ewd:pinNo CDATA #IMPLIED
		ewd:comment CDATA #IMPLIED >
	<!ATTLIST text
		ewd:textID CDATA #IMPLIED >
	<!ATTLIST title
		ewd:textID CDATA #IMPLIED >
]>
<!-- Generator: Shintec Hozumi YS   -->
<svg onload="call_execInitLoadProc_svg('system')" style="overflow:visible;  enable-background:new 0 0 11196.002 710.000" viewBox="0 0 11196.002 710.000" height="710.000" width="11196.002" xml:space="preserve" ewd:ver="2.1.2.9" xmlns="&ns_svg;" xmlns:a="http://ns.adobe.com/AdobeSVGViewerExtensions/3.0/" xmlns:ewd="http://shcl.co.jp/ewd" xmlns:xlink="&ns_xlink;">
<path style="stroke-width: 1.42 ;&st7;  " d=" M 11167.13,   460.71  L 11158.64,   460.71  " /><text style="&st18;" transform="matrix(&st17;  11154.94  530.5 )">V</text><text style="&st18;" transform="matrix(&st17;  11154.94  428.52 )">V</text><text style="&st18;" transform="matrix(&st17;  11010.46  147.95 )">Y</text><text style="&st18;" transform="matrix(&st17;  11069.95  139.33 )">L</text><text style="&st18;" transform="matrix(&st17;  11190.35  395.63 )" ewd:textID="14">Combination Meter Assembly</text><text style="&st18;" transform="matrix(&st17;  11183.53  395.62 )">G9(A),G10(B),G11(C)</text><g ewd:figtype="conn" ewd:figID="22" ewd:code="N4"><path style="stroke-width: 0.85 ;&st7;  " d=" M 11158.64,   583.94  L 11158.64,   579.69  " /><path style="stroke-width: 0.85 ;&st7;  " d=" M 11158.64,   613.68  L 11158.64,   609.43  " /><path style="stroke-width: 1.42 ;&st7;  " d=" M 11158.64,   606.60  L 11164.30,   583.94  " /><path style="stroke-width: 0.85 ;&st7;   " d=" M 11160.05,   585.35  C 11160.05    584.57  11159.42    583.94  11158.64    583.94  " /><path style="stroke-width: 0.85 ;&st7;   " d=" M 11158.64,   583.94  C 11157.85    583.94  11157.22    584.57  11157.22    585.35  " /><path style="stroke-width: 0.85 ;&st7;   " d=" M 11157.22,   585.35  C 11157.22    586.14  11157.85    586.77  11158.64    586.77  " /><path style="stroke-width: 0.85 ;&st7;   " d=" M 11158.64,   586.77  C 11159.42    586.77  11160.05    586.14  11160.05    585.35  " /><path style="stroke-width: 0.85 ;&st7;   " d=" M 11160.05,   608.02  C 11160.05    607.23  11159.42    606.60  11158.64    606.60  " /><path style="stroke-width: 0.85 ;&st7;   " d=" M 11158.64,   606.60  C 11157.85    606.60  11157.22    607.23  11157.22    608.02  " /><path style="stroke-width: 0.85 ;&st7;   " d=" M 11157.22,   608.02  C 11157.22    608.80  11157.85    609.43  11158.64    609.43  " /><path style="stroke-width: 0.85 ;&st7;   " d=" M 11158.64,   609.43  C 11159.42    609.43  11160.05    608.80  11160.05    608.02  " /><path style="stroke-width: 1.42 ;&st7;  " d=" M 11167.13,   613.68  L 11167.13,   579.69  L 11150.13,   579.69  L 11150.13,   613.68  L 11167.13,   613.68  " /><text style="&st18;" transform="matrix(&st16;  11152.45  576.0 )">1</text><g ewd:figtype="title"><text style="&st18;" transform="matrix(&st17;  11181.85  616.59 )" ewd:textID="64">Rear Door Courtesy Light <tspan x="0 " dy="6.0">Switch Assembly LH</tspan></text><text style="&st18;" transform="matrix(&st17;  11175.03  616.58 )">N4</text></g></g><g ewd:figtype="jb" ewd:figID="105" ewd:code="2"><path style="stroke-width: 0.85 ;&st7;  " d=" M 11014.16,    78.27  L 11014.16,    95.27  " /><path style="stroke-width: 1.42 ;&st7;  " d=" M 11016.28,   103.77  L 11012.04,   103.77  " /><path style="stroke-width: 1.42 ;&st7;  " d=" M 11016.28,    95.27  L 11012.04,    95.27  " /><path style="stroke-width: 0.85 ;&st7;  " d=" M 11014.16,    69.77  L 11014.16,    78.27  " /><path style="stroke-width: 1.42 ;&st7;   " d=" M 11020.53,    99.52  C 11020.53     97.17  11018.63     95.27  11016.28     95.27  " /><path style="stroke-width: 1.42 ;&st7;   " d=" M 11016.28,   103.77  C 11018.63    103.77  11020.53    101.87  11020.53     99.52  " /><path style="stroke-width: 1.42 ;&st7;   " d=" M 11007.79,    99.52  C 11007.79    101.87  11009.69    103.77  11012.04    103.77  " /><path style="stroke-width: 1.42 ;&st7;   " d=" M 11012.04,    95.27  C 11009.69     95.27  11007.79     97.17  11007.79     99.52  " /><path style="stroke-width: 0.85 ;&st7;   " d=" M 11015.58,    68.36  C 11015.58     67.57  11014.94     66.94  11014.16     66.94  " /><path style="stroke-width: 0.85 ;&st7;   " d=" M 11014.16,    66.94  C 11013.38     66.94  11012.74     67.57  11012.74     68.36  " /><path style="stroke-width: 0.85 ;&st7;   " d=" M 11012.74,    68.36  C 11012.74     69.14  11013.38     69.77  11014.16     69.77  " /><path style="stroke-width: 0.85 ;&st7;   " d=" M 11014.16,    69.77  C 11014.94     69.77  11015.58     69.14  11015.58     68.36  " /><path style="stroke-width: 0.85 ;&st7;   " d=" M 11015.58,    45.69  C 11015.58     44.91  11014.94     44.28  11014.16     44.28  " /><path style="stroke-width: 0.85 ;&st7;   " d=" M 11014.16,    44.28  C 11013.38     44.28  11012.74     44.91  11012.74     45.69  " /><path style="stroke-width: 0.85 ;&st7;   " d=" M 11012.74,    45.69  C 11012.74     46.48  11013.38     47.11  11014.16     47.11  " /><path style="stroke-width: 0.85 ;&st7;   " d=" M 11014.16,    47.11  C 11014.94     47.11  11015.58     46.48  11015.58     45.69  " /><path style="stroke-width: 1.42 ;&st7;   " d=" M 11014.16,    66.94  C 11016.90     65.33  11017.81     61.80  11016.20     59.06  " /><path style="stroke-width: 1.42 ;&st7;   " d=" M 11016.20,    59.06  C 11015.68     58.18  11015.04     57.55  11014.16     57.03  " /><path style="stroke-width: 1.42 ;&st7;   " d=" M 11014.16,    47.11  C 11011.42     48.72  11010.51     52.25  11012.12     54.99  " /><path style="stroke-width: 1.42 ;&st7;   " d=" M 11012.12,    54.99  C 11012.64     55.87  11013.28     56.51  11014.16     57.03  " /><path style="stroke-width: 1.42 ;&st7;  " d=" M 11001.41,    35.78  L 11001.41,    78.27  L 11026.90,    78.27  L 11026.90,    35.78  L 11001.41,    35.78  " /><path style="stroke-width: 0.28 ;&st9;  " d=" M 11014.16,    90.37  L 11011.32,    87.54  L 11011.32,    91.79  L 11014.16,    94.62  L 11016.99,    91.79  L 11016.99,    87.54  L 11014.16,    90.37  " /><text style="&st18;" transform="matrix(&st16;  11030.58  56.17 )">5A <tspan x="0 " dy="6.0">METER</tspan></text><text style="&st18;" transform="matrix(&st16;  11010.61  101.49 )">2P</text><text style="&st18;" transform="matrix(&st16;  11003.65  101.49 )">6</text><text style="&st18;" transform="matrix(&st16;  11007.98  86.47 )">2</text><text style="&st18;" transform="matrix(&st16;  11008.95  32.08 )">(IG)</text><path style="stroke-width: 0.85 ;&st7;  " d=" M 11073.65,    69.77  L 11073.65,    78.27  " /><path style="stroke-width: 1.42 ;&st7;  " d=" M 11075.77,    95.27  L 11071.53,    95.27  " /><path style="stroke-width: 1.42 ;&st7;  " d=" M 11075.77,   103.77  L 11071.53,   103.77  " /><path style="stroke-width: 0.85 ;&st7;  " d=" M 11073.65,    78.27  L 11073.65,    95.27  " /><path style="stroke-width: 1.42 ;&st7;   " d=" M 11073.65,    47.11  C 11070.91     48.72  11070.00     52.25  11071.61     54.99  " /><path style="stroke-width: 1.42 ;&st7;   " d=" M 11071.61,    54.99  C 11072.13     55.87  11072.77     56.51  11073.65     57.03  " /><path style="stroke-width: 1.42 ;&st7;   " d=" M 11073.65,    66.94  C 11076.39     65.33  11077.30     61.80  11075.69     59.06  " /><path style="stroke-width: 1.42 ;&st7;   " d=" M 11075.69,    59.06  C 11075.17     58.18  11074.53     57.55  11073.65     57.03  " /><path style="stroke-width: 0.85 ;&st7;   " d=" M 11075.07,    45.69  C 11075.07     44.91  11074.43     44.28  11073.65     44.28  " /><path style="stroke-width: 0.85 ;&st7;   " d=" M 11073.65,    44.28  C 11072.87     44.28  11072.23     44.91  11072.23     45.69  " /><path style="stroke-width: 0.85 ;&st7;   " d=" M 11072.23,    45.69  C 11072.23     46.48  11072.87     47.11  11073.65     47.11  " /><path style="stroke-width: 0.85 ;&st7;   " d=" M 11073.65,    47.11  C 11074.43     47.11  11075.07     46.48  11075.07     45.69  " /><path style="stroke-width: 0.85 ;&st7;   " d=" M 11075.07,    68.36  C 11075.07     67.57  11074.43     66.94  11073.65     66.94  " /><path style="stroke-width: 0.85 ;&st7;   " d=" M 11073.65,    66.94  C 11072.87     66.94  11072.23     67.57  11072.23     68.36  " /><path style="stroke-width: 0.85 ;&st7;   " d=" M 11072.23,    68.36  C 11072.23     69.14  11072.87     69.77  11073.65     69.77  " /><path style="stroke-width: 0.85 ;&st7;   " d=" M 11073.65,    69.77  C 11074.43     69.77  11075.07     69.14  11075.07     68.36  " /><path style="stroke-width: 1.42 ;&st7;   " d=" M 11071.53,    95.27  C 11069.18     95.27  11067.28     97.17  11067.28     99.52  " /><path style="stroke-width: 1.42 ;&st7;   " d=" M 11067.28,    99.52  C 11067.28    101.87  11069.18    103.77  11071.53    103.77  " /><path style="stroke-width: 1.42 ;&st7;   " d=" M 11075.77,   103.77  C 11078.12    103.77  11080.02    101.87  11080.02     99.52  " /><path style="stroke-width: 1.42 ;&st7;   " d=" M 11080.02,    99.52  C 11080.02     97.17  11078.12     95.27  11075.77     95.27  " /><path style="stroke-width: 0.28 ;&st9;  " d=" M 11073.65,    90.37  L 11070.81,    87.54  L 11070.81,    91.79  L 11073.65,    94.62  L 11076.48,    91.79  L 11076.48,    87.54  L 11073.65,    90.37  " /><path style="stroke-width: 1.42 ;&st7;  " d=" M 11060.90,    35.78  L 11060.90,    78.27  L 11086.39,    78.27  L 11086.39,    35.78  L 11060.90,    35.78  " /><text style="&st18;" transform="matrix(&st16;  11090.07  56.17 )">10A <tspan x="0 " dy="6.0">TURN&amp;HAZ</tspan></text><text style="&st18;" transform="matrix(&st16;  11070.1  101.49 )">2P</text><text style="&st18;" transform="matrix(&st16;  11060.04  101.49 )">10</text><text style="&st18;" transform="matrix(&st16;  11067.47  86.47 )">2</text><text style="&st18;" transform="matrix(&st16;  11065.61  32.08 )">(BAT)</text></g><g ewd:figtype="w2w" ewd:figID="168" ewd:code="GN1"><path style="stroke-width: 1.42 ;&st7;  " d=" M 11162.88,   466.37  L 11158.63,   462.12  L 11154.38,   466.37  " /><path style="stroke-width: 1.42 ;&st7;  " d=" M 11162.88,   469.77  L 11158.63,   465.52  L 11154.38,   469.77  " /><text style="&st18;" transform="matrix(&st16;  11142.9  458.43 )">14</text></g><g ewd:figtype="annex" ewd:figID="208" ewd:code=" "><path style="stroke-width: 0.85 ;&st7;  " d=" M 11158.63,   613.68  L 11158.63,   622.18  " /><path style="stroke-width: 0.85 ;&st7;  " d=" M 11155.80,   627.85  L 11161.46,   627.85  " /><path style="stroke-width: 0.85 ;&st7;  " d=" M 11150.13,   622.18  L 11167.13,   622.18  " /><path style="stroke-width: 0.85 ;&st7;  " d=" M 11157.21,   630.68  L 11160.05,   630.68  " /><path style="stroke-width: 0.85 ;&st7;  " d=" M 11154.38,   625.01  L 11162.88,   625.01  " /></g></svg>