﻿<?xml version="1.0" encoding="utf-8"?>
<!DOCTYPE svg PUBLIC "-//W3C//DTD SVG 1.0//EN" "http://www.w3.org/TR/2001/REC-SVG-20010904/DTD/svg10.dtd"[
	<!ENTITY ns_flows "http://ns.adobe.com/Flows/1.0/">
	<!ENTITY ns_svg "http://www.w3.org/2000/svg">
	<!ENTITY ns_xlink "http://www.w3.org/1999/xlink">
	<!ENTITY st0 "font-size:7px;font-family:'MS-PGothic';adobe-font-script:japanese;">
	<!ENTITY st1 "font-size:6px;font-family:'ArialMT';">
	<!-- White fill  -->
	<!ENTITY st2 "fill:#FFFFFF;stroke:#000000; stroke-width:1.41;stroke-linecap:round;stroke-linejoin:round;">
	<!-- Yellow fill  -->
	<!ENTITY st3 "fill:#FFFFCC;stroke:#FFFFCC; stroke-width:0.1;stroke-linecap:round;stroke-linejoin:round;">
	<!-- Gray fill  -->
	<!ENTITY st4 "fill:#CCCCCC;stroke:#CCCCCC; stroke-width:0.1;stroke-linecap:round;stroke-linejoin:round;">
	<!-- Light-blue fill -->
	<!ENTITY st5 "fill:#CCECF4;stroke:#000000; stroke-width:1.133;stroke-linecap:round;stroke-linejoin:round;">
	<!ENTITY st6 "fill:none;stroke-linecap:butt; stroke-linejoin:round;">
	<!ENTITY st7 "fill:none;stroke:#000000;stroke-linecap:round;stroke-linejoin:round;">
	<!ENTITY st8 "enable-background:new    ;">
	<!-- Black fill -->
	<!ENTITY st9 "fill:#000000;stroke:#000000; stroke-linecap:round;stroke-linejoin:round;">
	<!-- SRS note   -->
	<!ENTITY st10 "font-size:9px;font-family:'ArialMT';">
	<!ENTITY st11 "font-size:9px;font-family:'Svg Symbol';">
	<!ENTITY st12 "font-size:6px;font-family:'Svg Symbol';">
	<!ENTITY st13 "fill:none;stroke:#ff0000;stroke-linecap:round;stroke-linejoin:round;">
	<!-- Yellow fill  -->
	<!ENTITY st14 "fill:#FFFF00;stroke:#FFFF00; stroke-width:0.1;stroke-linecap:round;stroke-linejoin:round;">
	<!ENTITY st15 "font-size:6px;font-family:'MS-PGothic';adobe-font-script:japanese;">
	<!ENTITY st16 "1.00 0.00 0.00 1.00">
	<!ENTITY st17 "0.00 -1.00 1.00 0.00">
	<!ENTITY st18 "font-size:6px;font-family:'Arial';">
	<!ENTITY st19 "font-size:9px;font-family:'Arial';">
	<!ENTITY st20 "font-size:6px;font-family:'MS-PGothic','MS PGothic';adobe-font-script:japanese;">
	<!ENTITY st21 "font-size:7px;font-family:'MS-PGothic','MS PGothic';adobe-font-script:japanese;">
	<!ATTLIST svg
		xmlns:ewd CDATA #FIXED "http://shcl.co.jp/ewd"
		xmlns:a CDATA #FIXED "http://ns.adobe.com/AdobeSVGViewerExtensions/3.0/"
		ewd:ver CDATA #IMPLIED
	>
	<!ATTLIST a
		ewd:lineID CDATA #IMPLIED
		ewd:groupID CDATA #IMPLIED
		ewd:figtype CDATA #IMPLIED
		ewd:code CDATA #IMPLIED
		ewd:figID CDATA #IMPLIED
		ewd:pinNo CDATA #IMPLIED
		ewd:comment CDATA #IMPLIED >
	<!ATTLIST g
		ewd:lineID CDATA #IMPLIED
		ewd:groupID CDATA #IMPLIED
		ewd:figtype CDATA #IMPLIED
		ewd:code CDATA #IMPLIED
		ewd:figID CDATA #IMPLIED
		ewd:pinNo CDATA #IMPLIED
		ewd:comment CDATA #IMPLIED >
	<!ATTLIST text
		ewd:textID CDATA #IMPLIED >
	<!ATTLIST title
		ewd:textID CDATA #IMPLIED >
]>
<!-- Generator: Shintec Hozumi YS   -->
<svg onload="call_execInitLoadProc_svg('system')" style="overflow:visible;  enable-background:new 0 0 975.843 710.000" viewBox="0 0 975.843 710.000" height="710.000" width="975.843" xml:space="preserve" ewd:ver="2.1.2.9" xmlns="&ns_svg;" xmlns:a="http://ns.adobe.com/AdobeSVGViewerExtensions/3.0/" xmlns:ewd="http://shcl.co.jp/ewd" xmlns:xlink="&ns_xlink;">
<path style="stroke-width: 1.42 ;&st7;  " d=" M   654.39,   426.71  L   645.89,   426.71  " /><path style="stroke-width: 1.42 ;&st7;  " d=" M   815.86,   426.71  L   807.37,   426.71  " /><path style="stroke-width: 1.42 ;&st7;  " d=" M   747.88,   205.75  L   756.37,   205.75  " /><path style="stroke-width: 1.42 ;&st7;  " d=" M   586.40,   205.75  L   594.90,   205.75  " /><path style="stroke-width: 1.42 ;&st7;  " d=" M   798.87,   205.75  L   807.37,   205.75  " /><path style="stroke-width: 1.42 ;&st7;  " d=" M   637.39,   205.75  L   645.89,   205.75  " /><text style="&st18;" transform="matrix(&st17;  764.01  257.21 )">(*2)</text><text style="&st18;" transform="matrix(&st17;  730.02  261.24 )">(*1,*6)</text><text style="&st18;" transform="matrix(&st17;  718.68  254.1 )">R</text><text style="&st18;" transform="matrix(&st17;  591.2  256.28 )">LG</text><text style="&st18;" transform="matrix(&st17;  642.2  255.73 )">SB</text><text style="&st18;" transform="matrix(&st17;  752.68  254.18 )">B</text><text style="&st18;" transform="matrix(&st17;  803.67  254.07 )">L</text><text style="&st18;" transform="matrix(&st17;  803.67  181.83 )">L</text><text style="&st18;" transform="matrix(&st17;  752.68  181.87 )">R</text><text style="&st18;" transform="matrix(&st17;  642.2  181.83 )">L</text><text style="&st18;" transform="matrix(&st17;  591.2  182.22 )">G</text><text style="&st18;" transform="matrix(&st17;  642.2  390.18 )">W-B</text><text style="&st18;" transform="matrix(&st17;  803.67  390.18 )">W-B</text><text style="&st18;" transform="matrix(&st17;  803.67  475.16 )">W-B</text><text style="&st18;" transform="matrix(&st17;  642.2  475.16 )">W-B</text><text style="&st18;" transform="matrix(&st17;  642.2  577.14 )">W-B</text><text style="&st18;" transform="matrix(&st16;  541.8  74.58 )">R</text><text style="&st18;" transform="matrix(&st16;  541.45  100.07 )">G</text><text style="&st18;" transform="matrix(&st16;  541.84  151.06 )">L</text><text style="&st18;" transform="matrix(&st16;  537.46  508.0 )">W-B</text><path style="stroke-width: 1.42 ;&st7;  " d=" M   654.39,   151.23  L   649.42,   146.26  " /><path style="stroke-width: 1.42 ;&st7;  " d=" M   637.39,   158.29  L   642.36,   163.26  " /><path style="stroke-width: 1.42 ;&st7;  " d=" M   649.42,   163.26  L   654.39,   158.29  " /><path style="stroke-width: 1.42 ;&st7;  " d=" M   642.36,   146.26  L   637.39,   151.23  " /><path style="stroke-width: 1.42 ;&st7;  " d=" M   654.39,   508.17  L   649.42,   503.20  " /><path style="stroke-width: 1.42 ;&st7;  " d=" M   637.39,   515.23  L   642.36,   520.20  " /><path style="stroke-width: 1.42 ;&st7;  " d=" M   649.42,   520.20  L   654.39,   515.23  " /><path style="stroke-width: 1.42 ;&st7;  " d=" M   642.36,   503.20  L   637.39,   508.17  " /><g ewd:code="A28,A58" ewd:figID="6" ewd:comment="3,4" ewd:figtype="conn"><path style="stroke-width: 0.85 ;&st7; stroke-dasharray:3, 1.5;" d=" M   603.40,   303.20  L   633.14,   303.20  " /><path style="stroke-width: 0.85 ;&st7; stroke-dasharray:3, 1.5;" d=" M   603.40,   294.14  L   633.14,   294.14  " /><path style="stroke-width: 1.42 ;&st7;  " d=" M   577.90,   307.73  L   577.90,   350.23  L   662.89,   350.23  L   662.89,   307.73  L   577.90,   307.73  " /><text style="&st18;" transform="matrix(&st16;  587.48  315.37 )">LHIG</text><text style="&st18;" transform="matrix(&st16;  638.7  315.37 )">LH T</text><text style="&st18;" transform="matrix(&st16;  638.78  346.53 )">LH E</text><text style="&st18;" transform="matrix(&st16;  600.68  328.12 )" ewd:textID="7">Headlight <tspan x="0 " dy="6.0">Leveling Motor</tspan></text><text style="&st18;" transform="matrix(&st16;  586.21  296.11 )">3</text><text style="&st18;" transform="matrix(&st16;  586.21  305.17 )">1</text><path style="stroke-width: 1.42 ;&st7;   " d=" M   599.43,   303.20  C   599.43    300.70    597.40    298.67    594.90    298.67  " /><path style="stroke-width: 1.42 ;&st7;   " d=" M   594.90,   298.67  C   592.40    298.67    590.37    300.70    590.37    303.20  " /><path style="stroke-width: 1.42 ;&st7;   " d=" M   590.37,   303.20  C   590.37    305.70    592.40    307.73    594.90    307.73  " /><path style="stroke-width: 1.42 ;&st7;   " d=" M   594.90,   307.73  C   597.40    307.73    599.43    305.70    599.43    303.20  " /><path style="stroke-width: 1.42 ;&st7;   " d=" M   599.43,   294.14  C   599.43    291.63    597.40    289.60    594.90    289.60  " /><path style="stroke-width: 1.42 ;&st7;   " d=" M   594.90,   289.60  C   592.40    289.60    590.37    291.63    590.37    294.14  " /><path style="stroke-width: 1.42 ;&st7;   " d=" M   590.37,   294.14  C   590.37    296.64    592.40    298.67    594.90    298.67  " /><path style="stroke-width: 1.42 ;&st7;   " d=" M   594.90,   298.67  C   597.40    298.67    599.43    296.64    599.43    294.14  " /><text style="&st18;" transform="matrix(&st16;  592.6  296.11 )">A</text><text style="&st18;" transform="matrix(&st16;  592.71  305.17 )">B</text><text style="&st18;" transform="matrix(&st16;  637.2  356.73 )">1</text><text style="&st18;" transform="matrix(&st16;  637.2  365.79 )">3</text><path style="stroke-width: 1.42 ;&st7;   " d=" M   650.42,   354.76  C   650.42    352.26    648.40    350.23    645.89    350.23  " /><path style="stroke-width: 1.42 ;&st7;   " d=" M   645.89,   350.23  C   643.39    350.23    641.36    352.26    641.36    354.76  " /><path style="stroke-width: 1.42 ;&st7;   " d=" M   641.36,   354.76  C   641.36    357.26    643.39    359.29    645.89    359.29  " /><path style="stroke-width: 1.42 ;&st7;   " d=" M   645.89,   359.29  C   648.40    359.29    650.42    357.26    650.42    354.76  " /><text style="&st18;" transform="matrix(&st16;  643.59  356.73 )">A</text><path style="stroke-width: 1.42 ;&st7;   " d=" M   650.42,   363.82  C   650.42    361.32    648.40    359.29    645.89    359.29  " /><path style="stroke-width: 1.42 ;&st7;   " d=" M   645.89,   359.29  C   643.39    359.29    641.36    361.32    641.36    363.82  " /><path style="stroke-width: 1.42 ;&st7;   " d=" M   641.36,   363.82  C   641.36    366.33    643.39    368.36    645.89    368.36  " /><path style="stroke-width: 1.42 ;&st7;   " d=" M   645.89,   368.36  C   648.40    368.36    650.42    366.33    650.42    363.82  " /><text style="&st18;" transform="matrix(&st16;  643.7  365.79 )">B</text><text style="&st18;" transform="matrix(&st16;  637.2  296.11 )">2</text><text style="&st18;" transform="matrix(&st16;  637.2  305.17 )">2</text><path style="stroke-width: 1.42 ;&st7;   " d=" M   650.42,   294.14  C   650.42    291.63    648.40    289.60    645.89    289.60  " /><path style="stroke-width: 1.42 ;&st7;   " d=" M   645.89,   289.60  C   643.39    289.60    641.36    291.63    641.36    294.14  " /><path style="stroke-width: 1.42 ;&st7;   " d=" M   641.36,   294.14  C   641.36    296.64    643.39    298.67    645.89    298.67  " /><path style="stroke-width: 1.42 ;&st7;   " d=" M   645.89,   298.67  C   648.40    298.67    650.42    296.64    650.42    294.14  " /><text style="&st18;" transform="matrix(&st16;  643.7  305.17 )">B</text><path style="stroke-width: 1.42 ;&st7;   " d=" M   650.42,   303.20  C   650.42    300.70    648.40    298.67    645.89    298.67  " /><path style="stroke-width: 1.42 ;&st7;   " d=" M   645.89,   298.67  C   643.39    298.67    641.36    300.70    641.36    303.20  " /><path style="stroke-width: 1.42 ;&st7;   " d=" M   641.36,   303.20  C   641.36    305.70    643.39    307.73    645.89    307.73  " /><path style="stroke-width: 1.42 ;&st7;   " d=" M   645.89,   307.73  C   648.40    307.73    650.42    305.70    650.42    303.20  " /><text style="&st18;" transform="matrix(&st16;  643.59  296.11 )">A</text><g ewd:figtype="title"><text style="&st18;" transform="matrix(&st16;  574.49  358.12 )">A28(A),A58(B)</text><text style="&st18;" transform="matrix(&st16;  574.5  364.94 )" ewd:textID="5">Headlight <tspan x="0 " dy="6.0">Assembly LH</tspan></text></g><g ewd:code="" ewd:figID="30" ewd:comment="4" ewd:figtype="commref"><text style="&st18;" transform="matrix(&st16;  650.99  305.17 )">(*4)</text></g><g ewd:code="" ewd:figID="31" ewd:comment="3" ewd:figtype="commref"><text style="&st18;" transform="matrix(&st16;  650.99  296.11 )">(*3)</text></g><g ewd:code="" ewd:figID="34" ewd:comment="4" ewd:figtype="commref"><text style="&st18;" transform="matrix(&st16;  650.99  365.79 )">(*4)</text></g><g ewd:code="" ewd:figID="35" ewd:comment="3" ewd:figtype="commref"><text style="&st18;" transform="matrix(&st16;  650.99  356.73 )">(*3)</text></g></g><g ewd:code="A27,A57" ewd:figID="7" ewd:comment="3,4" ewd:figtype="conn"><path style="stroke-width: 0.85 ;&st7; stroke-dasharray:3, 1.5;" d=" M   764.87,   303.20  L   794.62,   303.20  " /><path style="stroke-width: 0.85 ;&st7; stroke-dasharray:3, 1.5;" d=" M   764.87,   294.14  L   794.62,   294.14  " /><path style="stroke-width: 1.42 ;&st7;  " d=" M   739.38,   307.73  L   739.38,   350.23  L   824.36,   350.23  L   824.36,   307.73  L   739.38,   307.73  " /><text style="&st18;" transform="matrix(&st16;  748.91  315.37 )">RHIG</text><text style="&st18;" transform="matrix(&st16;  800.14  315.37 )">RH T</text><text style="&st18;" transform="matrix(&st16;  800.21  346.53 )">RH E</text><text style="&st18;" transform="matrix(&st16;  762.15  328.12 )" ewd:textID="7">Headlight <tspan x="0 " dy="6.0">Leveling Motor</tspan></text><text style="&st18;" transform="matrix(&st16;  747.68  296.11 )">3</text><text style="&st18;" transform="matrix(&st16;  747.68  305.17 )">1</text><text style="&st18;" transform="matrix(&st16;  754.07  296.11 )">A</text><path style="stroke-width: 1.42 ;&st7;   " d=" M   760.91,   303.20  C   760.91    300.70    758.88    298.67    756.37    298.67  " /><path style="stroke-width: 1.42 ;&st7;   " d=" M   756.37,   298.67  C   753.87    298.67    751.84    300.70    751.84    303.20  " /><path style="stroke-width: 1.42 ;&st7;   " d=" M   751.84,   303.20  C   751.84    305.70    753.87    307.73    756.37    307.73  " /><path style="stroke-width: 1.42 ;&st7;   " d=" M   756.37,   307.73  C   758.88    307.73    760.91    305.70    760.91    303.20  " /><path style="stroke-width: 1.42 ;&st7;   " d=" M   760.91,   294.14  C   760.91    291.63    758.88    289.60    756.37    289.60  " /><path style="stroke-width: 1.42 ;&st7;   " d=" M   756.37,   289.60  C   753.87    289.60    751.84    291.63    751.84    294.14  " /><path style="stroke-width: 1.42 ;&st7;   " d=" M   751.84,   294.14  C   751.84    296.64    753.87    298.67    756.37    298.67  " /><path style="stroke-width: 1.42 ;&st7;   " d=" M   756.37,   298.67  C   758.88    298.67    760.91    296.64    760.91    294.14  " /><text style="&st18;" transform="matrix(&st16;  754.19  305.17 )">B</text><text style="&st18;" transform="matrix(&st16;  798.67  356.73 )">1</text><text style="&st18;" transform="matrix(&st16;  798.67  365.79 )">3</text><path style="stroke-width: 1.42 ;&st7;   " d=" M   811.90,   354.76  C   811.90    352.26    809.87    350.23    807.37    350.23  " /><path style="stroke-width: 1.42 ;&st7;   " d=" M   807.37,   350.23  C   804.86    350.23    802.83    352.26    802.83    354.76  " /><path style="stroke-width: 1.42 ;&st7;   " d=" M   802.83,   354.76  C   802.83    357.26    804.86    359.29    807.37    359.29  " /><path style="stroke-width: 1.42 ;&st7;   " d=" M   807.37,   359.29  C   809.87    359.29    811.90    357.26    811.90    354.76  " /><path style="stroke-width: 1.42 ;&st7;   " d=" M   811.90,   363.82  C   811.90    361.32    809.87    359.29    807.37    359.29  " /><path style="stroke-width: 1.42 ;&st7;   " d=" M   807.37,   359.29  C   804.86    359.29    802.83    361.32    802.83    363.82  " /><path style="stroke-width: 1.42 ;&st7;   " d=" M   802.83,   363.82  C   802.83    366.33    804.86    368.36    807.37    368.36  " /><path style="stroke-width: 1.42 ;&st7;   " d=" M   807.37,   368.36  C   809.87    368.36    811.90    366.33    811.90    363.82  " /><text style="&st18;" transform="matrix(&st16;  805.06  356.73 )">A</text><text style="&st18;" transform="matrix(&st16;  805.18  365.79 )">B</text><text style="&st18;" transform="matrix(&st16;  798.67  296.11 )">2</text><text style="&st18;" transform="matrix(&st16;  798.67  305.17 )">2</text><path style="stroke-width: 1.42 ;&st7;   " d=" M   811.90,   294.14  C   811.90    291.63    809.87    289.60    807.37    289.60  " /><path style="stroke-width: 1.42 ;&st7;   " d=" M   807.37,   289.60  C   804.86    289.60    802.83    291.63    802.83    294.14  " /><path style="stroke-width: 1.42 ;&st7;   " d=" M   802.83,   294.14  C   802.83    296.64    804.86    298.67    807.37    298.67  " /><path style="stroke-width: 1.42 ;&st7;   " d=" M   807.37,   298.67  C   809.87    298.67    811.90    296.64    811.90    294.14  " /><path style="stroke-width: 1.42 ;&st7;   " d=" M   811.90,   303.20  C   811.90    300.70    809.87    298.67    807.37    298.67  " /><path style="stroke-width: 1.42 ;&st7;   " d=" M   807.37,   298.67  C   804.86    298.67    802.83    300.70    802.83    303.20  " /><path style="stroke-width: 1.42 ;&st7;   " d=" M   802.83,   303.20  C   802.83    305.70    804.86    307.73    807.37    307.73  " /><path style="stroke-width: 1.42 ;&st7;   " d=" M   807.37,   307.73  C   809.87    307.73    811.90    305.70    811.90    303.20  " /><text style="&st18;" transform="matrix(&st16;  805.18  305.17 )">B</text><text style="&st18;" transform="matrix(&st16;  805.06  296.11 )">A</text><g ewd:figtype="title"><text style="&st18;" transform="matrix(&st16;  735.97  364.94 )" ewd:textID="6">Headlight <tspan x="0 " dy="6.0">Assembly RH</tspan></text><text style="&st18;" transform="matrix(&st16;  735.96  358.12 )">A27(A),A57(B)</text></g><g ewd:code="" ewd:figID="25" ewd:comment="3" ewd:figtype="commref"><text style="&st18;" transform="matrix(&st16;  812.46  356.73 )">(*3)</text></g><g ewd:code="" ewd:figID="32" ewd:comment="4" ewd:figtype="commref"><text style="&st18;" transform="matrix(&st16;  812.46  305.17 )">(*4)</text></g><g ewd:code="" ewd:figID="33" ewd:comment="3" ewd:figtype="commref"><text style="&st18;" transform="matrix(&st16;  812.46  296.11 )">(*3)</text></g><g ewd:code="" ewd:figID="36" ewd:comment="4" ewd:figtype="commref"><text style="&st18;" transform="matrix(&st16;  812.46  365.79 )">(*4)</text></g></g><g ewd:figtype="w2w" ewd:figID="14" ewd:code="AG7"><path style="stroke-width: 1.42 ;&st7;  " d=" M   590.65,   196.69  L   594.90,   200.94  L   599.15,   196.69  " /><path style="stroke-width: 1.42 ;&st7;  " d=" M   599.15,   200.09  L   594.90,   204.33  L   590.65,   200.09  " /><text style="&st18;" transform="matrix(&st16;  582.27  211.97 )">8</text></g><g ewd:figtype="w2w" ewd:figID="15" ewd:code="AG7"><path style="stroke-width: 1.42 ;&st7;  " d=" M   650.14,   432.38  L   645.89,   428.13  L   641.64,   432.38  " /><path style="stroke-width: 1.42 ;&st7;  " d=" M   650.14,   435.78  L   645.89,   431.53  L   641.64,   435.78  " /><text style="&st18;" transform="matrix(&st16;  630.16  424.43 )">26</text></g><g ewd:figtype="w2w" ewd:figID="16" ewd:code="AG7"><path style="stroke-width: 1.42 ;&st7;  " d=" M   650.14,   200.09  L   645.89,   204.33  L   641.64,   200.09  " /><path style="stroke-width: 1.42 ;&st7;  " d=" M   641.64,   196.69  L   645.89,   200.94  L   650.14,   196.69  " /><text style="&st18;" transform="matrix(&st16;  630.16  211.97 )">15</text></g><g ewd:figtype="w2w" ewd:figID="17" ewd:code="AG7"><path style="stroke-width: 1.42 ;&st7;  " d=" M   752.12,   196.69  L   756.37,   200.94  L   760.62,   196.69  " /><path style="stroke-width: 1.42 ;&st7;  " d=" M   760.62,   200.09  L   756.37,   204.33  L   752.12,   200.09  " /><text style="&st18;" transform="matrix(&st16;  743.74  211.97 )">9</text></g><g ewd:figtype="w2w" ewd:figID="18" ewd:code="AG7"><path style="stroke-width: 1.42 ;&st7;  " d=" M   811.61,   432.38  L   807.36,   428.13  L   803.12,   432.38  " /><path style="stroke-width: 1.42 ;&st7;  " d=" M   811.61,   435.78  L   807.36,   431.53  L   803.12,   435.78  " /><text style="&st18;" transform="matrix(&st16;  791.63  424.43 )">14</text></g><g ewd:figtype="w2w" ewd:figID="19" ewd:code="AG7"><path style="stroke-width: 1.42 ;&st7;  " d=" M   811.61,   200.09  L   807.36,   204.33  L   803.12,   200.09  " /><path style="stroke-width: 1.42 ;&st7;  " d=" M   803.12,   196.69  L   807.36,   200.94  L   811.61,   196.69  " /><text style="&st18;" transform="matrix(&st16;  794.73  211.97 )">1</text></g><g ewd:figtype="gp" ewd:figID="20" ewd:code="GD"><path style="stroke-width: 0.85 ;&st7;  " d=" M   644.48,   710.00  L   647.31,   710.00  " /><path style="stroke-width: 0.85 ;&st7;  " d=" M   643.06,   707.17  L   648.72,   707.17  " /><path style="stroke-width: 0.85 ;&st7;  " d=" M   641.64,   704.33  L   650.14,   704.33  " /><path style="stroke-width: 0.85 ;&st7;  " d=" M   637.39,   701.50  L   654.39,   701.50  " /><path style="stroke-width: 0.85 ;&st7;  " d=" M   645.89,   697.25  L   645.89,   701.50  " /></g><g ewd:code="1" ewd:figID="27" ewd:comment="" ewd:figtype="comment"><text style="&st18;" transform="matrix(&st16;  854.95  46.25 )">* 1 :2TR-FE</text></g><g ewd:code="4" ewd:figID="28" ewd:comment="" ewd:figtype="comment"><text style="&st18;" transform="matrix(&st16;  854.95  71.74 )" ewd:textID="2">* 4 :Rectangular Connector Type</text></g><g ewd:code="6" ewd:figID="37" ewd:comment="" ewd:figtype="comment"><text style="&st18;" transform="matrix(&st16;  854.95  80.24 )">* 6 :2GR-FBE</text></g><g ewd:code="2" ewd:figID="26" ewd:comment="" ewd:figtype="comment"><text style="&st18;" transform="matrix(&st16;  854.95  54.75 )">* 2 :1GD-FTV, 2GD-FTV</text></g><g ewd:code="3" ewd:figID="29" ewd:comment="" ewd:figtype="comment"><text style="&st18;" transform="matrix(&st16;  854.95  63.24 )" ewd:textID="1">* 3 :Triangle Connector Type</text></g></svg>