﻿<?xml version="1.0" encoding="utf-8"?>
<!DOCTYPE svg PUBLIC "-//W3C//DTD SVG 1.0//EN" "http://www.w3.org/TR/2001/REC-SVG-20010904/DTD/svg10.dtd"[
	<!ENTITY ns_flows "http://ns.adobe.com/Flows/1.0/">
	<!ENTITY ns_svg "http://www.w3.org/2000/svg">
	<!ENTITY ns_xlink "http://www.w3.org/1999/xlink">
	<!ENTITY st0 "font-size:7px;font-family:'MS-PGothic';adobe-font-script:japanese;">
	<!ENTITY st1 "font-size:6px;font-family:'ArialMT';">
	<!-- White fill  -->
	<!ENTITY st2 "fill:#FFFFFF;stroke:#000000; stroke-width:1.41;stroke-linecap:round;stroke-linejoin:round;">
	<!-- Yellow fill  -->
	<!ENTITY st3 "fill:#FFFFCC;stroke:#FFFFCC; stroke-width:0.1;stroke-linecap:round;stroke-linejoin:round;">
	<!-- Gray fill  -->
	<!ENTITY st4 "fill:#CCCCCC;stroke:#CCCCCC; stroke-width:0.1;stroke-linecap:round;stroke-linejoin:round;">
	<!-- Light-blue fill -->
	<!ENTITY st5 "fill:#CCECF4;stroke:#000000; stroke-width:1.133;stroke-linecap:round;stroke-linejoin:round;">
	<!ENTITY st6 "fill:none;stroke-linecap:butt; stroke-linejoin:round;">
	<!ENTITY st7 "fill:none;stroke:#000000;stroke-linecap:round;stroke-linejoin:round;">
	<!ENTITY st8 "enable-background:new    ;">
	<!-- Black fill -->
	<!ENTITY st9 "fill:#000000;stroke:#000000; stroke-linecap:round;stroke-linejoin:round;">
	<!-- SRS note   -->
	<!ENTITY st10 "font-size:9px;font-family:'ArialMT';">
	<!ENTITY st11 "font-size:9px;font-family:'Svg Symbol';">
	<!ENTITY st12 "font-size:6px;font-family:'Svg Symbol';">
	<!ENTITY st13 "fill:none;stroke:#ff0000;stroke-linecap:round;stroke-linejoin:round;">
	<!-- Yellow fill  -->
	<!ENTITY st14 "fill:#FFFF00;stroke:#FFFF00; stroke-width:0.1;stroke-linecap:round;stroke-linejoin:round;">
	<!ENTITY st15 "font-size:6px;font-family:'MS-PGothic';adobe-font-script:japanese;">
	<!ENTITY st16 "1.00 0.00 0.00 1.00">
	<!ENTITY st17 "0.00 -1.00 1.00 0.00">
	<!ENTITY st18 "font-size:6px;font-family:'Arial';">
	<!ENTITY st19 "font-size:9px;font-family:'Arial';">
	<!ENTITY st20 "font-size:6px;font-family:'MS-PGothic','MS PGothic';adobe-font-script:japanese;">
	<!ENTITY st21 "font-size:7px;font-family:'MS-PGothic','MS PGothic';adobe-font-script:japanese;">
	<!ATTLIST svg
		xmlns:ewd CDATA #FIXED "http://shcl.co.jp/ewd"
		xmlns:a CDATA #FIXED "http://ns.adobe.com/AdobeSVGViewerExtensions/3.0/"
		ewd:ver CDATA #IMPLIED
	>
	<!ATTLIST a
		ewd:lineID CDATA #IMPLIED
		ewd:groupID CDATA #IMPLIED
		ewd:figtype CDATA #IMPLIED
		ewd:code CDATA #IMPLIED
		ewd:figID CDATA #IMPLIED
		ewd:pinNo CDATA #IMPLIED
		ewd:comment CDATA #IMPLIED >
	<!ATTLIST g
		ewd:lineID CDATA #IMPLIED
		ewd:groupID CDATA #IMPLIED
		ewd:figtype CDATA #IMPLIED
		ewd:code CDATA #IMPLIED
		ewd:figID CDATA #IMPLIED
		ewd:pinNo CDATA #IMPLIED
		ewd:comment CDATA #IMPLIED >
	<!ATTLIST text
		ewd:textID CDATA #IMPLIED >
	<!ATTLIST title
		ewd:textID CDATA #IMPLIED >
]>
<!-- Generator: Shintec Hozumi YS   -->
<svg onload="call_execInitLoadProc_svg('system')" style="overflow:visible;  enable-background:new 0 0 5663.426 710.000" viewBox="0 0 5663.426 710.000" height="710.000" width="5663.426" xml:space="preserve" ewd:ver="2.1.2.9" xmlns="&ns_svg;" xmlns:a="http://ns.adobe.com/AdobeSVGViewerExtensions/3.0/" xmlns:ewd="http://shcl.co.jp/ewd" xmlns:xlink="&ns_xlink;">
<text style="&st18;" transform="matrix(&st17;  361.74  487.91 )">W-B</text><text style="&st18;" transform="matrix(&st17;  242.76  143.7 )">B</text><text style="&st18;" transform="matrix(&st17;  242.76  241.24 )">P</text><text style="&st18;" transform="matrix(&st17;  92.62  547.49 )">(*4 *28)</text><text style="&st18;" transform="matrix(&st17;  242.76  488.99 )">LA-R</text><text style="&st18;" transform="matrix(&st17;  254.1  492.25 )">(*5 *28)</text><text style="&st18;" transform="matrix(&st17;  285.26  483.45 )">P</text><text style="&st18;" transform="matrix(&st17;  296.59  492.25 )">(*4 *28)</text><text style="&st18;" transform="matrix(&st17;  81.29  539.0 )">V</text><text style="&st18;" transform="matrix(&st17;  81.29  419.83 )">R</text><text style="&st18;" transform="matrix(&st17;  92.62  360.52 )">(*4 *28)</text><text style="&st18;" transform="matrix(&st17;  92.62  428.51 )">(*4 *28)</text><text style="&st18;" transform="matrix(&st17;  149.28  357.27 )">LA-R</text><text style="&st18;" transform="matrix(&st17;  160.61  360.52 )">(*5 *28)</text><text style="&st18;" transform="matrix(&st16;  380.44  278.54 )">P</text><text style="&st18;" transform="matrix(&st16;  377.22  289.87 )">(*3)</text><text style="&st18;" transform="matrix(&st17;  160.61  246.01 )">(*28)</text><path style="stroke-width: 1.42 ;&st7;  " d=" M   297.45,   528.70  L   288.95,   528.70  " /><path style="stroke-width: 1.42 ;&st7;  " d=" M   161.47,   188.75  L   152.97,   188.75  " /><path style="stroke-width: 1.42 ;&st7;  " d=" M    93.48,   384.22  L    84.99,   384.22  " /><text style="&st18;" transform="matrix(&st17;  149.28  246.79 )">LA-R</text><text style="&st18;" transform="matrix(&st17;  149.28  143.7 )">B</text><text style="&st18;" transform="matrix(&st17;  81.29  351.84 )">R</text><text style="&st18;" transform="matrix(&st16;  346.25  159.56 )">B</text><text style="&st18;" transform="matrix(&st17;  336.25  309.23 )">P</text><text style="&st18;" transform="matrix(&st17;  446.73  139.33 )">L</text><text style="&st18;" transform="matrix(&st17;  361.74  139.45 )">B</text><text style="&st18;" transform="matrix(&st17;  373.08  488.22 )">(*28)</text><text style="&st18;" transform="matrix(&st17;  347.58  314.0 )">(*28)</text><text style="&st18;" transform="matrix(&st17;  254.1  246.01 )">(*28)</text><text style="&st18;" transform="matrix(&st17;  254.1  148.28 )">(*28)</text><text style="&st18;" transform="matrix(&st17;  160.61  148.28 )">(*28)</text><text style="&st18;" transform="matrix(&st16;  490.85  23.58 )">L</text><text style="&st18;" transform="matrix(&st16;  490.92  278.54 )">P</text><text style="&st18;" transform="matrix(&st16;  487.71  289.87 )">(*3)</text><g ewd:figtype="conn" ewd:figID="5" ewd:code="N25"><path style="stroke-width: 1.42 ;&st7;  " d=" M    59.49,   452.21  L    59.49,   494.70  L   110.48,   494.70  L   110.48,   452.21  L    59.49,   452.21  " /><g ewd:lineID="1"><text style="&st18;" transform="matrix(&st16;  78.8  502.9 )">3</text><text style="&st18;" transform="matrix(&st16;  76.52  491.01 )">EDOR</text></g><g ewd:lineID="2"><text style="&st18;" transform="matrix(&st16;  78.8  448.52 )">4</text><text style="&st18;" transform="matrix(&st16;  76.63  459.84 )">BECU</text></g><g ewd:figtype="title"><text style="&st18;" transform="matrix(&st17;  118.38  497.6 )">N25</text><text style="&st18;" transform="matrix(&st17;  125.2  497.61 )" ewd:textID="42">Door Control Battery</text></g></g><g ewd:figtype="conn" ewd:figID="6" ewd:code="G59-A,G60-B"><path style="stroke-width: 1.42 ;&st7;  " d=" M    76.49,   299.24  L    76.49,   316.23  L   161.47,   316.23  L   161.47,   299.24  L    76.49,   299.24  " /><path style="stroke-width: 0.85 ;&st7;  " d=" M   152.97,   307.73  L   152.97,   316.23  " /><path style="stroke-width: 0.85 ;&st7;  " d=" M   151.78,   306.73  L   151.51,   307.20  L   151.42,   307.73  L   151.51,   308.27  L   151.78,   308.74  L   152.20,   309.08  L   152.70,   309.27  L   153.25,   309.27  L   153.75,   309.08  L   154.17,   308.74  L   154.44,   308.27  L   154.53,   307.73  L   154.44,   307.20  L   154.17,   306.73  L   153.75,   306.39  L   153.25,   306.20  L   152.70,   306.20  L   152.20,   306.39  L   151.78,   306.73  L   152.18,   307.44  L   152.18,   308.03  L   152.55,   308.47  L   153.12,   308.57  L   153.63,   308.28  L   153.82,   307.73  L   153.63,   307.19  L   153.12,   306.90  L   152.55,   307.00  L   152.97,   307.73  " /><path style="stroke-width: 0.85 ;&st7;  " d=" M    84.99,   316.23  L    84.99,   307.73  L   152.97,   307.73  L   152.97,   299.24  " /><text style="&st18;" transform="matrix(&st16;  76.29  322.73 )">7</text><text style="&st18;" transform="matrix(&st16;  82.8  322.73 )">B</text><path style="stroke-width: 1.42 ;&st7;   " d=" M    89.52,   320.77  C    89.52    318.26     87.49    316.23     84.99    316.23  " /><path style="stroke-width: 1.42 ;&st7;   " d=" M    84.99,   316.23  C    82.48    316.23     80.45    318.26     80.45    320.77  " /><path style="stroke-width: 1.42 ;&st7;   " d=" M    80.45,   320.77  C    80.45    323.27     82.48    325.30     84.99    325.30  " /><path style="stroke-width: 1.42 ;&st7;   " d=" M    84.99,   325.30  C    87.49    325.30     89.52    323.27     89.52    320.77  " /><text style="&st18;" transform="matrix(&st16;  141.18  296.67 )">11</text><text style="&st18;" transform="matrix(&st16;  150.67  296.67 )">A</text><path style="stroke-width: 1.42 ;&st7;   " d=" M   157.51,   294.70  C   157.51    292.20    155.48    290.17    152.97    290.17  " /><path style="stroke-width: 1.42 ;&st7;   " d=" M   152.97,   290.17  C   150.47    290.17    148.44    292.20    148.44    294.70  " /><path style="stroke-width: 1.42 ;&st7;   " d=" M   148.44,   294.70  C   148.44    297.21    150.47    299.24    152.97    299.24  " /><path style="stroke-width: 1.42 ;&st7;   " d=" M   152.97,   299.24  C   155.48    299.24    157.51    297.21    157.51    294.70  " /><text style="&st18;" transform="matrix(&st16;  141.18  322.73 )">12</text><path style="stroke-width: 1.42 ;&st7;   " d=" M   157.51,   320.77  C   157.51    318.26    155.48    316.23    152.97    316.23  " /><path style="stroke-width: 1.42 ;&st7;   " d=" M   152.97,   316.23  C   150.47    316.23    148.44    318.26    148.44    320.77  " /><path style="stroke-width: 1.42 ;&st7;   " d=" M   148.44,   320.77  C   148.44    323.27    150.47    325.30    152.97    325.30  " /><path style="stroke-width: 1.42 ;&st7;   " d=" M   152.97,   325.30  C   155.48    325.30    157.51    323.27    157.51    320.77  " /><text style="&st18;" transform="matrix(&st16;  150.67  322.73 )">A</text><g ewd:figtype="title"><text style="&st18;" transform="matrix(&st17;  169.37  319.13 )">G59(A),G60(B)</text><text style="&st18;" transform="matrix(&st17;  176.19  319.14 )" ewd:textID="68">No. 19 Junction Connector</text></g></g><g ewd:figtype="conn" ewd:figID="7" ewd:code="G27,G28"><path style="stroke-width: 1.42 ;&st7;  " d=" M   229.46,   341.73  L   229.46,   392.72  L   586.40,   392.72  L   586.40,   341.73  L   229.46,   341.73  " /><g ewd:lineID="10"><text style="&st18;" transform="matrix(&st16;  331.25  339.16 )">1</text><text style="&st18;" transform="matrix(&st16;  337.64  339.16 )">A</text><path style="stroke-width: 1.42 ;&st7;   " d=" M   344.48,   337.20  C   344.48    334.69    342.45    332.66    339.94    332.66  " /><path style="stroke-width: 1.42 ;&st7;   " d=" M   339.94,   332.66  C   337.44    332.66    335.41    334.69    335.41    337.20  " /><path style="stroke-width: 1.42 ;&st7;   " d=" M   335.41,   337.20  C   335.41    339.70    337.44    341.73    339.94    341.73  " /><path style="stroke-width: 1.42 ;&st7;   " d=" M   339.94,   341.73  C   342.45    341.73    344.48    339.70    344.48    337.20  " /><text style="&st18;" transform="matrix(&st16;  332.13  349.36 )">TRLY</text></g><g ewd:figtype="title"><text style="&st18;" transform="matrix(&st16;  413.02  400.61 )">G27(A),G28(B)</text><text style="&st18;" transform="matrix(&st16;  413.02  407.44 )" ewd:textID="31">Body ECU</text></g><g ewd:lineID="155"><text style="&st18;" transform="matrix(&st16;  238.11  389.02 )">BECU</text></g><g ewd:lineID="154"><text style="&st18;" transform="matrix(&st16;  243.11  349.36 )">IG</text></g><g ewd:lineID="157"><text style="&st18;" transform="matrix(&st16;  358.79  389.02 )">GND</text></g></g><g ewd:figtype="rb" ewd:figID="21" ewd:code="FUSE23"><path style="stroke-width: 0.28 ;&st9;  " d=" M   152.97,    90.37  L   150.14,    87.54  L   150.14,    91.79  L   152.97,    94.62  L   155.81,    91.79  L   155.81,    87.54  L   152.97,    90.37  " /><path style="stroke-width: 1.42 ;&st7;   " d=" M   150.85,    95.27  C   148.50     95.27    146.60     97.17    146.60     99.52  " /><path style="stroke-width: 1.42 ;&st7;   " d=" M   146.60,    99.52  C   146.60    101.87    148.50    103.77    150.85    103.77  " /><path style="stroke-width: 1.42 ;&st7;   " d=" M   155.10,   103.77  C   157.45    103.77    159.35    101.87    159.35     99.52  " /><path style="stroke-width: 1.42 ;&st7;   " d=" M   159.35,    99.52  C   159.35     97.17    157.45     95.27    155.10     95.27  " /><path style="stroke-width: 1.42 ;&st7;  " d=" M   155.10,    95.27  L   150.85,    95.27  " /><path style="stroke-width: 1.42 ;&st7;  " d=" M   155.10,   103.77  L   150.85,   103.77  " /><path style="stroke-width: 0.85 ;&st7;  " d=" M   152.97,    78.27  L   152.97,    95.27  " /><text style="&st18;" transform="matrix(&st16;  144.93  32.08 )">(BAT)</text><text style="&st18;" transform="matrix(&st16;  146.79  86.47 )">2</text><text style="&st18;" transform="matrix(&st16;  151.17  101.49 )">1</text><text style="&st18;" transform="matrix(&st16;  169.4  53.34 )">25A <tspan x="0 " dy="6.0">ECU-B </tspan><tspan x="0 " dy="6.0">NO.4</tspan></text><path style="stroke-width: 1.42 ;&st7;  " d=" M   140.23,    35.78  L   140.23,    78.27  L   165.72,    78.27  L   165.72,    35.78  L   140.23,    35.78  " /><path style="stroke-width: 1.42 ;&st7;   " d=" M   152.97,    47.11  C   150.24     48.72    149.32     52.25    150.94     54.99  " /><path style="stroke-width: 1.42 ;&st7;   " d=" M   150.94,    54.99  C   151.46     55.87    152.09     56.51    152.97     57.03  " /><path style="stroke-width: 1.42 ;&st7;   " d=" M   152.97,    66.94  C   155.71     65.33    156.62     61.80    155.01     59.06  " /><path style="stroke-width: 1.42 ;&st7;   " d=" M   155.01,    59.06  C   154.49     58.18    153.86     57.55    152.97     57.03  " /><path style="stroke-width: 0.85 ;&st7;   " d=" M   154.39,    45.69  C   154.39     44.91    153.76     44.28    152.97     44.28  " /><path style="stroke-width: 0.85 ;&st7;   " d=" M   152.97,    44.28  C   152.19     44.28    151.56     44.91    151.56     45.69  " /><path style="stroke-width: 0.85 ;&st7;   " d=" M   151.56,    45.69  C   151.56     46.48    152.19     47.11    152.97     47.11  " /><path style="stroke-width: 0.85 ;&st7;   " d=" M   152.97,    47.11  C   153.76     47.11    154.39     46.48    154.39     45.69  " /><path style="stroke-width: 0.85 ;&st7;   " d=" M   154.39,    68.36  C   154.39     67.57    153.76     66.94    152.97     66.94  " /><path style="stroke-width: 0.85 ;&st7;   " d=" M   152.97,    66.94  C   152.19     66.94    151.56     67.57    151.56     68.36  " /><path style="stroke-width: 0.85 ;&st7;   " d=" M   151.56,    68.36  C   151.56     69.14    152.19     69.77    152.97     69.77  " /><path style="stroke-width: 0.85 ;&st7;   " d=" M   152.97,    69.77  C   153.76     69.77    154.39     69.14    154.39     68.36  " /><path style="stroke-width: 0.85 ;&st7;  " d=" M   152.97,    69.77  L   152.97,    78.27  " /></g><g ewd:figtype="rb" ewd:figID="24" ewd:code="3"><text style="&st18;" transform="matrix(&st16;  333.76  247.94 )">1</text><text style="&st18;" transform="matrix(&st16;  359.25  247.94 )">3</text><text style="&st18;" transform="matrix(&st16;  333.76  202.06 )">2</text><text style="&st18;" transform="matrix(&st16;  359.25  202.06 )">5</text><text style="&st18;" transform="matrix(&st16;  448.62  186.47 )">3</text><path style="stroke-width: 1.42 ;&st7;   " d=" M   452.55,   188.75  C   454.90    188.75    456.80    186.85    456.80    184.50  " /><path style="stroke-width: 1.42 ;&st7;   " d=" M   456.80,   184.50  C   456.80    182.16    454.90    180.26    452.55    180.26  " /><path style="stroke-width: 1.42 ;&st7;   " d=" M   444.05,   184.50  C   444.05    186.85    445.95    188.75    448.30    188.75  " /><path style="stroke-width: 1.42 ;&st7;   " d=" M   448.30,   180.26  C   445.95    180.26    444.05    182.16    444.05    184.50  " /><path style="stroke-width: 0.28 ;&st9;  " d=" M   365.44,   193.65  L   368.27,   196.48  L   368.27,   192.23  L   365.44,   189.40  L   362.61,   192.23  L   362.61,   196.48  L   365.44,   193.65  " /><path style="stroke-width: 0.28 ;&st9;  " d=" M   339.94,   193.65  L   342.78,   196.48  L   342.78,   192.23  L   339.94,   189.40  L   337.11,   192.23  L   337.11,   196.48  L   339.94,   193.65  " /><path style="stroke-width: 0.28 ;&st9;  " d=" M   339.94,   251.85  L   337.11,   249.01  L   337.11,   253.26  L   339.94,   256.10  L   342.78,   253.26  L   342.78,   249.01  L   339.94,   251.85  " /><path style="stroke-width: 0.85 ;&st7;  " d=" M   365.44,   205.75  L   365.44,   188.75  " /><path style="stroke-width: 0.85 ;&st7;  " d=" M   339.94,   205.75  L   339.94,   188.75  " /><path style="stroke-width: 0.85 ;&st7;  " d=" M   339.94,   256.74  L   339.94,   239.75  " /><path style="stroke-width: 0.85 ;&st7;  " d=" M   450.42,   188.75  L   450.42,   256.74  L   365.44,   256.74  L   365.44,   239.75  " /><path style="stroke-width: 0.28 ;&st9;  " d=" M   450.42,   193.65  L   453.26,   196.48  L   453.26,   192.23  L   450.42,   189.40  L   447.59,   192.23  L   447.59,   196.48  L   450.42,   193.65  " /><path style="stroke-width: 1.42 ;&st7;   " d=" M   363.31,   180.26  C   360.97    180.26    359.07    182.16    359.07    184.50  " /><path style="stroke-width: 1.42 ;&st7;   " d=" M   359.07,   184.50  C   359.07    186.85    360.97    188.75    363.31    188.75  " /><path style="stroke-width: 1.42 ;&st7;   " d=" M   367.56,   188.75  C   369.91    188.75    371.81    186.85    371.81    184.50  " /><path style="stroke-width: 1.42 ;&st7;   " d=" M   371.81,   184.50  C   371.81    182.16    369.91    180.26    367.56    180.26  " /><path style="stroke-width: 1.42 ;&st7;   " d=" M   337.82,   180.26  C   335.47    180.26    333.57    182.16    333.57    184.50  " /><path style="stroke-width: 1.42 ;&st7;   " d=" M   333.57,   184.50  C   333.57    186.85    335.47    188.75    337.82    188.75  " /><path style="stroke-width: 1.42 ;&st7;   " d=" M   342.07,   188.75  C   344.41    188.75    346.32    186.85    346.32    184.50  " /><path style="stroke-width: 1.42 ;&st7;   " d=" M   346.32,   184.50  C   346.32    182.16    344.41    180.26    342.07    180.26  " /><path style="stroke-width: 1.42 ;&st7;   " d=" M   337.82,   256.74  C   335.47    256.74    333.57    258.64    333.57    260.99  " /><path style="stroke-width: 1.42 ;&st7;   " d=" M   333.57,   260.99  C   333.57    263.34    335.47    265.24    337.82    265.24  " /><path style="stroke-width: 1.42 ;&st7;   " d=" M   342.07,   265.24  C   344.41    265.24    346.32    263.34    346.32    260.99  " /><path style="stroke-width: 1.42 ;&st7;   " d=" M   346.32,   260.99  C   346.32    258.64    344.41    256.74    342.07    256.74  " /><path style="stroke-width: 1.42 ;&st7;  " d=" M   367.56,   180.26  L   363.31,   180.26  " /><path style="stroke-width: 1.42 ;&st7;  " d=" M   367.56,   188.75  L   363.31,   188.75  " /><path style="stroke-width: 1.42 ;&st7;  " d=" M   342.07,   180.26  L   337.82,   180.26  " /><path style="stroke-width: 1.42 ;&st7;  " d=" M   342.07,   188.75  L   337.82,   188.75  " /><path style="stroke-width: 1.42 ;&st7;  " d=" M   342.07,   256.74  L   337.82,   256.74  " /><path style="stroke-width: 1.42 ;&st7;  " d=" M   342.07,   265.24  L   337.82,   265.24  " /><path style="stroke-width: 1.42 ;&st7;  " d=" M   452.55,   180.26  L   448.30,   180.26  " /><path style="stroke-width: 1.42 ;&st7;  " d=" M   452.55,   188.75  L   448.30,   188.75  " /><text style="&st18;" transform="matrix(&st16;  376.2  221.89 )" ewd:textID="92">TAIL <tspan x="0 " dy="6.0">Relay</tspan></text><text style="&st18;" transform="matrix(&st16;  338.14  262.96 )">3</text><text style="&st18;" transform="matrix(&st16;  338.14  186.47 )">3</text><text style="&st18;" transform="matrix(&st16;  363.64  186.47 )">3</text><path style="stroke-width: 1.42 ;&st7;  " d=" M   373.94,   205.75  L   331.44,   205.75  L   331.44,   239.75  L   373.94,   239.75  L   373.94,   205.75  " /><path style="stroke-width: 0.85 ;&st7;   " d=" M   366.86,   234.08  C   366.86    233.30    366.22    232.66    365.44    232.66  " /><path style="stroke-width: 0.85 ;&st7;   " d=" M   365.44,   232.66  C   364.66    232.66    364.02    233.30    364.02    234.08  " /><path style="stroke-width: 0.85 ;&st7;   " d=" M   364.02,   234.08  C   364.02    234.86    364.66    235.50    365.44    235.50  " /><path style="stroke-width: 0.85 ;&st7;   " d=" M   365.44,   235.50  C   366.22    235.50    366.86    234.86    366.86    234.08  " /><path style="stroke-width: 0.85 ;&st7;   " d=" M   366.86,   211.42  C   366.86    210.63    366.22    210.00    365.44    210.00  " /><path style="stroke-width: 0.85 ;&st7;   " d=" M   365.44,   210.00  C   364.66    210.00    364.02    210.63    364.02    211.42  " /><path style="stroke-width: 0.85 ;&st7;   " d=" M   364.02,   211.42  C   364.02    212.20    364.66    212.83    365.44    212.83  " /><path style="stroke-width: 0.85 ;&st7;   " d=" M   365.44,   212.83  C   366.22    212.83    366.86    212.20    366.86    211.42  " /><path style="stroke-width: 0.85 ;&st7;   " d=" M   337.41,   220.27  C   338.78    221.67    341.02    221.69    342.42    220.32  " /><path style="stroke-width: 0.85 ;&st7;   " d=" M   342.42,   220.32  C   343.82    218.95    343.84    216.71    342.47    215.31  " /><path style="stroke-width: 0.85 ;&st7;   " d=" M   342.47,   215.31  C   341.78    214.60    340.93    214.25    339.94    214.25  " /><path style="stroke-width: 0.85 ;&st7;   " d=" M   337.41,   225.23  C   338.78    226.62    341.02    226.65    342.42    225.28  " /><path style="stroke-width: 0.85 ;&st7;   " d=" M   342.42,   225.28  C   343.82    223.91    343.84    221.67    342.47    220.27  " /><path style="stroke-width: 0.85 ;&st7;   " d=" M   342.47,   220.27  C   341.10    218.87    338.86    218.85    337.46    220.22  " /><path style="stroke-width: 0.85 ;&st7;   " d=" M   337.46,   220.22  C   337.45    220.24    337.43    220.25    337.41    220.27  " /><path style="stroke-width: 0.85 ;&st7;   " d=" M   339.94,   231.25  C   341.90    231.25    343.48    229.66    343.48    227.71  " /><path style="stroke-width: 0.85 ;&st7;   " d=" M   343.48,   227.71  C   343.48    225.75    341.90    224.16    339.94    224.16  " /><path style="stroke-width: 0.85 ;&st7;   " d=" M   339.94,   224.16  C   338.95    224.16    338.11    224.52    337.41    225.23  " /><path style="stroke-width: 1.42 ;&st7;  " d=" M   365.44,   232.66  L   371.10,   210.00  " /><path style="stroke-width: 0.85 ;&st7;  " d=" M   365.44,   239.75  L   365.44,   235.50  " /><path style="stroke-width: 0.85 ;&st7;  " d=" M   365.44,   205.75  L   365.44,   210.00  " /><path style="stroke-width: 0.85 ;&st7;  " d=" M   339.94,   205.75  L   339.94,   214.25  " /><path style="stroke-width: 0.85 ;&st7;  " d=" M   339.94,   231.25  L   339.94,   239.75  " /></g><g ewd:figtype="conn" ewd:figID="27" ewd:code="A45,A46"><path style="stroke-width: 1.42 ;&st7;  " d=" M   237.96,   180.26  L   254.96,   180.26  L   254.96,   197.25  L   237.96,   197.25  L   237.96,   180.26  " /><path style="stroke-width: 0.85 ;&st7;  " d=" M   246.46,   180.26  L   246.46,   197.25  " /><text style="&st18;" transform="matrix(&st16;  234.66  203.75 )">11</text><path style="stroke-width: 1.42 ;&st7;   " d=" M   250.99,   201.78  C   250.99    199.28    248.96    197.25    246.46    197.25  " /><path style="stroke-width: 1.42 ;&st7;   " d=" M   246.46,   197.25  C   243.96    197.25    241.93    199.28    241.93    201.78  " /><path style="stroke-width: 1.42 ;&st7;   " d=" M   241.93,   201.78  C   241.93    204.29    243.96    206.32    246.46    206.32  " /><path style="stroke-width: 1.42 ;&st7;   " d=" M   246.46,   206.32  C   248.96    206.32    250.99    204.29    250.99    201.78  " /><text style="&st18;" transform="matrix(&st16;  244.27  203.75 )">B</text><text style="&st18;" transform="matrix(&st16;  237.76  177.69 )">7</text><path style="stroke-width: 1.42 ;&st7;   " d=" M   250.99,   175.72  C   250.99    173.22    248.96    171.19    246.46    171.19  " /><path style="stroke-width: 1.42 ;&st7;   " d=" M   246.46,   171.19  C   243.96    171.19    241.93    173.22    241.93    175.72  " /><path style="stroke-width: 1.42 ;&st7;   " d=" M   241.93,   175.72  C   241.93    178.23    243.96    180.26    246.46    180.26  " /><path style="stroke-width: 1.42 ;&st7;   " d=" M   246.46,   180.26  C   248.96    180.26    250.99    178.23    250.99    175.72  " /><text style="&st18;" transform="matrix(&st16;  244.15  177.69 )">A</text><g ewd:figtype="title"><text style="&st18;" transform="matrix(&st17;  262.85  200.15 )">A45(A),A46(B)</text><text style="&st18;" transform="matrix(&st17;  269.68  200.16 )" ewd:textID="59">No. 1 <tspan x="0 " dy="6.0">Junction Connector</tspan></text></g></g><g ewd:figtype="jb" ewd:figID="70" ewd:code="2"><text style="&st18;" transform="matrix(&st16;  362.44  432.93 )">2J</text><text style="&st18;" transform="matrix(&st16;  354.93  432.93 )">5</text><text style="&st18;" transform="matrix(&st16;  359.25  400.91 )">1</text><path style="stroke-width: 0.28 ;&st9;  " d=" M   365.44,   421.82  L   362.61,   418.99  L   362.61,   423.24  L   365.44,   426.07  L   368.27,   423.24  L   368.27,   418.99  L   365.44,   421.82  " /><path style="stroke-width: 0.85 ;&st7;  " d=" M   365.44,   392.72  L   365.44,   426.71  " /><path style="stroke-width: 1.42 ;&st7;   " d=" M   363.31,   426.71  C   360.97    426.71    359.07    428.62    359.07    430.96  " /><path style="stroke-width: 1.42 ;&st7;   " d=" M   359.07,   430.96  C   359.07    433.31    360.97    435.21    363.31    435.21  " /><path style="stroke-width: 1.42 ;&st7;   " d=" M   367.56,   435.21  C   369.91    435.21    371.81    433.31    371.81    430.96  " /><path style="stroke-width: 1.42 ;&st7;   " d=" M   371.81,   430.96  C   371.81    428.62    369.91    426.71    367.56    426.71  " /><path style="stroke-width: 1.42 ;&st7;  " d=" M   367.56,   426.71  L   363.31,   426.71  " /><path style="stroke-width: 1.42 ;&st7;  " d=" M   367.56,   435.21  L   363.31,   435.21  " /></g><g ewd:figtype="jb" ewd:figID="73" ewd:code="2"><text style="&st18;" transform="matrix(&st16;  242.53  305.45 )">2D</text><text style="&st18;" transform="matrix(&st16;  235.95  305.45 )">5</text><text style="&st18;" transform="matrix(&st16;  240.27  338.04 )">7</text><path style="stroke-width: 0.28 ;&st9;  " d=" M   246.46,   312.63  L   249.29,   315.46  L   249.29,   311.21  L   246.46,   308.38  L   243.63,   311.21  L   243.63,   315.46  L   246.46,   312.63  " /><path style="stroke-width: 0.85 ;&st7;  " d=" M   246.46,   307.73  L   246.46,   341.73  " /><path style="stroke-width: 1.42 ;&st7;   " d=" M   244.33,   299.24  C   241.99    299.24    240.08    301.14    240.08    303.48  " /><path style="stroke-width: 1.42 ;&st7;   " d=" M   240.08,   303.48  C   240.08    305.83    241.99    307.73    244.33    307.73  " /><path style="stroke-width: 1.42 ;&st7;   " d=" M   248.58,   307.73  C   250.93    307.73    252.83    305.83    252.83    303.48  " /><path style="stroke-width: 1.42 ;&st7;   " d=" M   252.83,   303.48  C   252.83    301.14    250.93    299.24    248.58    299.24  " /><path style="stroke-width: 1.42 ;&st7;  " d=" M   248.58,   299.24  L   244.33,   299.24  " /><path style="stroke-width: 1.42 ;&st7;  " d=" M   248.58,   307.73  L   244.33,   307.73  " /></g><g ewd:figtype="jb" ewd:figID="74" ewd:code="2"><text style="&st18;" transform="matrix(&st16;  235.95  101.49 )">7</text><path style="stroke-width: 1.42 ;&st7;  " d=" M   233.71,    35.78  L   233.71,    78.27  L   259.21,    78.27  L   259.21,    35.78  L   233.71,    35.78  " /><path style="stroke-width: 0.28 ;&st9;  " d=" M   246.46,    90.37  L   243.63,    87.54  L   243.63,    91.79  L   246.46,    94.62  L   249.29,    91.79  L   249.29,    87.54  L   246.46,    90.37  " /><path style="stroke-width: 1.42 ;&st7;   " d=" M   246.46,    47.11  C   243.72     48.72    242.81     52.25    244.42     54.99  " /><path style="stroke-width: 1.42 ;&st7;   " d=" M   244.42,    54.99  C   244.94     55.87    245.58     56.51    246.46     57.03  " /><path style="stroke-width: 1.42 ;&st7;   " d=" M   246.46,    66.94  C   249.20     65.33    250.11     61.80    248.50     59.06  " /><path style="stroke-width: 1.42 ;&st7;   " d=" M   248.50,    59.06  C   247.98     58.18    247.34     57.55    246.46     57.03  " /><path style="stroke-width: 0.85 ;&st7;   " d=" M   247.88,    45.69  C   247.88     44.91    247.24     44.28    246.46     44.28  " /><path style="stroke-width: 0.85 ;&st7;   " d=" M   246.46,    44.28  C   245.68     44.28    245.04     44.91    245.04     45.69  " /><path style="stroke-width: 0.85 ;&st7;   " d=" M   245.04,    45.69  C   245.04     46.48    245.68     47.11    246.46     47.11  " /><path style="stroke-width: 0.85 ;&st7;   " d=" M   246.46,    47.11  C   247.24     47.11    247.88     46.48    247.88     45.69  " /><path style="stroke-width: 0.85 ;&st7;   " d=" M   247.88,    68.36  C   247.88     67.57    247.24     66.94    246.46     66.94  " /><path style="stroke-width: 0.85 ;&st7;   " d=" M   246.46,    66.94  C   245.68     66.94    245.04     67.57    245.04     68.36  " /><path style="stroke-width: 0.85 ;&st7;   " d=" M   245.04,    68.36  C   245.04     69.14    245.68     69.77    246.46     69.77  " /><path style="stroke-width: 0.85 ;&st7;   " d=" M   246.46,    69.77  C   247.24     69.77    247.88     69.14    247.88     68.36  " /><path style="stroke-width: 1.42 ;&st7;   " d=" M   244.33,    95.27  C   241.99     95.27    240.08     97.17    240.08     99.52  " /><path style="stroke-width: 1.42 ;&st7;   " d=" M   240.08,    99.52  C   240.08    101.87    241.99    103.77    244.33    103.77  " /><path style="stroke-width: 1.42 ;&st7;   " d=" M   248.58,   103.77  C   250.93    103.77    252.83    101.87    252.83     99.52  " /><path style="stroke-width: 1.42 ;&st7;   " d=" M   252.83,    99.52  C   252.83     97.17    250.93     95.27    248.58     95.27  " /><path style="stroke-width: 0.85 ;&st7;  " d=" M   246.46,    69.77  L   246.46,    78.27  " /><path style="stroke-width: 1.42 ;&st7;  " d=" M   248.58,    95.27  L   244.33,    95.27  " /><path style="stroke-width: 1.42 ;&st7;  " d=" M   248.58,   103.77  L   244.33,   103.77  " /><path style="stroke-width: 0.85 ;&st7;  " d=" M   246.46,    78.27  L   246.46,    95.27  " /><text style="&st18;" transform="matrix(&st16;  241.25  32.08 )">(IG)</text><text style="&st18;" transform="matrix(&st16;  240.27  86.47 )">2</text><text style="&st18;" transform="matrix(&st16;  242.53  101.49 )">2D</text><text style="&st18;" transform="matrix(&st16;  262.88  53.34 )">10A <tspan x="0 " dy="6.0">IG1 </tspan><tspan x="0 " dy="6.0">NO.4</tspan></text></g><g ewd:figtype="jb" ewd:figID="75" ewd:code="2"><path style="stroke-width: 0.28 ;&st9;  " d=" M   246.46,   421.82  L   243.63,   418.99  L   243.63,   423.24  L   246.46,   426.07  L   249.29,   423.24  L   249.29,   418.99  L   246.46,   421.82  " /><path style="stroke-width: 0.85 ;&st7;  " d=" M   246.46,   392.72  L   246.46,   426.71  " /><path style="stroke-width: 1.42 ;&st7;   " d=" M   244.33,   426.71  C   241.99    426.71    240.08    428.62    240.08    430.96  " /><path style="stroke-width: 1.42 ;&st7;   " d=" M   240.08,   430.96  C   240.08    433.31    241.99    435.21    244.33    435.21  " /><path style="stroke-width: 1.42 ;&st7;   " d=" M   248.58,   435.21  C   250.93    435.21    252.83    433.31    252.83    430.96  " /><path style="stroke-width: 1.42 ;&st7;   " d=" M   252.83,   430.96  C   252.83    428.62    250.93    426.71    248.58    426.71  " /><path style="stroke-width: 1.42 ;&st7;  " d=" M   248.58,   426.71  L   244.33,   426.71  " /><path style="stroke-width: 1.42 ;&st7;  " d=" M   248.58,   435.21  L   244.33,   435.21  " /><text style="&st18;" transform="matrix(&st16;  240.27  400.91 )">6</text><text style="&st18;" transform="matrix(&st16;  235.95  432.93 )">3</text><text style="&st18;" transform="matrix(&st16;  243.46  432.93 )">2J</text></g><g ewd:code="2" ewd:figID="76" ewd:comment="45,11,12" ewd:figtype="jb"><text style="&st18;" transform="matrix(&st16;  361.43  109.99 )">2G</text><text style="&st18;" transform="matrix(&st16;  361.43  101.49 )">2G</text><text style="&st18;" transform="matrix(&st16;  354.93  109.99 )">4</text><text style="&st18;" transform="matrix(&st16;  354.93  101.49 )">3</text><g ewd:code="" ewd:figID="201" ewd:comment="11,45" ewd:figtype="commref"><text style="&st18;" transform="matrix(&st16;  372.35  101.49 )">(*11,*45)</text></g><g ewd:code="" ewd:figID="200" ewd:comment="12" ewd:figtype="commref"><text style="&st18;" transform="matrix(&st16;  372.35  109.99 )">(*12)</text></g><path style="stroke-width: 1.42 ;&st7;  " d=" M   352.69,    35.78  L   352.69,    78.27  L   378.19,    78.27  L   378.19,    35.78  L   352.69,    35.78  " /><path style="stroke-width: 0.28 ;&st9;  " d=" M   365.44,    90.37  L   362.61,    87.54  L   362.61,    91.79  L   365.44,    94.62  L   368.27,    91.79  L   368.27,    87.54  L   365.44,    90.37  " /><path style="stroke-width: 1.42 ;&st7;   " d=" M   365.44,    47.11  C   362.70     48.72    361.79     52.25    363.40     54.99  " /><path style="stroke-width: 1.42 ;&st7;   " d=" M   363.40,    54.99  C   363.92     55.87    364.56     56.51    365.44     57.03  " /><path style="stroke-width: 1.42 ;&st7;   " d=" M   365.44,    66.94  C   368.18     65.33    369.09     61.80    367.48     59.06  " /><path style="stroke-width: 1.42 ;&st7;   " d=" M   367.48,    59.06  C   366.96     58.18    366.32     57.55    365.44     57.03  " /><path style="stroke-width: 0.85 ;&st7;   " d=" M   366.86,    45.69  C   366.86     44.91    366.22     44.28    365.44     44.28  " /><path style="stroke-width: 0.85 ;&st7;   " d=" M   365.44,    44.28  C   364.66     44.28    364.02     44.91    364.02     45.69  " /><path style="stroke-width: 0.85 ;&st7;   " d=" M   364.02,    45.69  C   364.02     46.48    364.66     47.11    365.44     47.11  " /><path style="stroke-width: 0.85 ;&st7;   " d=" M   365.44,    47.11  C   366.22     47.11    366.86     46.48    366.86     45.69  " /><path style="stroke-width: 0.85 ;&st7;   " d=" M   366.86,    68.36  C   366.86     67.57    366.22     66.94    365.44     66.94  " /><path style="stroke-width: 0.85 ;&st7;   " d=" M   365.44,    66.94  C   364.66     66.94    364.02     67.57    364.02     68.36  " /><path style="stroke-width: 0.85 ;&st7;   " d=" M   364.02,    68.36  C   364.02     69.14    364.66     69.77    365.44     69.77  " /><path style="stroke-width: 0.85 ;&st7;   " d=" M   365.44,    69.77  C   366.22     69.77    366.86     69.14    366.86     68.36  " /><path style="stroke-width: 1.42 ;&st7;   " d=" M   363.31,    95.27  C   360.97     95.27    359.07     97.17    359.07     99.52  " /><path style="stroke-width: 1.42 ;&st7;   " d=" M   359.07,    99.52  C   359.07    101.87    360.97    103.77    363.31    103.77  " /><path style="stroke-width: 1.42 ;&st7;   " d=" M   367.56,   103.77  C   369.91    103.77    371.81    101.87    371.81     99.52  " /><path style="stroke-width: 1.42 ;&st7;   " d=" M   371.81,    99.52  C   371.81     97.17    369.91     95.27    367.56     95.27  " /><path style="stroke-width: 1.42 ;&st7;   " d=" M   359.07,   108.02  C   359.07    110.36    360.97    112.27    363.31    112.27  " /><path style="stroke-width: 1.42 ;&st7;   " d=" M   363.31,   103.77  C   360.97    103.77    359.07    105.67    359.07    108.02  " /><path style="stroke-width: 1.42 ;&st7;   " d=" M   371.81,   108.02  C   371.81    105.67    369.91    103.77    367.56    103.77  " /><path style="stroke-width: 1.42 ;&st7;   " d=" M   367.56,   112.27  C   369.91    112.27    371.81    110.36    371.81    108.02  " /><path style="stroke-width: 0.85 ;&st7;  " d=" M   365.44,    69.77  L   365.44,    78.27  " /><path style="stroke-width: 0.85 ;&st7;  " d=" M   365.44,    78.27  L   365.44,    95.27  " /><path style="stroke-width: 1.42 ;&st7;  " d=" M   367.56,    95.27  L   363.31,    95.27  " /><path style="stroke-width: 1.42 ;&st7;  " d=" M   367.56,   112.27  L   363.31,   112.27  " /><path style="stroke-width: 1.42 ;&st7;  " d=" M   367.56,   103.77  L   363.31,   103.77  " /><text style="&st18;" transform="matrix(&st16;  357.4  32.08 )">(BAT)</text><text style="&st18;" transform="matrix(&st16;  359.25  86.47 )">2</text><text style="&st18;" transform="matrix(&st16;  381.86  56.17 )">10A <tspan x="0 " dy="6.0">TAIL</tspan></text></g><g ewd:figtype="w2w" ewd:figID="77" ewd:code="GN2"><text style="&st18;" transform="matrix(&st16;  72.35  381.94 )">8</text><path style="stroke-width: 1.42 ;&st7;  " d=" M    89.24,   393.29  L    84.99,   389.04  L    80.74,   393.29  " /><path style="stroke-width: 1.42 ;&st7;  " d=" M    89.24,   389.89  L    84.99,   385.64  L    80.74,   389.89  " /></g><g ewd:figtype="w2w" ewd:figID="78" ewd:code="AG1"><path style="stroke-width: 1.42 ;&st7;  " d=" M   157.22,   197.82  L   152.97,   193.57  L   148.73,   197.82  " /><path style="stroke-width: 1.42 ;&st7;  " d=" M   157.22,   194.42  L   152.97,   190.17  L   148.73,   194.42  " /><text style="&st18;" transform="matrix(&st16;  140.34  186.47 )">1</text></g><g ewd:figtype="w2w" ewd:figID="79" ewd:code="GN4"><path style="stroke-width: 1.42 ;&st7;  " d=" M   293.20,   537.76  L   288.95,   533.51  L   284.70,   537.76  " /><path style="stroke-width: 1.42 ;&st7;  " d=" M   293.20,   534.36  L   288.95,   530.11  L   284.70,   534.36  " /><text style="&st18;" transform="matrix(&st16;  273.22  526.42 )">11</text></g><g ewd:figtype="gp" ewd:figID="104" ewd:code="GC"><path style="stroke-width: 0.85 ;&st7;  " d=" M   365.44,   697.25  L   365.44,   701.50  " /><path style="stroke-width: 0.85 ;&st7;  " d=" M   356.94,   701.50  L   373.94,   701.50  " /><path style="stroke-width: 0.85 ;&st7;  " d=" M   361.19,   704.33  L   369.69,   704.33  " /><path style="stroke-width: 0.85 ;&st7;  " d=" M   362.61,   707.17  L   368.27,   707.17  " /><path style="stroke-width: 0.85 ;&st7;  " d=" M   364.02,   710.00  L   366.86,   710.00  " /></g></svg>