﻿<?xml version="1.0" encoding="utf-8"?>
<!DOCTYPE svg PUBLIC "-//W3C//DTD SVG 1.0//EN" "http://www.w3.org/TR/2001/REC-SVG-20010904/DTD/svg10.dtd"[
	<!ENTITY ns_flows "http://ns.adobe.com/Flows/1.0/">
	<!ENTITY ns_svg "http://www.w3.org/2000/svg">
	<!ENTITY ns_xlink "http://www.w3.org/1999/xlink">
	<!ENTITY st0 "font-size:7px;font-family:'MS-PGothic';adobe-font-script:japanese;">
	<!ENTITY st1 "font-size:6px;font-family:'ArialMT';">
	<!-- White fill  -->
	<!ENTITY st2 "fill:#FFFFFF;stroke:#000000; stroke-width:1.41;stroke-linecap:round;stroke-linejoin:round;">
	<!-- Yellow fill  -->
	<!ENTITY st3 "fill:#FFFFCC;stroke:#FFFFCC; stroke-width:0.1;stroke-linecap:round;stroke-linejoin:round;">
	<!-- Gray fill  -->
	<!ENTITY st4 "fill:#CCCCCC;stroke:#CCCCCC; stroke-width:0.1;stroke-linecap:round;stroke-linejoin:round;">
	<!-- Light-blue fill -->
	<!ENTITY st5 "fill:#CCECF4;stroke:#000000; stroke-width:1.133;stroke-linecap:round;stroke-linejoin:round;">
	<!ENTITY st6 "fill:none;stroke-linecap:butt; stroke-linejoin:round;">
	<!ENTITY st7 "fill:none;stroke:#000000;stroke-linecap:round;stroke-linejoin:round;">
	<!ENTITY st8 "enable-background:new    ;">
	<!-- Black fill -->
	<!ENTITY st9 "fill:#000000;stroke:#000000; stroke-linecap:round;stroke-linejoin:round;">
	<!-- SRS note   -->
	<!ENTITY st10 "font-size:9px;font-family:'ArialMT';">
	<!ENTITY st11 "font-size:9px;font-family:'Svg Symbol';">
	<!ENTITY st12 "font-size:6px;font-family:'Svg Symbol';">
	<!ENTITY st13 "fill:none;stroke:#ff0000;stroke-linecap:round;stroke-linejoin:round;">
	<!-- Yellow fill  -->
	<!ENTITY st14 "fill:#FFFF00;stroke:#FFFF00; stroke-width:0.1;stroke-linecap:round;stroke-linejoin:round;">
	<!ENTITY st15 "font-size:6px;font-family:'MS-PGothic';adobe-font-script:japanese;">
	<!ENTITY st16 "1.00 0.00 0.00 1.00">
	<!ENTITY st17 "0.00 -1.00 1.00 0.00">
	<!ENTITY st18 "font-size:6px;font-family:'Arial';">
	<!ENTITY st19 "font-size:9px;font-family:'Arial';">
	<!ENTITY st20 "font-size:6px;font-family:'MS-PGothic','MS PGothic';adobe-font-script:japanese;">
	<!ENTITY st21 "font-size:7px;font-family:'MS-PGothic','MS PGothic';adobe-font-script:japanese;">
	<!ATTLIST svg
		xmlns:ewd CDATA #FIXED "http://shcl.co.jp/ewd"
		xmlns:a CDATA #FIXED "http://ns.adobe.com/AdobeSVGViewerExtensions/3.0/"
		ewd:ver CDATA #IMPLIED
	>
	<!ATTLIST a
		ewd:lineID CDATA #IMPLIED
		ewd:groupID CDATA #IMPLIED
		ewd:figtype CDATA #IMPLIED
		ewd:code CDATA #IMPLIED
		ewd:figID CDATA #IMPLIED
		ewd:pinNo CDATA #IMPLIED
		ewd:comment CDATA #IMPLIED >
	<!ATTLIST g
		ewd:lineID CDATA #IMPLIED
		ewd:groupID CDATA #IMPLIED
		ewd:figtype CDATA #IMPLIED
		ewd:code CDATA #IMPLIED
		ewd:figID CDATA #IMPLIED
		ewd:pinNo CDATA #IMPLIED
		ewd:comment CDATA #IMPLIED >
	<!ATTLIST text
		ewd:textID CDATA #IMPLIED >
	<!ATTLIST title
		ewd:textID CDATA #IMPLIED >
]>
<!-- Generator: Shintec Hozumi YS   -->
<svg onload="call_execInitLoadProc_svg('system')" style="overflow:visible;  enable-background:new 0 0 875.879 710.000" viewBox="0 0 875.879 710.000" height="710.000" width="875.879" xml:space="preserve" ewd:ver="2.1.2.9" xmlns="&ns_svg;" xmlns:a="http://ns.adobe.com/AdobeSVGViewerExtensions/3.0/" xmlns:ewd="http://shcl.co.jp/ewd" xmlns:xlink="&ns_xlink;">
<text style="&st18;" transform="matrix(&st16;  489.95  380.52 )">W</text><text style="&st18;" transform="matrix(&st16;  488.64  397.52 )">LG</text><text style="&st18;" transform="matrix(&st17;  194.61  234.48 )" ewd:textID="1">(w/ VSC)</text><text style="&st18;" transform="matrix(&st17;  152.11  234.48 )" ewd:textID="1">(w/ VSC)</text><text style="&st18;" transform="matrix(&st17;  398.57  354.94 )">(*5)</text><text style="&st18;" transform="matrix(&st17;  356.08  354.94 )">(*5)</text><text style="&st18;" transform="matrix(&st17;  429.73  354.01 )">LG</text><text style="&st18;" transform="matrix(&st17;  41.63  490.99 )" ewd:textID="2">(w/o VSC)</text><text style="&st18;" transform="matrix(&st17;  30.3  479.39 )">B</text><text style="&st18;" transform="matrix(&st17;  84.12  490.99 )" ewd:textID="2">(w/o VSC)</text><text style="&st18;" transform="matrix(&st17;  72.79  480.17 )">W</text><text style="&st18;" transform="matrix(&st17;  152.11  489.44 )" ewd:textID="1">(w/ VSC)</text><text style="&st18;" transform="matrix(&st17;  140.78  479.39 )">B</text><text style="&st18;" transform="matrix(&st17;  194.61  489.44 )" ewd:textID="1">(w/ VSC)</text><text style="&st18;" transform="matrix(&st17;  183.27  480.17 )">W</text><text style="&st18;" transform="matrix(&st17;  472.22  352.69 )">W</text><text style="&st18;" transform="matrix(&st17;  183.27  352.69 )">W</text><text style="&st18;" transform="matrix(&st17;  140.78  351.92 )">B</text><text style="&st18;" transform="matrix(&st17;  387.24  352.69 )">W</text><text style="&st18;" transform="matrix(&st17;  344.75  354.05 )">GR</text><text style="&st18;" transform="matrix(&st17;  285.26  352.69 )">W</text><text style="&st18;" transform="matrix(&st17;  242.76  353.47 )">SB</text><text style="&st18;" transform="matrix(&st17;  387.24  225.21 )">W</text><text style="&st18;" transform="matrix(&st17;  344.75  224.44 )">Y</text><text style="&st18;" transform="matrix(&st17;  285.26  225.21 )">W</text><text style="&st18;" transform="matrix(&st17;  242.76  224.32 )">L</text><text style="&st18;" transform="matrix(&st17;  183.27  225.21 )">W</text><text style="&st18;" transform="matrix(&st17;  140.78  226.3 )">BE</text><path style="stroke-width: 1.42 ;&st7;  " d=" M   178.47,   392.72  L   186.97,   392.72  " /><path style="stroke-width: 1.42 ;&st7;  " d=" M   135.98,   392.72  L   144.48,   392.72  " /><g ewd:figtype="conn" ewd:figID="2" ewd:code="G33"><path style="stroke-width: 1.42 ;&st7;  " d=" M   331.44,   452.21  L   331.44,   409.72  L   407.93,   409.72  L   407.93,   452.21  L   331.44,   452.21  " /><g ewd:lineID="13"><text style="&st18;" transform="matrix(&st16;  339.16  406.03 )">11</text><text style="&st18;" transform="matrix(&st16;  342.65  417.35 )">TX+</text></g><g ewd:lineID="15"><text style="&st18;" transform="matrix(&st16;  381.65  406.03 )">12</text><text style="&st18;" transform="matrix(&st16;  385.14  417.35 )">TX-</text></g><g ewd:figtype="title"><text style="&st18;" transform="matrix(&st16;  328.03  459.82 )">G33</text><text style="&st18;" transform="matrix(&st16;  328.04  466.93 )" ewd:textID="7">A/C Amplifier Assembly</text></g></g><g ewd:figtype="conn" ewd:figID="3" ewd:code="G9"><path style="stroke-width: 1.42 ;&st7;  " d=" M   229.46,   452.21  L   229.46,   409.72  L   305.95,   409.72  L   305.95,   452.21  L   229.46,   452.21  " /><g ewd:lineID="11"><text style="&st18;" transform="matrix(&st16;  277.16  407.15 )">35</text><text style="&st18;" transform="matrix(&st16;  286.65  407.15 )">A</text><path style="stroke-width: 1.42 ;&st7;   " d=" M   293.48,   405.18  C   293.48    402.68    291.45    400.65    288.95    400.65  " /><path style="stroke-width: 1.42 ;&st7;   " d=" M   288.95,   400.65  C   286.45    400.65    284.42    402.68    284.42    405.18  " /><path style="stroke-width: 1.42 ;&st7;   " d=" M   284.42,   405.18  C   284.42    407.69    286.45    409.72    288.95    409.72  " /><path style="stroke-width: 1.42 ;&st7;   " d=" M   288.95,   409.72  C   291.45    409.72    293.48    407.69    293.48    405.18  " /><text style="&st18;" transform="matrix(&st16;  280.6  417.35 )">CANL</text></g><g ewd:lineID="9"><text style="&st18;" transform="matrix(&st16;  234.66  407.15 )">36</text><text style="&st18;" transform="matrix(&st16;  244.15  407.15 )">A</text><path style="stroke-width: 1.42 ;&st7;   " d=" M   250.99,   405.18  C   250.99    402.68    248.96    400.65    246.46    400.65  " /><path style="stroke-width: 1.42 ;&st7;   " d=" M   246.46,   400.65  C   243.96    400.65    241.93    402.68    241.93    405.18  " /><path style="stroke-width: 1.42 ;&st7;   " d=" M   241.93,   405.18  C   241.93    407.69    243.96    409.72    246.46    409.72  " /><path style="stroke-width: 1.42 ;&st7;   " d=" M   246.46,   409.72  C   248.96    409.72    250.99    407.69    250.99    405.18  " /><text style="&st18;" transform="matrix(&st16;  237.68  417.35 )">CANH</text></g><g ewd:figtype="title"><text style="&st18;" transform="matrix(&st16;  226.06  466.93 )" ewd:textID="11">Combination <tspan x="0 " dy="6.0">Meter Assembly</tspan></text><text style="&st18;" transform="matrix(&st16;  226.05  459.82 )">G9(A)</text></g></g><g ewd:figtype="conn" ewd:figID="4" ewd:code="A4"><path style="stroke-width: 1.42 ;&st7;  " d=" M   127.48,   562.69  L   127.48,   520.20  L   203.97,   520.20  L   203.97,   562.69  L   127.48,   562.69  " /><g ewd:lineID="3"><text style="&st18;" transform="matrix(&st16;  135.19  516.51 )">22</text><text style="&st18;" transform="matrix(&st16;  135.7  527.83 )">CANH</text></g><g ewd:lineID="6"><text style="&st18;" transform="matrix(&st16;  177.68  516.51 )">10</text><text style="&st18;" transform="matrix(&st16;  178.62  527.83 )">CANL</text></g><g ewd:figtype="title"><text style="&st18;" transform="matrix(&st16;  124.07  570.3 )">A4</text><text style="&st18;" transform="matrix(&st16;  124.07  577.41 )" ewd:textID="9">Brake Actuator Assembly</text></g></g><g ewd:figtype="conn" ewd:figID="5" ewd:code="A3"><path style="stroke-width: 1.42 ;&st7;  " d=" M    17.00,   562.69  L    17.00,   520.20  L    93.48,   520.20  L    93.48,   562.69  L    17.00,   562.69  " /><g ewd:lineID="1"><text style="&st18;" transform="matrix(&st16;  24.71  516.51 )">25</text><text style="&st18;" transform="matrix(&st16;  25.21  527.83 )">CANH</text></g><g ewd:lineID="2"><text style="&st18;" transform="matrix(&st16;  67.2  516.51 )">14</text><text style="&st18;" transform="matrix(&st16;  68.13  527.83 )">CANL</text></g><g ewd:figtype="title"><text style="&st18;" transform="matrix(&st16;  13.58  570.3 )">A3</text><text style="&st18;" transform="matrix(&st16;  13.59  577.41 )" ewd:textID="9">Brake Actuator Assembly</text></g></g><g ewd:figtype="conn" ewd:figID="6" ewd:code="G21"><path style="stroke-width: 1.42 ;&st7;  " d=" M   127.48,   180.26  L   203.97,   180.26  L   203.97,   137.76  L   127.48,   137.76  L   127.48,   180.26  " /><g ewd:lineID="5"><text style="&st18;" transform="matrix(&st16;  138.29  188.45 )">3</text><text style="&st18;" transform="matrix(&st16;  135.7  176.56 )">CANH</text></g><g ewd:lineID="8"><text style="&st18;" transform="matrix(&st16;  180.78  188.45 )">2</text><text style="&st18;" transform="matrix(&st16;  178.62  176.56 )">CANL</text></g><g ewd:figtype="title"><text style="&st18;" transform="matrix(&st16;  124.07  122.17 )" ewd:textID="15">Steering Sensor <tspan x="0 " dy="6.0">(Spiral Cable with </tspan><tspan x="0 " dy="6.0"> Sensor Sub-Assembly)</tspan></text><text style="&st18;" transform="matrix(&st16;  124.07  115.34 )">G21</text></g></g><g ewd:figtype="conn" ewd:figID="7" ewd:code="G8"><path style="stroke-width: 1.42 ;&st7;  " d=" M   229.46,   180.26  L   305.95,   180.26  L   305.95,   137.76  L   229.46,   137.76  L   229.46,   180.26  " /><g ewd:lineID="10"><text style="&st18;" transform="matrix(&st16;  240.27  188.45 )">6</text><text style="&st18;" transform="matrix(&st16;  237.68  176.56 )">CANH</text></g><g ewd:lineID="12"><text style="&st18;" transform="matrix(&st16;  279.67  188.45 )">14</text><text style="&st18;" transform="matrix(&st16;  280.6  176.56 )">CANL</text></g><g ewd:figtype="title"><text style="&st18;" transform="matrix(&st16;  226.05  127.24 )">G8</text><text style="&st18;" transform="matrix(&st16;  226.06  134.07 )">DLC3</text></g></g><g ewd:figtype="conn" ewd:figID="8" ewd:code="G67"><path style="stroke-width: 0.85 ;&st7;  " d=" M   288.95,   282.24  L   288.95,   307.73  " /><path style="stroke-width: 0.85 ;&st7;  " d=" M   347.25,   298.23  L   346.98,   298.70  L   346.88,   299.24  L   346.98,   299.77  L   347.25,   300.24  L   347.66,   300.58  L   348.17,   300.77  L   348.71,   300.77  L   349.22,   300.58  L   349.63,   300.24  L   349.91,   299.77  L   350.00,   299.24  L   349.91,   298.70  L   349.63,   298.23  L   349.22,   297.89  L   348.71,   297.70  L   348.17,   297.70  L   347.66,   297.89  L   347.25,   298.23  L   347.64,   298.94  L   347.64,   299.53  L   348.02,   299.97  L   348.59,   300.07  L   349.09,   299.78  L   349.29,   299.24  L   349.09,   298.69  L   348.59,   298.40  L   348.02,   298.50  L   348.44,   299.24  " /><path style="stroke-width: 0.85 ;&st7;  " d=" M   245.27,   298.23  L   244.99,   298.70  L   244.90,   299.24  L   244.99,   299.77  L   245.27,   300.24  L   245.68,   300.58  L   246.19,   300.77  L   246.73,   300.77  L   247.24,   300.58  L   247.65,   300.24  L   247.92,   299.77  L   248.02,   299.24  L   247.92,   298.70  L   247.65,   298.23  L   247.24,   297.89  L   246.73,   297.70  L   246.19,   297.70  L   245.68,   297.89  L   245.27,   298.23  L   245.66,   298.94  L   245.66,   299.53  L   246.03,   299.97  L   246.61,   300.07  L   247.11,   299.78  L   247.31,   299.24  L   247.11,   298.69  L   246.61,   298.40  L   246.03,   298.50  L   246.46,   299.24  " /><path style="stroke-width: 0.85 ;&st7;  " d=" M   143.28,   298.23  L   143.01,   298.70  L   142.92,   299.24  L   143.01,   299.77  L   143.28,   300.24  L   143.70,   300.58  L   144.20,   300.77  L   144.75,   300.77  L   145.25,   300.58  L   145.67,   300.24  L   145.94,   299.77  L   146.03,   299.24  L   145.94,   298.70  L   145.67,   298.23  L   145.25,   297.89  L   144.75,   297.70  L   144.20,   297.70  L   143.70,   297.89  L   143.28,   298.23  L   143.68,   298.94  L   143.68,   299.53  L   144.05,   299.97  L   144.62,   300.07  L   145.13,   299.78  L   145.33,   299.24  L   145.13,   298.69  L   144.62,   298.40  L   144.05,   298.50  L   144.48,   299.24  " /><path style="stroke-width: 0.85 ;&st7;  " d=" M   389.74,   289.73  L   389.47,   290.20  L   389.38,   290.74  L   389.47,   291.27  L   389.74,   291.74  L   390.16,   292.09  L   390.66,   292.27  L   391.21,   292.27  L   391.71,   292.09  L   392.13,   291.74  L   392.40,   291.27  L   392.49,   290.74  L   392.40,   290.20  L   392.13,   289.73  L   391.71,   289.39  L   391.21,   289.20  L   390.66,   289.20  L   390.16,   289.39  L   389.74,   289.73  L   390.14,   290.45  L   390.14,   291.03  L   390.51,   291.47  L   391.08,   291.57  L   391.59,   291.28  L   391.78,   290.74  L   391.59,   290.19  L   391.08,   289.90  L   390.51,   290.00  L   390.93,   290.74  " /><path style="stroke-width: 0.85 ;&st7;  " d=" M   287.76,   289.73  L   287.49,   290.20  L   287.39,   290.74  L   287.49,   291.27  L   287.76,   291.74  L   288.17,   292.09  L   288.68,   292.27  L   289.22,   292.27  L   289.73,   292.09  L   290.14,   291.74  L   290.42,   291.27  L   290.51,   290.74  L   290.42,   290.20  L   290.14,   289.73  L   289.73,   289.39  L   289.22,   289.20  L   288.68,   289.20  L   288.17,   289.39  L   287.76,   289.73  L   288.15,   290.45  L   288.15,   291.03  L   288.53,   291.47  L   289.10,   291.57  L   289.60,   291.28  L   289.80,   290.74  L   289.60,   290.19  L   289.10,   289.90  L   288.53,   290.00  L   288.95,   290.74  " /><path style="stroke-width: 0.85 ;&st7;  " d=" M   185.78,   289.73  L   185.50,   290.20  L   185.41,   290.74  L   185.50,   291.27  L   185.78,   291.74  L   186.19,   292.09  L   186.70,   292.27  L   187.24,   292.27  L   187.75,   292.09  L   188.16,   291.74  L   188.43,   291.27  L   188.53,   290.74  L   188.43,   290.20  L   188.16,   289.73  L   187.75,   289.39  L   187.24,   289.20  L   186.70,   289.20  L   186.19,   289.39  L   185.78,   289.73  L   186.17,   290.45  L   186.17,   291.03  L   186.54,   291.47  L   187.12,   291.57  L   187.62,   291.28  L   187.82,   290.74  L   187.62,   290.19  L   187.12,   289.90  L   186.54,   290.00  L   186.97,   290.74  " /><path style="stroke-width: 0.85 ;&st7;  " d=" M   144.48,   299.24  L   433.43,   299.24  L   433.43,   307.73  " /><path style="stroke-width: 0.85 ;&st7;  " d=" M   186.97,   290.74  L   475.92,   290.74  L   475.92,   307.73  " /><path style="stroke-width: 0.85 ;&st7;  " d=" M   390.93,   282.24  L   390.93,   307.73  " /><path style="stroke-width: 0.85 ;&st7;  " d=" M   348.44,   282.24  L   348.44,   307.73  " /><path style="stroke-width: 0.85 ;&st7;  " d=" M   144.48,   282.24  L   144.48,   307.73  " /><path style="stroke-width: 0.85 ;&st7;  " d=" M   186.97,   282.24  L   186.97,   307.73  " /><path style="stroke-width: 0.85 ;&st7;  " d=" M   246.46,   282.24  L   246.46,   307.73  " /><path style="stroke-width: 1.42 ;&st7;  " d=" M   135.98,   282.24  L   135.98,   307.73  L   484.42,   307.73  L   484.42,   282.24  L   135.98,   282.24  " /><text style="&st18;" transform="matrix(&st16;  240.27  278.55 )">4</text><text style="&st18;" transform="matrix(&st16;  279.67  315.93 )">15</text><text style="&st18;" transform="matrix(&st16;  279.67  278.55 )">14</text><text style="&st18;" transform="matrix(&st16;  339.16  315.93 )">10</text><text style="&st18;" transform="matrix(&st16;  342.26  278.55 )">2</text><text style="&st18;" transform="matrix(&st16;  381.65  315.93 )">20</text><text style="&st18;" transform="matrix(&st16;  381.65  278.55 )">12</text><text style="&st18;" transform="matrix(&st16;  466.63  315.93 )">16</text><text style="&st18;" transform="matrix(&st16;  427.24  315.93 )">6</text><text style="&st18;" transform="matrix(&st16;  138.29  315.93 )">1</text><text style="&st18;" transform="matrix(&st16;  138.29  278.55 )">3</text><text style="&st18;" transform="matrix(&st16;  177.68  315.93 )">11</text><text style="&st18;" transform="matrix(&st16;  177.68  278.55 )">13</text><text style="&st18;" transform="matrix(&st16;  240.27  315.93 )">5</text><g ewd:figtype="title"><text style="&st18;" transform="matrix(&st17;  492.31  310.63 )">G67</text><text style="&st18;" transform="matrix(&st17;  499.14  310.64 )" ewd:textID="12">No. 1 CAN <tspan x="0 " dy="6.0">Junction Connector</tspan></text></g></g><g ewd:figtype="conn" ewd:figID="9" ewd:code="G42"><path style="stroke-width: 1.42 ;&st7;  " d=" M   331.44,   180.26  L   407.93,   180.26  L   407.93,   137.76  L   331.44,   137.76  L   331.44,   180.26  " /><g ewd:lineID="14"><text style="&st18;" transform="matrix(&st16;  336.65  186.76 )">13</text><path style="stroke-width: 1.42 ;&st7;   " d=" M   352.97,   184.79  C   352.97    182.28    350.95    180.26    348.44    180.26  " /><path style="stroke-width: 1.42 ;&st7;   " d=" M   348.44,   180.26  C   345.94    180.26    343.91    182.28    343.91    184.79  " /><path style="stroke-width: 1.42 ;&st7;   " d=" M   343.91,   184.79  C   343.91    187.29    345.94    189.32    348.44    189.32  " /><path style="stroke-width: 1.42 ;&st7;   " d=" M   348.44,   189.32  C   350.95    189.32    352.97    187.29    352.97    184.79  " /><text style="&st18;" transform="matrix(&st16;  346.14  186.76 )">A</text><text style="&st18;" transform="matrix(&st16;  339.66  176.56 )">CANH</text></g><g ewd:lineID="16"><text style="&st18;" transform="matrix(&st16;  379.14  186.76 )">22</text><path style="stroke-width: 1.42 ;&st7;   " d=" M   395.47,   184.79  C   395.47    182.28    393.44    180.26    390.93    180.26  " /><path style="stroke-width: 1.42 ;&st7;   " d=" M   390.93,   180.26  C   388.43    180.26    386.40    182.28    386.40    184.79  " /><path style="stroke-width: 1.42 ;&st7;   " d=" M   386.40,   184.79  C   386.40    187.29    388.43    189.32    390.93    189.32  " /><path style="stroke-width: 1.42 ;&st7;   " d=" M   390.93,   189.32  C   393.44    189.32    395.47    187.29    395.47    184.79  " /><text style="&st18;" transform="matrix(&st16;  388.63  186.76 )">A</text><text style="&st18;" transform="matrix(&st16;  382.58  176.56 )">CANL</text></g><g ewd:figtype="title"><text style="&st18;" transform="matrix(&st16;  328.03  127.24 )">G42(A)</text><text style="&st18;" transform="matrix(&st16;  328.04  134.07 )" ewd:textID="8">Airbag Sensor Assembly</text></g></g><g ewd:figtype="w2w" ewd:figID="15" ewd:code="AG1"><text style="&st18;" transform="matrix(&st16;  128.74  398.94 )">20</text><path style="stroke-width: 1.42 ;&st7;  " d=" M   148.73,   387.05  L   144.48,   391.30  L   140.23,   387.05  " /><path style="stroke-width: 1.42 ;&st7;  " d=" M   140.23,   383.65  L   144.48,   387.90  L   148.73,   383.65  " /></g><g ewd:figtype="w2w" ewd:figID="16" ewd:code="AG1"><text style="&st18;" transform="matrix(&st16;  171.24  398.94 )">21</text><path style="stroke-width: 1.42 ;&st7;  " d=" M   191.22,   387.05  L   186.97,   391.30  L   182.72,   387.05  " /><path style="stroke-width: 1.42 ;&st7;  " d=" M   182.72,   383.65  L   186.97,   387.90  L   191.22,   383.65  " /></g></svg>