﻿<?xml version="1.0" encoding="utf-8"?>
<!DOCTYPE svg PUBLIC "-//W3C//DTD SVG 1.0//EN" "http://www.w3.org/TR/2001/REC-SVG-20010904/DTD/svg10.dtd"[
	<!ENTITY ns_flows "http://ns.adobe.com/Flows/1.0/">
	<!ENTITY ns_svg "http://www.w3.org/2000/svg">
	<!ENTITY ns_xlink "http://www.w3.org/1999/xlink">
	<!ENTITY st0 "font-size:7px;font-family:'MS-PGothic';adobe-font-script:japanese;">
	<!ENTITY st1 "font-size:6px;font-family:'ArialMT';">
	<!-- White fill  -->
	<!ENTITY st2 "fill:#FFFFFF;stroke:#000000; stroke-width:1.41;stroke-linecap:round;stroke-linejoin:round;">
	<!-- Yellow fill  -->
	<!ENTITY st3 "fill:#FFFFCC;stroke:#FFFFCC; stroke-width:0.1;stroke-linecap:round;stroke-linejoin:round;">
	<!-- Gray fill  -->
	<!ENTITY st4 "fill:#CCCCCC;stroke:#CCCCCC; stroke-width:0.1;stroke-linecap:round;stroke-linejoin:round;">
	<!-- Light-blue fill -->
	<!ENTITY st5 "fill:#CCECF4;stroke:#000000; stroke-width:1.133;stroke-linecap:round;stroke-linejoin:round;">
	<!ENTITY st6 "fill:none;stroke-linecap:butt; stroke-linejoin:round;">
	<!ENTITY st7 "fill:none;stroke:#000000;stroke-linecap:round;stroke-linejoin:round;">
	<!ENTITY st8 "enable-background:new    ;">
	<!-- Black fill -->
	<!ENTITY st9 "fill:#000000;stroke:#000000; stroke-linecap:round;stroke-linejoin:round;">
	<!-- SRS note   -->
	<!ENTITY st10 "font-size:9px;font-family:'ArialMT';">
	<!ENTITY st11 "font-size:9px;font-family:'Svg Symbol';">
	<!ENTITY st12 "font-size:6px;font-family:'Svg Symbol';">
	<!ENTITY st13 "fill:none;stroke:#ff0000;stroke-linecap:round;stroke-linejoin:round;">
	<!-- Yellow fill  -->
	<!ENTITY st14 "fill:#FFFF00;stroke:#FFFF00; stroke-width:0.1;stroke-linecap:round;stroke-linejoin:round;">
	<!ENTITY st15 "font-size:6px;font-family:'MS-PGothic';adobe-font-script:japanese;">
	<!ENTITY st16 "1.00 0.00 0.00 1.00">
	<!ENTITY st17 "0.00 -1.00 1.00 0.00">
	<!ENTITY st18 "font-size:6px;font-family:'Arial';">
	<!ENTITY st19 "font-size:9px;font-family:'Arial';">
	<!ENTITY st20 "font-size:6px;font-family:'MS-PGothic','MS PGothic';adobe-font-script:japanese;">
	<!ENTITY st21 "font-size:7px;font-family:'MS-PGothic','MS PGothic';adobe-font-script:japanese;">
	<!ATTLIST svg
		xmlns:ewd CDATA #FIXED "http://shcl.co.jp/ewd"
		xmlns:a CDATA #FIXED "http://ns.adobe.com/AdobeSVGViewerExtensions/3.0/"
		ewd:ver CDATA #IMPLIED
	>
	<!ATTLIST a
		ewd:lineID CDATA #IMPLIED
		ewd:groupID CDATA #IMPLIED
		ewd:figtype CDATA #IMPLIED
		ewd:code CDATA #IMPLIED
		ewd:figID CDATA #IMPLIED
		ewd:pinNo CDATA #IMPLIED
		ewd:comment CDATA #IMPLIED >
	<!ATTLIST g
		ewd:lineID CDATA #IMPLIED
		ewd:groupID CDATA #IMPLIED
		ewd:figtype CDATA #IMPLIED
		ewd:code CDATA #IMPLIED
		ewd:figID CDATA #IMPLIED
		ewd:pinNo CDATA #IMPLIED
		ewd:comment CDATA #IMPLIED >
	<!ATTLIST text
		ewd:textID CDATA #IMPLIED >
	<!ATTLIST title
		ewd:textID CDATA #IMPLIED >
]>
<!-- Generator: Shintec Hozumi YS   -->
<svg onload="call_execInitLoadProc_svg('system')" style="overflow:visible;  enable-background:new 0 0 1020.355 710.000" viewBox="0 0 1020.355 710.000" height="710.000" width="1020.355" xml:space="preserve" ewd:ver="2.1.2.9" xmlns="&ns_svg;" xmlns:a="http://ns.adobe.com/AdobeSVGViewerExtensions/3.0/" xmlns:ewd="http://shcl.co.jp/ewd" xmlns:xlink="&ns_xlink;">
<text style="&st18;" transform="matrix(&st17;  608.2  405.0 )">LG</text><text style="&st18;" transform="matrix(&st17;  565.71  403.68 )">W</text><text style="&st18;" transform="matrix(&st16;  540.95  431.52 )">W</text><text style="&st18;" transform="matrix(&st16;  539.63  457.01 )">LG</text><text style="&st18;" transform="matrix(&st17;  939.65  300.85 )">R</text><text style="&st18;" transform="matrix(&st17;  982.14  301.7 )">W</text><text style="&st18;" transform="matrix(&st17;  939.65  232.86 )">R</text><text style="&st18;" transform="matrix(&st17;  982.14  233.71 )">W</text><text style="&st18;" transform="matrix(&st17;  684.69  403.18 )">G</text><text style="&st18;" transform="matrix(&st17;  744.18  403.68 )">W</text><text style="&st18;" transform="matrix(&st17;  939.65  403.02 )">V</text><text style="&st18;" transform="matrix(&st17;  982.14  403.68 )">W</text><text style="&st18;" transform="matrix(&st17;  696.02  405.93 )">(*3)</text><text style="&st18;" transform="matrix(&st17;  755.51  405.93 )">(*3)</text><text style="&st18;" transform="matrix(&st17;  950.98  239.26 )">(4WD)</text><text style="&st18;" transform="matrix(&st17;  993.47  239.26 )">(4WD)</text><text style="&st18;" transform="matrix(&st17;  993.47  307.24 )">(4WD)</text><text style="&st18;" transform="matrix(&st17;  950.98  307.24 )">(4WD)</text><text style="&st18;" transform="matrix(&st17;  874.49  405.93 )">(*5)</text><text style="&st18;" transform="matrix(&st17;  684.69  300.92 )">B</text><text style="&st18;" transform="matrix(&st17;  744.18  301.7 )">W</text><text style="&st18;" transform="matrix(&st17;  684.69  156.72 )">G</text><text style="&st18;" transform="matrix(&st17;  696.02  165.95 )">(*9 A/T)</text><text style="&st18;" transform="matrix(&st17;  744.18  156.56 )">V</text><text style="&st18;" transform="matrix(&st17;  755.51  165.95 )">(*9 A/T)</text><text style="&st18;" transform="matrix(&st17;  820.67  405.04 )">GR</text><text style="&st18;" transform="matrix(&st17;  863.16  403.68 )">W</text><text style="&st18;" transform="matrix(&st17;  832.0  405.93 )">(*5)</text><path style="stroke-width: 1.42 ;&st7;  " d=" M   994.33,   265.24  L   985.84,   265.24  " /><path style="stroke-width: 1.42 ;&st7;  " d=" M   951.84,   265.24  L   943.34,   265.24  " /><text style="&st18;" transform="matrix(&st17;  950.98  411.52 )">(*7,*10)</text><text style="&st18;" transform="matrix(&st17;  993.47  411.52 )">(*7,*10)</text><g ewd:figtype="conn" ewd:figID="3" ewd:code="G68"><path style="stroke-width: 0.85 ;&st7;  " d=" M   823.17,   349.22  L   822.90,   349.69  L   822.80,   350.23  L   822.90,   350.76  L   823.17,   351.23  L   823.58,   351.58  L   824.09,   351.76  L   824.63,   351.76  L   825.14,   351.58  L   825.55,   351.23  L   825.83,   350.76  L   825.92,   350.23  L   825.83,   349.69  L   825.55,   349.22  L   825.14,   348.88  L   824.63,   348.69  L   824.09,   348.69  L   823.58,   348.88  L   823.17,   349.22  L   823.56,   349.94  L   823.56,   350.52  L   823.94,   350.96  L   824.51,   351.06  L   825.01,   350.77  L   825.21,   350.23  L   825.01,   349.68  L   824.51,   349.39  L   823.94,   349.49  L   824.36,   350.23  " /><path style="stroke-width: 0.85 ;&st7;  " d=" M   865.66,   340.73  L   865.39,   341.20  L   865.30,   341.73  L   865.39,   342.26  L   865.66,   342.73  L   866.08,   343.08  L   866.58,   343.26  L   867.13,   343.26  L   867.63,   343.08  L   868.05,   342.73  L   868.32,   342.26  L   868.41,   341.73  L   868.32,   341.20  L   868.05,   340.73  L   867.63,   340.38  L   867.13,   340.19  L   866.58,   340.19  L   866.08,   340.38  L   865.66,   340.73  L   866.06,   341.44  L   866.06,   342.02  L   866.43,   342.46  L   867.00,   342.56  L   867.51,   342.28  L   867.70,   341.73  L   867.51,   341.18  L   867.00,   340.89  L   866.43,   340.99  L   866.85,   341.73  " /><path style="stroke-width: 1.42 ;&st7;  " d=" M   560.91,   333.23  L   560.91,   358.73  L   994.33,   358.73  L   994.33,   333.23  L   560.91,   333.23  " /><path style="stroke-width: 0.85 ;&st7;  " d=" M   688.38,   333.23  L   688.38,   358.73  " /><path style="stroke-width: 0.85 ;&st7;  " d=" M   747.87,   333.23  L   747.87,   358.73  " /><path style="stroke-width: 0.85 ;&st7;  " d=" M   746.68,   340.73  L   746.41,   341.20  L   746.32,   341.73  L   746.41,   342.26  L   746.68,   342.73  L   747.10,   343.08  L   747.60,   343.26  L   748.15,   343.26  L   748.65,   343.08  L   749.07,   342.73  L   749.34,   342.26  L   749.43,   341.73  L   749.34,   341.20  L   749.07,   340.73  L   748.65,   340.38  L   748.15,   340.19  L   747.60,   340.19  L   747.10,   340.38  L   746.68,   340.73  L   747.08,   341.44  L   747.08,   342.02  L   747.45,   342.46  L   748.02,   342.56  L   748.53,   342.28  L   748.72,   341.73  L   748.53,   341.18  L   748.02,   340.89  L   747.45,   340.99  L   747.87,   341.73  " /><path style="stroke-width: 0.85 ;&st7;  " d=" M   687.19,   349.22  L   686.92,   349.69  L   686.83,   350.23  L   686.92,   350.76  L   687.19,   351.23  L   687.61,   351.58  L   688.11,   351.76  L   688.66,   351.76  L   689.16,   351.58  L   689.58,   351.23  L   689.85,   350.76  L   689.94,   350.23  L   689.85,   349.69  L   689.58,   349.22  L   689.16,   348.88  L   688.66,   348.69  L   688.11,   348.69  L   687.61,   348.88  L   687.19,   349.22  L   687.59,   349.94  L   687.59,   350.52  L   687.96,   350.96  L   688.53,   351.06  L   689.04,   350.77  L   689.23,   350.23  L   689.04,   349.68  L   688.53,   349.39  L   687.96,   349.49  L   688.38,   350.23  " /><path style="stroke-width: 0.85 ;&st7;  " d=" M   943.34,   333.23  L   943.34,   358.73  " /><path style="stroke-width: 0.85 ;&st7;  " d=" M   985.83,   333.23  L   985.83,   358.73  " /><path style="stroke-width: 0.85 ;&st7;  " d=" M   984.64,   340.73  L   984.37,   341.20  L   984.28,   341.73  L   984.37,   342.26  L   984.64,   342.73  L   985.06,   343.08  L   985.56,   343.26  L   986.11,   343.26  L   986.61,   343.08  L   987.03,   342.73  L   987.30,   342.26  L   987.39,   341.73  L   987.30,   341.20  L   987.03,   340.73  L   986.61,   340.38  L   986.11,   340.19  L   985.56,   340.19  L   985.06,   340.38  L   984.64,   340.73  L   985.04,   341.44  L   985.04,   342.02  L   985.41,   342.46  L   985.98,   342.56  L   986.49,   342.28  L   986.68,   341.73  L   986.49,   341.18  L   985.98,   340.89  L   985.41,   340.99  L   985.83,   341.73  " /><path style="stroke-width: 0.85 ;&st7;  " d=" M   942.15,   349.22  L   941.88,   349.69  L   941.78,   350.23  L   941.88,   350.76  L   942.15,   351.23  L   942.56,   351.58  L   943.07,   351.76  L   943.61,   351.76  L   944.12,   351.58  L   944.53,   351.23  L   944.81,   350.76  L   944.90,   350.23  L   944.81,   349.69  L   944.53,   349.22  L   944.12,   348.88  L   943.61,   348.69  L   943.07,   348.69  L   942.56,   348.88  L   942.15,   349.22  L   942.54,   349.94  L   942.54,   350.52  L   942.92,   350.96  L   943.49,   351.06  L   943.99,   350.77  L   944.19,   350.23  L   943.99,   349.68  L   943.49,   349.39  L   942.92,   349.49  L   943.34,   350.23  " /><path style="stroke-width: 0.85 ;&st7;  " d=" M   943.34,   350.23  L   611.90,   350.23  L   611.90,   358.73  " /><path style="stroke-width: 0.85 ;&st7;  " d=" M   985.83,   341.73  L   569.40,   341.73  L   569.40,   358.73  " /><path style="stroke-width: 0.85 ;&st7;  " d=" M   824.36,   350.23  L   824.36,   358.73  " /><path style="stroke-width: 0.85 ;&st7;  " d=" M   866.85,   341.73  L   866.85,   358.73  " /><text style="&st18;" transform="matrix(&st16;  560.12  366.92 )">16</text><text style="&st18;" transform="matrix(&st16;  605.71  366.92 )">6</text><text style="&st18;" transform="matrix(&st16;  682.2  366.92 )">3</text><text style="&st18;" transform="matrix(&st16;  682.2  329.54 )">5</text><text style="&st18;" transform="matrix(&st16;  738.59  366.92 )">13</text><text style="&st18;" transform="matrix(&st16;  738.59  329.54 )">15</text><text style="&st18;" transform="matrix(&st16;  815.08  366.92 )">10</text><text style="&st18;" transform="matrix(&st16;  857.57  366.92 )">20</text><text style="&st18;" transform="matrix(&st16;  937.16  366.92 )">7</text><text style="&st18;" transform="matrix(&st16;  937.16  329.54 )">4</text><text style="&st18;" transform="matrix(&st16;  976.55  366.92 )">17</text><text style="&st18;" transform="matrix(&st16;  976.55  329.54 )">14</text><g ewd:figtype="title"><text style="&st18;" transform="matrix(&st17;  1009.05  361.63 )" ewd:textID="18">No. 2 CAN <tspan x="0 " dy="6.0">Junction Connector</tspan></text><text style="&st18;" transform="matrix(&st17;  1002.23  361.62 )">G68</text></g></g><g ewd:figtype="conn" ewd:figID="4" ewd:code="G70"><path style="stroke-width: 1.42 ;&st7;  " d=" M   671.39,   503.20  L   671.39,   460.71  L   764.87,   460.71  L   764.87,   503.20  L   671.39,   503.20  " /><g ewd:lineID="19"><text style="&st18;" transform="matrix(&st16;  676.59  458.14 )">40</text><path style="stroke-width: 1.42 ;&st7;   " d=" M   692.92,   456.18  C   692.92    453.67    690.89    451.64    688.38    451.64  " /><path style="stroke-width: 1.42 ;&st7;   " d=" M   688.38,   451.64  C   685.88    451.64    683.85    453.67    683.85    456.18  " /><path style="stroke-width: 1.42 ;&st7;   " d=" M   683.85,   456.18  C   683.85    458.68    685.88    460.71    688.38    460.71  " /><path style="stroke-width: 1.42 ;&st7;   " d=" M   688.38,   460.71  C   690.89    460.71    692.92    458.68    692.92    456.18  " /><text style="&st18;" transform="matrix(&st16;  686.2  458.14 )">B</text><text style="&st18;" transform="matrix(&st16;  679.61  468.34 )">CANH</text></g><g ewd:lineID="22"><text style="&st18;" transform="matrix(&st16;  736.08  458.14 )">18</text><path style="stroke-width: 1.42 ;&st7;   " d=" M   752.41,   456.18  C   752.41    453.67    750.38    451.64    747.88    451.64  " /><path style="stroke-width: 1.42 ;&st7;   " d=" M   747.88,   451.64  C   745.37    451.64    743.34    453.67    743.34    456.18  " /><path style="stroke-width: 1.42 ;&st7;   " d=" M   743.34,   456.18  C   743.34    458.68    745.37    460.71    747.88    460.71  " /><path style="stroke-width: 1.42 ;&st7;   " d=" M   747.88,   460.71  C   750.38    460.71    752.41    458.68    752.41    456.18  " /><text style="&st18;" transform="matrix(&st16;  745.69  458.14 )">B</text><text style="&st18;" transform="matrix(&st16;  739.52  468.34 )">CANL</text></g><g ewd:figtype="title"><text style="&st18;" transform="matrix(&st16;  667.98  517.92 )" ewd:textID="12">Certification ECU</text><text style="&st18;" transform="matrix(&st16;  667.98  510.81 )">G70(B)</text></g></g><g ewd:figtype="conn" ewd:figID="9" ewd:code="C39"><path style="stroke-width: 1.42 ;&st7;  " d=" M   926.34,   197.25  L  1002.83,   197.25  L  1002.83,   154.76  L   926.34,   154.76  L   926.34,   197.25  " /><g ewd:lineID="29"><text style="&st18;" transform="matrix(&st16;  931.55  203.75 )">20</text><text style="&st18;" transform="matrix(&st16;  941.04  203.75 )">A</text><path style="stroke-width: 1.42 ;&st7;   " d=" M   947.87,   201.78  C   947.87    199.28    945.85    197.25    943.34    197.25  " /><path style="stroke-width: 1.42 ;&st7;   " d=" M   943.34,   197.25  C   940.84    197.25    938.81    199.28    938.81    201.78  " /><path style="stroke-width: 1.42 ;&st7;   " d=" M   938.81,   201.78  C   938.81    204.29    940.84    206.32    943.34    206.32  " /><path style="stroke-width: 1.42 ;&st7;   " d=" M   943.34,   206.32  C   945.85    206.32    947.87    204.29    947.87    201.78  " /><text style="&st18;" transform="matrix(&st16;  934.56  193.56 )">CANH</text></g><g ewd:lineID="32"><text style="&st18;" transform="matrix(&st16;  974.04  203.75 )">40</text><text style="&st18;" transform="matrix(&st16;  983.53  203.75 )">A</text><path style="stroke-width: 1.42 ;&st7;   " d=" M   990.37,   201.78  C   990.37    199.28    988.34    197.25    985.84    197.25  " /><path style="stroke-width: 1.42 ;&st7;   " d=" M   985.84,   197.25  C   983.33    197.25    981.30    199.28    981.30    201.78  " /><path style="stroke-width: 1.42 ;&st7;   " d=" M   981.30,   201.78  C   981.30    204.29    983.33    206.32    985.84    206.32  " /><path style="stroke-width: 1.42 ;&st7;   " d=" M   985.84,   206.32  C   988.34    206.32    990.37    204.29    990.37    201.78  " /><text style="&st18;" transform="matrix(&st16;  977.48  193.56 )">CANL</text></g><g ewd:figtype="title"><text style="&st18;" transform="matrix(&st16;  922.93  144.24 )">C39(A)</text><text style="&st18;" transform="matrix(&st16;  922.94  151.06 )" ewd:textID="8">4WD Control ECU</text></g></g><g ewd:figtype="conn" ewd:figID="10" ewd:code="G33"><path style="stroke-width: 1.42 ;&st7;  " d=" M   807.36,   503.20  L   807.36,   460.71  L   883.85,   460.71  L   883.85,   503.20  L   807.36,   503.20  " /><g ewd:lineID="25"><text style="&st18;" transform="matrix(&st16;  815.08  457.02 )">11</text><text style="&st18;" transform="matrix(&st16;  818.57  468.34 )">TX+</text></g><g ewd:lineID="26"><text style="&st18;" transform="matrix(&st16;  857.57  457.02 )">12</text><text style="&st18;" transform="matrix(&st16;  861.06  468.34 )">TX-</text></g><g ewd:figtype="title"><text style="&st18;" transform="matrix(&st16;  803.96  517.92 )" ewd:textID="9">A/C Amplifier Assembly</text><text style="&st18;" transform="matrix(&st16;  803.95  510.81 )">G33</text></g></g><g ewd:figtype="conn" ewd:figID="11" ewd:code="G37-A,G116-I"><path style="stroke-width: 0.85 ;&st7; stroke-dasharray:3, 1.5;" d=" M   951.84,   447.11  L   968.84,   447.11  " /><path style="stroke-width: 0.85 ;&st7; stroke-dasharray:3, 1.5;" d=" M   951.84,   456.18  L   968.84,   456.18  " /><path style="stroke-width: 1.42 ;&st7;  " d=" M   926.34,   503.20  L   926.34,   460.71  L  1002.83,   460.71  L  1002.83,   503.20  L   926.34,   503.20  " /><g ewd:lineID="27"><text style="&st18;" transform="matrix(&st16;  934.65  449.08 )">9</text><text style="&st18;" transform="matrix(&st16;  934.65  458.14 )">9</text><text style="&st18;" transform="matrix(&st16;  942.2  458.14 )">I</text><path style="stroke-width: 1.42 ;&st7;   " d=" M   947.87,   456.18  C   947.87    453.67    945.85    451.64    943.34    451.64  " /><path style="stroke-width: 1.42 ;&st7;   " d=" M   943.34,   451.64  C   940.84    451.64    938.81    453.67    938.81    456.18  " /><path style="stroke-width: 1.42 ;&st7;   " d=" M   938.81,   456.18  C   938.81    458.68    940.84    460.71    943.34    460.71  " /><path style="stroke-width: 1.42 ;&st7;   " d=" M   943.34,   460.71  C   945.85    460.71    947.87    458.68    947.87    456.18  " /><path style="stroke-width: 1.42 ;&st7;   " d=" M   947.87,   447.11  C   947.87    444.61    945.85    442.58    943.34    442.58  " /><path style="stroke-width: 1.42 ;&st7;   " d=" M   943.34,   442.58  C   940.84    442.58    938.81    444.61    938.81    447.11  " /><path style="stroke-width: 1.42 ;&st7;   " d=" M   938.81,   447.11  C   938.81    449.61    940.84    451.64    943.34    451.64  " /><path style="stroke-width: 1.42 ;&st7;   " d=" M   943.34,   451.64  C   945.85    451.64    947.87    449.61    947.87    447.11  " /><text style="&st18;" transform="matrix(&st16;  941.04  449.08 )">A</text><text style="&st18;" transform="matrix(&st16;  934.56  468.34 )">CANH</text></g><g ewd:lineID="30"><text style="&st18;" transform="matrix(&st16;  974.04  458.14 )">10</text><text style="&st18;" transform="matrix(&st16;  974.04  449.08 )">10</text><text style="&st18;" transform="matrix(&st16;  983.53  449.08 )">A</text><path style="stroke-width: 1.42 ;&st7;   " d=" M   990.37,   447.11  C   990.37    444.61    988.34    442.58    985.84    442.58  " /><path style="stroke-width: 1.42 ;&st7;   " d=" M   985.84,   442.58  C   983.33    442.58    981.30    444.61    981.30    447.11  " /><path style="stroke-width: 1.42 ;&st7;   " d=" M   981.30,   447.11  C   981.30    449.61    983.33    451.64    985.84    451.64  " /><path style="stroke-width: 1.42 ;&st7;   " d=" M   985.84,   451.64  C   988.34    451.64    990.37    449.61    990.37    447.11  " /><path style="stroke-width: 1.42 ;&st7;   " d=" M   990.37,   456.18  C   990.37    453.67    988.34    451.64    985.84    451.64  " /><path style="stroke-width: 1.42 ;&st7;   " d=" M   985.84,   451.64  C   983.33    451.64    981.30    453.67    981.30    456.18  " /><path style="stroke-width: 1.42 ;&st7;   " d=" M   981.30,   456.18  C   981.30    458.68    983.33    460.71    985.84    460.71  " /><path style="stroke-width: 1.42 ;&st7;   " d=" M   985.84,   460.71  C   988.34    460.71    990.37    458.68    990.37    456.18  " /><text style="&st18;" transform="matrix(&st16;  984.69  458.14 )">I</text><text style="&st18;" transform="matrix(&st16;  977.48  468.34 )">CANL</text></g><g ewd:figtype="title"><text style="&st18;" transform="matrix(&st16;  922.94  517.92 )" ewd:textID="19">Radio &amp; Display <tspan x="0 " dy="6.0">Receiver Assembly</tspan></text><text style="&st18;" transform="matrix(&st16;  922.93  510.81 )">G37(A)</text><text style="&st18;" transform="matrix(&st16;  922.94  538.03 )" ewd:textID="15">Navigation Receiver <tspan x="0 " dy="6.0">Assembly</tspan></text><text style="&st18;" transform="matrix(&st16;  922.93  530.93 )">G116(I)</text></g></g><g ewd:figtype="conn" ewd:figID="14" ewd:code="G90"><path style="stroke-width: 1.42 ;&st7;  " d=" M   671.39,   120.77  L   764.87,   120.77  L   764.87,    78.27  L   671.39,    78.27  L   671.39,   120.77  " /><g ewd:lineID="21"><text style="&st18;" transform="matrix(&st16;  679.1  128.96 )">21</text><text style="&st18;" transform="matrix(&st16;  680.3  117.07 )">CAN+</text></g><g ewd:lineID="24"><text style="&st18;" transform="matrix(&st16;  738.59  128.96 )">20</text><text style="&st18;" transform="matrix(&st16;  739.79  117.07 )">CAN-</text></g><g ewd:figtype="title"><text style="&st18;" transform="matrix(&st16;  667.98  74.58 )" ewd:textID="21">Transmission Control ECU Assembly</text><text style="&st18;" transform="matrix(&st16;  667.98  67.75 )">G90</text></g></g><g ewd:figtype="conn" ewd:figID="15" ewd:code="G45,G83,G85"><path style="stroke-width: 0.85 ;&st7; stroke-dasharray:3, 1.5;" d=" M   696.88,   253.91  L   730.88,   253.91  " /><path style="stroke-width: 0.85 ;&st7; stroke-dasharray:3, 1.5;" d=" M   696.88,   235.78  L   730.88,   235.78  " /><path style="stroke-width: 0.85 ;&st7; stroke-dasharray:3, 1.5;" d=" M   730.88,   244.84  L   696.88,   244.84  " /><path style="stroke-width: 1.42 ;&st7;  " d=" M   671.39,   231.25  L   764.87,   231.25  L   764.87,   188.75  L   671.39,   188.75  L   671.39,   231.25  " /><g ewd:lineID="20"><text style="&st18;" transform="matrix(&st16;  676.59  237.75 )">13</text><text style="&st18;" transform="matrix(&st16;  676.59  246.81 )">24</text><text style="&st18;" transform="matrix(&st16;  676.59  255.88 )">17</text><path style="stroke-width: 1.42 ;&st7;   " d=" M   692.92,   244.84  C   692.92    242.34    690.89    240.31    688.38    240.31  " /><path style="stroke-width: 1.42 ;&st7;   " d=" M   688.38,   240.31  C   685.88    240.31    683.85    242.34    683.85    244.84  " /><path style="stroke-width: 1.42 ;&st7;   " d=" M   683.85,   244.84  C   683.85    247.35    685.88    249.38    688.38    249.38  " /><path style="stroke-width: 1.42 ;&st7;   " d=" M   688.38,   249.38  C   690.89    249.38    692.92    247.35    692.92    244.84  " /><text style="&st18;" transform="matrix(&st16;  685.96  246.81 )">C</text><path style="stroke-width: 1.42 ;&st7;   " d=" M   692.92,   235.78  C   692.92    233.28    690.89    231.25    688.38    231.25  " /><path style="stroke-width: 1.42 ;&st7;   " d=" M   688.38,   231.25  C   685.88    231.25    683.85    233.28    683.85    235.78  " /><path style="stroke-width: 1.42 ;&st7;   " d=" M   683.85,   235.78  C   683.85    238.28    685.88    240.31    688.38    240.31  " /><path style="stroke-width: 1.42 ;&st7;   " d=" M   688.38,   240.31  C   690.89    240.31    692.92    238.28    692.92    235.78  " /><text style="&st18;" transform="matrix(&st16;  686.27  255.88 )">E</text><text style="&st18;" transform="matrix(&st16;  686.0  237.75 )">D</text><path style="stroke-width: 1.42 ;&st7;   " d=" M   692.92,   253.91  C   692.92    251.41    690.89    249.38    688.38    249.38  " /><path style="stroke-width: 1.42 ;&st7;   " d=" M   688.38,   249.38  C   685.88    249.38    683.85    251.41    683.85    253.91  " /><path style="stroke-width: 1.42 ;&st7;   " d=" M   683.85,   253.91  C   683.85    256.41    685.88    258.44    688.38    258.44  " /><path style="stroke-width: 1.42 ;&st7;   " d=" M   688.38,   258.44  C   690.89    258.44    692.92    256.41    692.92    253.91  " /><text style="&st18;" transform="matrix(&st16;  679.61  227.55 )">CANH</text></g><g ewd:lineID="21"><text style="&st18;" transform="matrix(&st16;  676.59  186.19 )">22</text><path style="stroke-width: 1.42 ;&st7;   " d=" M   692.92,   184.22  C   692.92    181.72    690.89    179.69    688.38    179.69  " /><path style="stroke-width: 1.42 ;&st7;   " d=" M   688.38,   179.69  C   685.88    179.69    683.85    181.72    683.85    184.22  " /><path style="stroke-width: 1.42 ;&st7;   " d=" M   683.85,   184.22  C   683.85    186.72    685.88    188.75    688.38    188.75  " /><path style="stroke-width: 1.42 ;&st7;   " d=" M   688.38,   188.75  C   690.89    188.75    692.92    186.72    692.92    184.22  " /><text style="&st18;" transform="matrix(&st16;  685.96  186.19 )">C</text><text style="&st18;" transform="matrix(&st16;  680.3  196.39 )">CAN+</text></g><g ewd:lineID="23"><text style="&st18;" transform="matrix(&st16;  736.08  237.75 )">14</text><text style="&st18;" transform="matrix(&st16;  736.08  246.81 )">23</text><text style="&st18;" transform="matrix(&st16;  736.08  255.88 )">28</text><path style="stroke-width: 1.42 ;&st7;   " d=" M   752.41,   235.78  C   752.41    233.28    750.38    231.25    747.88    231.25  " /><path style="stroke-width: 1.42 ;&st7;   " d=" M   747.88,   231.25  C   745.37    231.25    743.34    233.28    743.34    235.78  " /><path style="stroke-width: 1.42 ;&st7;   " d=" M   743.34,   235.78  C   743.34    238.28    745.37    240.31    747.88    240.31  " /><path style="stroke-width: 1.42 ;&st7;   " d=" M   747.88,   240.31  C   750.38    240.31    752.41    238.28    752.41    235.78  " /><text style="&st18;" transform="matrix(&st16;  745.76  255.88 )">E</text><text style="&st18;" transform="matrix(&st16;  745.49  237.75 )">D</text><path style="stroke-width: 1.42 ;&st7;   " d=" M   752.41,   253.91  C   752.41    251.41    750.38    249.38    747.88    249.38  " /><path style="stroke-width: 1.42 ;&st7;   " d=" M   747.88,   249.38  C   745.37    249.38    743.34    251.41    743.34    253.91  " /><path style="stroke-width: 1.42 ;&st7;   " d=" M   743.34,   253.91  C   743.34    256.41    745.37    258.44    747.88    258.44  " /><path style="stroke-width: 1.42 ;&st7;   " d=" M   747.88,   258.44  C   750.38    258.44    752.41    256.41    752.41    253.91  " /><text style="&st18;" transform="matrix(&st16;  745.45  246.81 )">C</text><path style="stroke-width: 1.42 ;&st7;   " d=" M   752.41,   244.84  C   752.41    242.34    750.38    240.31    747.88    240.31  " /><path style="stroke-width: 1.42 ;&st7;   " d=" M   747.88,   240.31  C   745.37    240.31    743.34    242.34    743.34    244.84  " /><path style="stroke-width: 1.42 ;&st7;   " d=" M   743.34,   244.84  C   743.34    247.35    745.37    249.38    747.88    249.38  " /><path style="stroke-width: 1.42 ;&st7;   " d=" M   747.88,   249.38  C   750.38    249.38    752.41    247.35    752.41    244.84  " /><text style="&st18;" transform="matrix(&st16;  739.52  227.55 )">CANL</text></g><g ewd:lineID="24"><text style="&st18;" transform="matrix(&st16;  736.08  186.19 )">21</text><path style="stroke-width: 1.42 ;&st7;   " d=" M   752.41,   184.22  C   752.41    181.72    750.38    179.69    747.88    179.69  " /><path style="stroke-width: 1.42 ;&st7;   " d=" M   747.88,   179.69  C   745.37    179.69    743.34    181.72    743.34    184.22  " /><path style="stroke-width: 1.42 ;&st7;   " d=" M   743.34,   184.22  C   743.34    186.72    745.37    188.75    747.88    188.75  " /><path style="stroke-width: 1.42 ;&st7;   " d=" M   747.88,   188.75  C   750.38    188.75    752.41    186.72    752.41    184.22  " /><text style="&st18;" transform="matrix(&st16;  745.45  186.19 )">C</text><text style="&st18;" transform="matrix(&st16;  739.79  196.39 )">CAN-</text></g><g ewd:figtype="title"><text style="&st18;" transform="matrix(&st17;  779.59  225.65 )">ECM</text><text style="&st18;" transform="matrix(&st17;  772.77  225.65 )">G45(D),G83(C),G85(E)</text></g></g><g ewd:figtype="w2w" ewd:figID="18" ewd:code="CG3"><text style="&st18;" transform="matrix(&st16;  927.61  262.96 )">11</text><path style="stroke-width: 1.42 ;&st7;  " d=" M   947.59,   274.31  L   943.34,   270.06  L   939.09,   274.31  " /><path style="stroke-width: 1.42 ;&st7;  " d=" M   947.59,   270.91  L   943.34,   266.66  L   939.09,   270.91  " /></g><g ewd:figtype="w2w" ewd:figID="19" ewd:code="CG3"><text style="&st18;" transform="matrix(&st16;  970.1  262.96 )">10</text><path style="stroke-width: 1.42 ;&st7;  " d=" M   990.08,   274.31  L   985.83,   270.06  L   981.59,   274.31  " /><path style="stroke-width: 1.42 ;&st7;  " d=" M   990.08,   270.91  L   985.83,   266.66  L   981.59,   270.91  " /></g><g ewd:code="" ewd:figID="29" ewd:comment="10" ewd:figtype="commref"><text style="&st18;" transform="matrix(&st16;  990.93  458.14 )">(*10)</text></g><g ewd:code="" ewd:figID="30" ewd:comment="7" ewd:figtype="commref"><text style="&st18;" transform="matrix(&st16;  990.93  449.08 )">(*7)</text></g><g ewd:code="" ewd:figID="32" ewd:comment="8" ewd:figtype="commref"><text style="&st18;" transform="matrix(&st16;  752.97  246.81 )">(*8)</text></g><g ewd:code="" ewd:figID="33" ewd:comment="1,12" ewd:figtype="commref"><text style="&st18;" transform="matrix(&st16;  752.97  237.75 )">(*1,*12)</text></g><g ewd:code="" ewd:figID="34" ewd:comment="2" ewd:figtype="commref"><text style="&st18;" transform="matrix(&st16;  752.97  255.88 )">(*2)</text></g><g ewd:code="10" ewd:figID="31" ewd:comment="" ewd:figtype="comment"><text style="&st18;" transform="matrix(&st16;  820.96  658.14 )" ewd:textID="7">*10 :Navigation Receiver Type</text></g><g ewd:code="2" ewd:figID="21" ewd:comment="" ewd:figtype="comment"><text style="&st18;" transform="matrix(&st16;  820.96  598.65 )">* 2 :1GD-FTV, 2GD-FTV</text></g><g ewd:code="3" ewd:figID="23" ewd:comment="" ewd:figtype="comment"><text style="&st18;" transform="matrix(&st16;  820.96  607.15 )" ewd:textID="3">* 3 :w/ Smart Entry &amp; Start System</text></g><g ewd:code="8" ewd:figID="24" ewd:comment="" ewd:figtype="comment"><text style="&st18;" transform="matrix(&st16;  820.96  641.15 )">* 8 :1KD-FTV, 2KD-FTV</text></g><g ewd:code="9" ewd:figID="27" ewd:comment="" ewd:figtype="comment"><text style="&st18;" transform="matrix(&st16;  820.96  649.65 )">* 9 :1KD-FTV</text></g><g ewd:code="7" ewd:figID="20" ewd:comment="" ewd:figtype="comment"><text style="&st18;" transform="matrix(&st16;  820.96  632.65 )" ewd:textID="6">* 7 :Radio &amp; Display Receiver Type</text></g><g ewd:code="12" ewd:figID="26" ewd:comment="" ewd:figtype="comment"><text style="&st18;" transform="matrix(&st16;  820.96  666.64 )">*12 :2TR-FBE</text></g><g ewd:code="1" ewd:figID="22" ewd:comment="" ewd:figtype="comment"><text style="&st18;" transform="matrix(&st16;  820.96  590.16 )">* 1 :2TR-FE</text></g><g ewd:code="4" ewd:figID="28" ewd:comment="" ewd:figtype="comment"><text style="&st18;" transform="matrix(&st16;  820.96  615.65 )" ewd:textID="4">* 4 :w/ Headlight Beam Level Control (Automatic)</text></g><g ewd:code="5" ewd:figID="25" ewd:comment="" ewd:figtype="comment"><text style="&st18;" transform="matrix(&st16;  820.96  624.15 )" ewd:textID="5">* 5 :Automatic A/C</text></g></svg>