﻿<?xml version="1.0" encoding="utf-8"?>
<!DOCTYPE svg PUBLIC "-//W3C//DTD SVG 1.0//EN" "http://www.w3.org/TR/2001/REC-SVG-20010904/DTD/svg10.dtd"[
	<!ENTITY ns_flows "http://ns.adobe.com/Flows/1.0/">
	<!ENTITY ns_svg "http://www.w3.org/2000/svg">
	<!ENTITY ns_xlink "http://www.w3.org/1999/xlink">
	<!ENTITY st0 "font-size:7px;font-family:'MS-PGothic';adobe-font-script:japanese;">
	<!ENTITY st1 "font-size:6px;font-family:'ArialMT';">
	<!-- White fill  -->
	<!ENTITY st2 "fill:#FFFFFF;stroke:#000000; stroke-width:1.41;stroke-linecap:round;stroke-linejoin:round;">
	<!-- Yellow fill  -->
	<!ENTITY st3 "fill:#FFFFCC;stroke:#FFFFCC; stroke-width:0.1;stroke-linecap:round;stroke-linejoin:round;">
	<!-- Gray fill  -->
	<!ENTITY st4 "fill:#CCCCCC;stroke:#CCCCCC; stroke-width:0.1;stroke-linecap:round;stroke-linejoin:round;">
	<!-- Light-blue fill -->
	<!ENTITY st5 "fill:#CCECF4;stroke:#000000; stroke-width:1.133;stroke-linecap:round;stroke-linejoin:round;">
	<!ENTITY st6 "fill:none;stroke-linecap:butt; stroke-linejoin:round;">
	<!ENTITY st7 "fill:none;stroke:#000000;stroke-linecap:round;stroke-linejoin:round;">
	<!ENTITY st8 "enable-background:new    ;">
	<!-- Black fill -->
	<!ENTITY st9 "fill:#000000;stroke:#000000; stroke-linecap:round;stroke-linejoin:round;">
	<!-- SRS note   -->
	<!ENTITY st10 "font-size:9px;font-family:'ArialMT';">
	<!ENTITY st11 "font-size:9px;font-family:'Svg Symbol';">
	<!ENTITY st12 "font-size:6px;font-family:'Svg Symbol';">
	<!ENTITY st13 "fill:none;stroke:#ff0000;stroke-linecap:round;stroke-linejoin:round;">
	<!-- Yellow fill  -->
	<!ENTITY st14 "fill:#FFFF00;stroke:#FFFF00; stroke-width:0.1;stroke-linecap:round;stroke-linejoin:round;">
	<!ENTITY st15 "font-size:6px;font-family:'MS-PGothic';adobe-font-script:japanese;">
	<!ENTITY st16 "1.00 0.00 0.00 1.00">
	<!ENTITY st17 "0.00 -1.00 1.00 0.00">
	<!ENTITY st18 "font-size:6px;font-family:'Arial';">
	<!ENTITY st19 "font-size:9px;font-family:'Arial';">
	<!ENTITY st20 "font-size:6px;font-family:'MS-PGothic','MS PGothic';adobe-font-script:japanese;">
	<!ENTITY st21 "font-size:7px;font-family:'MS-PGothic','MS PGothic';adobe-font-script:japanese;">
	<!ATTLIST svg
		xmlns:ewd CDATA #FIXED "http://shcl.co.jp/ewd"
		xmlns:a CDATA #FIXED "http://ns.adobe.com/AdobeSVGViewerExtensions/3.0/"
		ewd:ver CDATA #IMPLIED
	>
	<!ATTLIST a
		ewd:lineID CDATA #IMPLIED
		ewd:groupID CDATA #IMPLIED
		ewd:figtype CDATA #IMPLIED
		ewd:code CDATA #IMPLIED
		ewd:figID CDATA #IMPLIED
		ewd:pinNo CDATA #IMPLIED
		ewd:comment CDATA #IMPLIED >
	<!ATTLIST g
		ewd:lineID CDATA #IMPLIED
		ewd:groupID CDATA #IMPLIED
		ewd:figtype CDATA #IMPLIED
		ewd:code CDATA #IMPLIED
		ewd:figID CDATA #IMPLIED
		ewd:pinNo CDATA #IMPLIED
		ewd:comment CDATA #IMPLIED >
	<!ATTLIST text
		ewd:textID CDATA #IMPLIED >
	<!ATTLIST title
		ewd:textID CDATA #IMPLIED >
]>
<!-- Generator: Shintec Hozumi YS   -->
<svg onload="call_execInitLoadProc_svg('system')" style="overflow:visible;  enable-background:new 0 0 425.637 710.000" viewBox="0 0 425.637 710.000" height="710.000" width="425.637" xml:space="preserve" ewd:ver="2.1.2.9" xmlns="&ns_svg;" xmlns:a="http://ns.adobe.com/AdobeSVGViewerExtensions/3.0/" xmlns:ewd="http://shcl.co.jp/ewd" xmlns:xlink="&ns_xlink;"><script type="text/javascript" xlink:href="../../../../../system/js/ewd/fig/svgfig.js" xmlns:xlink="http://www.w3.org/1999/xlink" />
<g id="ewd_top"><a ewd:figtype="rb" style="cursor:pointer;" ewd:code="FUSE21" ewd:figID="1"><path style="fill:#CCECF4;stroke:#000000; stroke-width:0; stroke-linecap:round;stroke-linejoin:round; " d=" M   182.72,    35.78  L   182.72,    78.27  L   208.22,    78.27  L   208.22,    35.78  L   182.72,    35.78 " /></a><a ewd:figtype="conn" style="cursor:pointer;" ewd:code="N28" ewd:figID="2"><path style="fill:#CCECF4;stroke:#000000; stroke-width:1.133; stroke-linecap:round;stroke-linejoin:round; " d=" M   314.45,   154.76  L   331.44,   154.76  L   331.44,   171.76  L   314.45,   171.76  L   314.45,   154.76 " /><title ewd:textID="2">No. 47 Junction Connector</title></a><a ewd:figtype="rb" style="cursor:pointer;" ewd:code="6" ewd:figID="3"><path style="fill:#CCECF4;stroke:#000000; stroke-width:0; stroke-linecap:round;stroke-linejoin:round; " d=" M   229.46,   256.74  L   186.97,   256.74  L   186.97,   290.74  L   229.46,   290.74  L   229.46,   256.74 " /></a><a ewd:figtype="conn" style="cursor:pointer;" ewd:code="N34" ewd:figID="4"><path style="fill:#CCECF4;stroke:#000000; stroke-width:1.133; stroke-linecap:round;stroke-linejoin:round; " d=" M   178.47,   392.72  L   178.47,   435.21  L   339.94,   435.21  L   339.94,   392.72  L   178.47,   392.72 " /><title ewd:textID="4">Voltage Inverter Assembly</title></a><a ewd:figtype="conn" style="cursor:pointer;" ewd:code="N7" ewd:figID="5"><path style="fill:#CCECF4;stroke:#000000; stroke-width:1.133; stroke-linecap:round;stroke-linejoin:round; " d=" M   263.46,   503.20  L   263.46,   545.69  L   339.94,   545.69  L   339.94,   503.20  L   263.46,   503.20 " /><title ewd:textID="3">Power Outlet Socket</title></a><a ewd:figtype="jb" style="cursor:pointer;" ewd:code="2" ewd:figID="8"><path style="&st4; " d=" M   305.95,    35.78  L   305.95,   103.77  L   365.44,   103.77  L   365.44,    35.78  L   305.95,    35.78  " /></a><a ewd:figtype="fuse" style="cursor:pointer;" ewd:code="FUSE21" ewd:figID="13"><path style="&st7; stroke-width:0;" d=" M   182.72,    35.78  L   182.72,    78.27  L   208.22,    78.27  L   208.22,    35.78  L   182.72,    35.78 " /></a><a ewd:figtype="fuse" style="cursor:pointer;" ewd:code="FUSE50" ewd:figID="14"><path style="&st7; stroke-width:0;" d=" M   310.20,    35.78  L   310.20,    78.27  L   335.69,    78.27  L   335.69,    35.78  L   310.20,    35.78 " /></a><a style="cursor:pointer;" ewd:lineID="1"><path style="stroke:#000000;stroke-width: 5.10 ;&st6;" d=" M   195.47,   435.21  L   195.47,   681.67  " /><path style="stroke:#FFFFFF;stroke-width: 4.53 ;&st6;" d=" M   195.47,   435.21  L   195.47,   681.67  " /><path style="stroke:#000000;stroke-width: 1.13 ;&st6;" d=" M   195.47,   435.21  L   195.47,   681.67  " /></a><a style="cursor:pointer;" ewd:lineID="2"> d=" M   195.47,   324.73  L   195.47,   392.72 
	
		<path style="stroke:#000000;stroke-width: 5.10 ;&st6;" d=" M   195.47,   324.73  L   195.47,   392.72  " /><path style="stroke:#FFFFFF;stroke-width: 4.53 ;&st6;" d=" M   195.47,   324.73  L   195.47,   392.72  " /></a><a style="cursor:pointer;" ewd:lineID="3"><path style="stroke:#FF0000;stroke-width: 5.10 ;&st6;" d=" M   195.47,   169.49  L   195.47,   222.75  " /></a><a style="cursor:pointer;" ewd:lineID="4"><path style="stroke:#FF0000;stroke-width: 5.10 ;&st6;" d=" M   195.47,   103.77  L   195.47,   154.76  " /></a><a style="cursor:pointer;" ewd:lineID="5"><path style="stroke:#000000;stroke-width: 5.10 ;&st6;" d=" M   220.96,   324.73  L   220.96,   350.23  L   407.93,   350.23  " /><path style="stroke:#FFFFFF;stroke-width: 4.53 ;&st6;" d=" M   220.96,   324.73  L   220.96,   350.23  L   407.93,   350.23  " /><path style="stroke:#000000;stroke-width: 1.13 ;&st6;" d=" M   220.96,   324.73  L   220.96,   350.23  L   407.93,   350.23  " /></a><a style="cursor:pointer;" ewd:lineID="6"><path style="stroke:#000000;stroke-width: 5.10 ;&st6;" d=" M   280.45,   681.67  L   280.45,   673.17  L   288.95,   664.67  L   416.43,   664.67  L   416.43,   358.73  " /><path style="stroke:#FFFFFF;stroke-width: 4.53 ;&st6;" d=" M   280.45,   681.67  L   280.45,   673.17  L   288.95,   664.67  L   416.43,   664.67  L   416.43,   358.73  " /><path style="stroke:#000000;stroke-width: 1.13 ;&st6;" d=" M   280.45,   681.67  L   280.45,   673.17  L   288.95,   664.67  L   416.43,   664.67  L   416.43,   358.73  " /></a><a style="cursor:pointer;" ewd:lineID="7"><path style="stroke:#000000;stroke-width: 5.10 ;&st6;" d=" M   280.45,   545.69  L   280.45,   681.67  " /><path style="stroke:#FFFFFF;stroke-width: 4.53 ;&st6;" d=" M   280.45,   545.69  L   280.45,   681.67  " /><path style="stroke:#000000;stroke-width: 1.13 ;&st6;" d=" M   280.45,   545.69  L   280.45,   681.67  " /></a><a style="cursor:pointer;" ewd:lineID="8"><path style="stroke:#00A0C6;stroke-width: 5.10 ;&st6;" d=" M   280.45,   435.21  L   280.45,   503.20  " /></a><a style="cursor:pointer;" ewd:lineID="9"><path style="stroke:#FF0000;stroke-width: 5.10 ;&st6;" d=" M   322.95,   435.21  L   322.95,   503.20  " /></a><a style="cursor:pointer;" ewd:lineID="10"><path style="stroke:#008837;stroke-width: 5.10 ;&st6;" d=" M   322.95,   171.76  L   322.95,   197.25  L   220.96,   197.25  L   220.96,   222.75  " /></a><a style="cursor:pointer;" ewd:lineID="11"><path style="stroke:#008837;stroke-width: 5.10 ;&st6;" d=" M   322.95,   103.77  L   322.95,   154.76  " /></a><a ewd:figtype="w2w" style="cursor:pointer;" ewd:pinNo="12" ewd:code="AN1" ewd:figID="9"><path style="&st2;" d=" M   203.97,   154.76  L   186.97,   154.76  L   186.97,   163.26  L   203.97,   163.26  L   203.97,   154.76 " /><text style="&st8;" transform="matrix(&st16;  189.97  161.13 )"><tspan x="0" style="&st18;" y="0">AN1</tspan></text></a><a ewd:figtype="gp" style="cursor:pointer;" ewd:code="NC" ewd:figID="10"><path style="&st2;" d=" M   184.84,   681.67  L   206.09,   681.67  L   195.47,   697.25  L   184.84,   681.67 " /><text style="&st8;" transform="matrix(&st16;  191.37  689.46 )"><tspan x="0" style="&st18;" y="0">NC</tspan></text></a><a ewd:figtype="gp" style="cursor:pointer;" ewd:code="NA" ewd:figID="11"><path style="&st2;" d=" M   269.83,   681.67  L   291.08,   681.67  L   280.45,   697.25  L   269.83,   681.67 " /><text style="&st8;" transform="matrix(&st16;  276.47  689.46 )"><tspan x="0" style="&st18;" y="0">NA</tspan></text></a><a ewd:figtype="sp" style="cursor:pointer;" ewd:code="SP20" ewd:figID="12"><path style="&st2;" d=" M   412.18,   341.73  L   420.68,   341.73  L   424.93,   345.98  L   424.93,   354.48  L   420.68,   358.73  L   412.18,   358.73  L   407.93,   354.48  L   407.93,   345.98  L   412.18,   341.73 " /></a></g></svg>