﻿<?xml version="1.0" encoding="utf-8"?>
<!DOCTYPE svg PUBLIC "-//W3C//DTD SVG 1.0//EN" "http://www.w3.org/TR/2001/REC-SVG-20010904/DTD/svg10.dtd"[
	<!ENTITY ns_flows "http://ns.adobe.com/Flows/1.0/">
	<!ENTITY ns_svg "http://www.w3.org/2000/svg">
	<!ENTITY ns_xlink "http://www.w3.org/1999/xlink">
	<!ENTITY st0 "font-size:7px;font-family:'MS-PGothic';adobe-font-script:japanese;">
	<!ENTITY st1 "font-size:6px;font-family:'ArialMT';">
	<!-- White fill  -->
	<!ENTITY st2 "fill:#FFFFFF;stroke:#000000; stroke-width:1.41;stroke-linecap:round;stroke-linejoin:round;">
	<!-- Yellow fill  -->
	<!ENTITY st3 "fill:#FFFFCC;stroke:#FFFFCC; stroke-width:0.1;stroke-linecap:round;stroke-linejoin:round;">
	<!-- Gray fill  -->
	<!ENTITY st4 "fill:#CCCCCC;stroke:#CCCCCC; stroke-width:0.1;stroke-linecap:round;stroke-linejoin:round;">
	<!-- Light-blue fill -->
	<!ENTITY st5 "fill:#CCECF4;stroke:#000000; stroke-width:1.133;stroke-linecap:round;stroke-linejoin:round;">
	<!ENTITY st6 "fill:none;stroke-linecap:butt; stroke-linejoin:round;">
	<!ENTITY st7 "fill:none;stroke:#000000;stroke-linecap:round;stroke-linejoin:round;">
	<!ENTITY st8 "enable-background:new    ;">
	<!-- Black fill -->
	<!ENTITY st9 "fill:#000000;stroke:#000000; stroke-linecap:round;stroke-linejoin:round;">
	<!-- SRS note   -->
	<!ENTITY st10 "font-size:9px;font-family:'ArialMT';">
	<!ENTITY st11 "font-size:9px;font-family:'Svg Symbol';">
	<!ENTITY st12 "font-size:6px;font-family:'Svg Symbol';">
	<!ENTITY st13 "fill:none;stroke:#ff0000;stroke-linecap:round;stroke-linejoin:round;">
	<!-- Yellow fill  -->
	<!ENTITY st14 "fill:#FFFF00;stroke:#FFFF00; stroke-width:0.1;stroke-linecap:round;stroke-linejoin:round;">
	<!ENTITY st15 "font-size:6px;font-family:'MS-PGothic';adobe-font-script:japanese;">
	<!ENTITY st16 "1.00 0.00 0.00 1.00">
	<!ENTITY st17 "0.00 -1.00 1.00 0.00">
	<!ENTITY st18 "font-size:6px;font-family:'Arial';">
	<!ENTITY st19 "font-size:9px;font-family:'Arial';">
	<!ENTITY st20 "font-size:6px;font-family:'MS-PGothic','MS PGothic';adobe-font-script:japanese;">
	<!ENTITY st21 "font-size:7px;font-family:'MS-PGothic','MS PGothic';adobe-font-script:japanese;">
	<!ATTLIST svg
		xmlns:ewd CDATA #FIXED "http://shcl.co.jp/ewd"
		xmlns:a CDATA #FIXED "http://ns.adobe.com/AdobeSVGViewerExtensions/3.0/"
		ewd:ver CDATA #IMPLIED
	>
	<!ATTLIST a
		ewd:lineID CDATA #IMPLIED
		ewd:groupID CDATA #IMPLIED
		ewd:figtype CDATA #IMPLIED
		ewd:code CDATA #IMPLIED
		ewd:figID CDATA #IMPLIED
		ewd:pinNo CDATA #IMPLIED
		ewd:comment CDATA #IMPLIED >
	<!ATTLIST g
		ewd:lineID CDATA #IMPLIED
		ewd:groupID CDATA #IMPLIED
		ewd:figtype CDATA #IMPLIED
		ewd:code CDATA #IMPLIED
		ewd:figID CDATA #IMPLIED
		ewd:pinNo CDATA #IMPLIED
		ewd:comment CDATA #IMPLIED >
	<!ATTLIST text
		ewd:textID CDATA #IMPLIED >
	<!ATTLIST title
		ewd:textID CDATA #IMPLIED >
]>
<!-- Generator: Shintec Hozumi YS   -->
<svg onload="call_execInitLoadProc_svg('system')" style="overflow:visible;  enable-background:new 0 0 2516.288 710.000" viewBox="0 0 2516.288 710.000" height="710.000" width="2516.288" xml:space="preserve" ewd:ver="2.1.2.9" xmlns="&ns_svg;" xmlns:a="http://ns.adobe.com/AdobeSVGViewerExtensions/3.0/" xmlns:ewd="http://shcl.co.jp/ewd" xmlns:xlink="&ns_xlink;"><script type="text/javascript" xlink:href="../../../../../system/js/ewd/fig/svgfig.js" xmlns:xlink="http://www.w3.org/1999/xlink" />
<g id="ewd_top"><a ewd:figtype="conn" style="cursor:pointer;" ewd:code="N29" ewd:figID="1"><path style="fill:#CCECF4;stroke:#000000; stroke-width:1.133; stroke-linecap:round;stroke-linejoin:round; " d=" M  2005.66,   273.74  L  2022.66,   273.74  L  2022.66,   290.74  L  2005.66,   290.74  L  2005.66,   273.74 " /><title ewd:textID="16">No. 48 Junction Connector</title></a><a ewd:figtype="conn" style="cursor:pointer;" ewd:code="N28" ewd:figID="2"><path style="fill:#CCECF4;stroke:#000000; stroke-width:1.133; stroke-linecap:round;stroke-linejoin:round; " d=" M  2005.66,   375.72  L  2022.66,   375.72  L  2022.66,   392.72  L  2005.66,   392.72  L  2005.66,   375.72 " /><title ewd:textID="15">No. 47 Junction Connector</title></a><a ewd:figtype="conn" style="cursor:pointer;" ewd:code="N1" ewd:figID="3"><path style="fill:#CCECF4;stroke:#000000; stroke-width:1.133; stroke-linecap:round;stroke-linejoin:round; " d=" M  2337.11,   435.21  L  2337.11,   401.22  L  2320.11,   401.22  L  2320.11,   435.21  L  2337.11,   435.21 " /><title ewd:textID="8">Front Door Courtesy Light Switch Assembly RH</title></a><a ewd:figtype="conn" style="cursor:pointer;" ewd:code="G55" ewd:figID="4"><path style="fill:#CCECF4;stroke:#000000; stroke-width:1.133; stroke-linecap:round;stroke-linejoin:round; " d=" M  2320.11,   171.76  L  2337.11,   171.76  L  2337.11,   188.75  L  2320.11,   188.75  L  2320.11,   171.76 " /><title ewd:textID="13">No. 15 Junction Connector</title></a><a ewd:figtype="conn" style="cursor:pointer;" ewd:code="N2" ewd:figID="5"><path style="fill:#CCECF4;stroke:#000000; stroke-width:1.133; stroke-linecap:round;stroke-linejoin:round; " d=" M  2158.64,   435.21  L  2158.64,   401.22  L  2141.64,   401.22  L  2141.64,   435.21  L  2158.64,   435.21 " /><title ewd:textID="7">Front Door Courtesy Light Switch Assembly LH</title></a><a ewd:figtype="rb" style="cursor:pointer;" ewd:code="FUSE23" ewd:figID="6"><path style="fill:#CCECF4;stroke:#000000; stroke-width:0; stroke-linecap:round;stroke-linejoin:round; " d=" M  1627.48,    35.78  L  1627.48,    78.27  L  1652.97,    78.27  L  1652.97,    35.78  L  1627.48,    35.78 " /></a><a ewd:figtype="conn" style="cursor:pointer;" ewd:code="A45,A46" ewd:figID="7"><path style="fill:#CCECF4;stroke:#000000; stroke-width:1.133; stroke-linecap:round;stroke-linejoin:round; " d=" M  1716.71,   222.75  L  1733.71,   222.75  L  1733.71,   239.75  L  1716.71,   239.75  L  1716.71,   222.75 " /><title ewd:textID="12">No. 1 Junction Connector</title></a><a ewd:figtype="conn" style="cursor:pointer;" ewd:code="L3" ewd:figID="8"><path style="fill:#CCECF4;stroke:#000000; stroke-width:1.133; stroke-linecap:round;stroke-linejoin:round; " d=" M   803.12,   529.84  L   803.12,   529.84  L   803.12,   525.86  L   811.61,   525.86  L   811.62,   529.84  C   812.97    530.62    813.94    531.59    814.72    532.94  L   814.72,   532.94  C   817.07    537.01    815.68    542.21    811.62    544.56  L   811.61,   544.56  L   811.61,   548.53  L   803.12,   548.53  L   803.12,   544.56  C   801.76    543.77    800.79    542.80    800.00    541.44  L   800.00,   541.44  C   797.66    537.38    799.05    532.18    803.12    529.83 " /><title ewd:textID="20">Rear Power Window Regulator Motor Assembly RH</title></a><a ewd:figtype="conn" style="cursor:pointer;" ewd:code="M3" ewd:figID="9"><path style="fill:#CCECF4;stroke:#000000; stroke-width:1.133; stroke-linecap:round;stroke-linejoin:round; " d=" M   616.15,   529.84  L   616.15,   529.84  L   616.15,   525.86  L   624.65,   525.86  L   624.65,   529.84  C   626.00    530.62    626.97    531.59    627.76    532.94  L   627.76,   532.94  C   630.10    537.01    628.71    542.21    624.65    544.56  L   624.65,   544.56  L   624.65,   548.53  L   616.15,   548.53  L   616.15,   544.56  C   614.79    543.77    613.82    542.80    613.04    541.44  L   613.04,   541.44  C   610.69    537.38    612.08    532.18    616.15    529.83 " /><title ewd:textID="19">Rear Power Window Regulator Motor Assembly LH</title></a><a ewd:figtype="conn" style="cursor:pointer;" ewd:code="J2" ewd:figID="10"><path style="fill:#CCECF4;stroke:#000000; stroke-width:1.133; stroke-linecap:round;stroke-linejoin:round; " d=" M   395.18,   529.84  L   395.18,   529.84  L   395.18,   525.86  L   403.68,   525.86  L   403.69,   529.84  C   405.04    530.62    406.01    531.59    406.79    532.94  L   406.79,   532.94  C   409.14    537.01    407.75    542.21    403.69    544.56  L   403.68,   544.56  L   403.68,   548.53  L   395.18,   548.53  L   395.19,   544.56  C   393.83    543.77    392.86    542.80    392.07    541.44  L   392.07,   541.44  C   389.73    537.38    391.12    532.18    395.19    529.83 " /><title ewd:textID="10">Front Power Window Regulator Motor Assembly RH</title></a><a ewd:figtype="conn" style="cursor:pointer;" ewd:code="K5" ewd:figID="11"><path style="fill:#CCECF4;stroke:#000000; stroke-width:1.133; stroke-linecap:round;stroke-linejoin:round; " d=" M   101.98,    78.27  L   101.98,   112.27  L   977.34,   112.27  L   977.34,    78.27  L   101.98,    78.27 " /><title ewd:textID="18">Power Window Regulator Master Switch Assembly</title></a><a ewd:figtype="conn" style="cursor:pointer;" ewd:code="K9" ewd:figID="12"><path style="fill:#CCECF4;stroke:#000000; stroke-width:1.133; stroke-linecap:round;stroke-linejoin:round; " d=" M   152.97,   222.75  L   331.44,   222.75  L   331.44,   324.73  L   152.97,   324.73  L   152.97,   222.75 " /><title ewd:textID="9">Front Power Window Regulator Motor Assembly LH</title></a><a ewd:figtype="conn" style="cursor:pointer;" ewd:code="L5" ewd:figID="13"><path style="fill:#CCECF4;stroke:#000000; stroke-width:1.133; stroke-linecap:round;stroke-linejoin:round; " d=" M   781.87,   341.73  L   892.35,   341.73  L   892.35,   409.72  L   781.87,   409.72  L   781.87,   341.73 " /><title ewd:textID="22">Rear Power Window Regulator Switch Assembly RH</title></a><a ewd:figtype="conn" style="cursor:pointer;" ewd:code="M5" ewd:figID="14"><path style="fill:#CCECF4;stroke:#000000; stroke-width:1.133; stroke-linecap:round;stroke-linejoin:round; " d=" M   594.90,   341.73  L   705.38,   341.73  L   705.38,   409.72  L   594.90,   409.72  L   594.90,   341.73 " /><title ewd:textID="21">Rear Power Window Regulator Switch Assembly LH</title></a><a ewd:figtype="conn" style="cursor:pointer;" ewd:code="J5" ewd:figID="15"><path style="fill:#CCECF4;stroke:#000000; stroke-width:1.133; stroke-linecap:round;stroke-linejoin:round; " d=" M   373.94,   341.73  L   484.42,   341.73  L   484.42,   409.72  L   373.94,   409.72  L   373.94,   341.73 " /><title ewd:textID="11">Front Power Window Regulator Switch Assembly RH</title></a><a ewd:figtype="rb" style="cursor:pointer;" ewd:code="FUSE37" ewd:figID="16"><path style="fill:#CCECF4;stroke:#000000; stroke-width:0; stroke-linecap:round;stroke-linejoin:round; " d=" M  1236.54,    35.78  L  1236.54,    78.27  L  1262.04,    78.27  L  1262.04,    35.78  L  1236.54,    35.78 " /></a><a ewd:figtype="conn" style="cursor:pointer;" ewd:code="G27" ewd:figID="17"><path style="fill:#CCECF4;stroke:#000000; stroke-width:1.133; stroke-linecap:round;stroke-linejoin:round; " d=" M  1776.20,    35.78  L  1776.20,    86.77  L  2515.58,    86.77  L  2515.58,    35.78  L  1776.20,    35.78 " /><title ewd:textID="4">Body ECU</title></a><a ewd:figtype="conn" style="cursor:pointer;" ewd:code="N25" ewd:figID="18"><path style="fill:#CCECF4;stroke:#000000; stroke-width:1.133; stroke-linecap:round;stroke-linejoin:round; " d=" M  1920.68,   299.24  L  1920.68,   341.73  L  1971.67,   341.73  L  1971.67,   299.24  L  1920.68,   299.24 " /><title ewd:textID="5">Door Control Battery</title></a><a ewd:figtype="conn" style="cursor:pointer;" ewd:code="G59-A,G60-B" ewd:figID="19"><path style="fill:#CCECF4;stroke:#000000; stroke-width:1.133; stroke-linecap:round;stroke-linejoin:round; " d=" M  1827.19,   222.75  L  1827.19,   239.75  L  1886.68,   239.75  L  1886.68,   222.75  L  1827.19,   222.75 " /><title ewd:textID="14">No. 19 Junction Connector</title></a><a ewd:figtype="jb" style="cursor:pointer;" ewd:code="2" ewd:figID="22"><path style="&st4; " d=" M    17.00,    35.78  L    17.00,   103.77  L    76.49,   103.77  L    76.49,    35.78  L    17.00,    35.78  " /></a><a ewd:figtype="jb" style="cursor:pointer;" ewd:code="1" ewd:figID="23"><path style="&st4; " d=" M  1232.29,    95.27  L  1232.29,   103.77  L  1257.79,   103.77  L  1257.79,    95.27  L  1232.29,    95.27  " /></a><a ewd:figtype="jb" style="cursor:pointer;" ewd:code="2" ewd:figID="24"><path style="&st4; " d=" M  1096.32,   384.22  L  1096.32,   154.76  L  1291.78,   154.76  L  1291.78,    35.78  L  1351.27,    35.78  L  1351.27,   384.22  L  1096.32,   384.22  " /></a><a ewd:figtype="jb" style="cursor:pointer;" ewd:code="2" ewd:figID="25"><path style="&st4; " d=" M  2481.59,    86.77  L  2481.59,   129.26  L  2507.08,   129.26  L  2507.08,    86.77  L  2481.59,    86.77  " /></a><a ewd:figtype="jb" style="cursor:pointer;" ewd:code="2" ewd:figID="26"><path style="&st4; " d=" M  1708.21,    35.78  L  1759.21,    35.78  L  1759.21,   103.77  L  1708.21,   103.77  L  1708.21,    35.78  " /></a><a ewd:figtype="jb" style="cursor:pointer;" ewd:code="2" ewd:figID="27"><path style="&st4; " d=" M  1776.20,   129.26  L  1844.19,   129.26  L  1844.19,    86.77  L  1776.20,    86.77  L  1776.20,   129.26  " /></a><a ewd:figtype="jb" style="cursor:pointer;" ewd:code="2" ewd:figID="28"><path style="&st4; " d=" M  2133.14,   129.26  L  2158.64,   129.26  L  2158.64,    86.77  L  2133.14,    86.77  L  2133.14,   129.26  " /></a><a ewd:figtype="fuse" style="cursor:pointer;" ewd:code="FUSE57" ewd:figID="57"><path style="&st7; stroke-width:0;" d=" M    46.74,    78.27  L    46.74,    35.78  L    21.25,    35.78  L    21.25,    78.27  L    46.74,    78.27 " /></a><a ewd:figtype="fuse" style="cursor:pointer;" ewd:code="FUSE64" ewd:figID="58"><path style="&st7; stroke-width:0;" d=" M  1126.06,   333.23  L  1126.06,   290.74  L  1100.57,   290.74  L  1100.57,   333.23  L  1126.06,   333.23 " /></a><a ewd:figtype="fuse" style="cursor:pointer;" ewd:code="FUSE59" ewd:figID="59"><path style="&st7; stroke-width:0;" d=" M  1228.04,   333.23  L  1228.04,   290.74  L  1202.55,   290.74  L  1202.55,   333.23  L  1228.04,   333.23 " /></a><a ewd:figtype="fuse" style="cursor:pointer;" ewd:code="FUSE37" ewd:figID="60"><path style="&st7; stroke-width:0;" d=" M  1236.54,    35.78  L  1236.54,    78.27  L  1262.04,    78.27  L  1262.04,    35.78  L  1236.54,    35.78 " /></a><a ewd:figtype="fuse" style="cursor:pointer;" ewd:code="FUSE58" ewd:figID="61"><path style="&st7; stroke-width:0;" d=" M  1279.04,   333.23  L  1279.04,   290.74  L  1253.54,   290.74  L  1253.54,   333.23  L  1279.04,   333.23 " /></a><a ewd:figtype="fuse" style="cursor:pointer;" ewd:code="FUSE50" ewd:figID="62"><path style="&st7; stroke-width:0;" d=" M  1321.53,    78.27  L  1321.53,    35.78  L  1296.03,    35.78  L  1296.03,    78.27  L  1321.53,    78.27 " /></a><a ewd:figtype="fuse" style="cursor:pointer;" ewd:code="FUSE23" ewd:figID="63"><path style="&st7; stroke-width:0;" d=" M  1627.48,    35.78  L  1627.48,    78.27  L  1652.97,    78.27  L  1652.97,    35.78  L  1627.48,    35.78 " /></a><a ewd:figtype="fuse" style="cursor:pointer;" ewd:code="FUSE50" ewd:figID="64"><path style="&st7; stroke-width:0;" d=" M  1712.46,    35.78  L  1712.46,    78.27  L  1737.96,    78.27  L  1737.96,    35.78  L  1712.46,    35.78 " /></a><a style="cursor:pointer;" ewd:lineID="1"><path style="stroke:#999999;stroke-width: 5.10 ;&st6;" d=" M    33.99,   248.24  L    33.99,   520.20  L   203.97,   520.20  L   203.97,   324.73  " /></a><a style="cursor:pointer;" ewd:lineID="2"><path style="stroke:#999999;stroke-width: 5.10 ;&st6;" d=" M    33.99,   103.77  L    33.99,   233.51  " /></a><a style="cursor:pointer;" ewd:lineID="3"><path style="stroke:#000000;stroke-width: 5.10 ;&st6;" d=" M   118.98,   254.48  L   118.98,   664.67  L   161.47,   664.67  L   169.97,   673.17  L   169.97,   681.67  " /><path style="stroke:#FFFFFF;stroke-width: 4.53 ;&st6;" d=" M   118.98,   254.48  L   118.98,   664.67  L   161.47,   664.67  L   169.97,   673.17  L   169.97,   681.67  " /><path style="stroke:#000000;stroke-width: 1.13 ;&st6;" d=" M   118.98,   254.48  L   118.98,   664.67  L   161.47,   664.67  L   169.97,   673.17  L   169.97,   681.67  " /></a><a style="cursor:pointer;" ewd:lineID="4"><path style="stroke:#000000;stroke-width: 5.10 ;&st6;" d=" M   118.98,   112.27  L   118.98,   239.75  " /><path style="stroke:#FFFFFF;stroke-width: 4.53 ;&st6;" d=" M   118.98,   112.27  L   118.98,   239.75  " /><path style="stroke:#000000;stroke-width: 1.13 ;&st6;" d=" M   118.98,   112.27  L   118.98,   239.75  " /></a><a style="cursor:pointer;" ewd:lineID="5"><path style="stroke:#000000;stroke-width: 5.10 ;&st6;" d=" M   169.97,   432.95  L   169.97,   681.67  " /><path style="stroke:#FFFFFF;stroke-width: 4.53 ;&st6;" d=" M   169.97,   432.95  L   169.97,   681.67  " /><path style="stroke:#000000;stroke-width: 1.13 ;&st6;" d=" M   169.97,   432.95  L   169.97,   681.67  " /></a><a style="cursor:pointer;" ewd:lineID="6"><path style="stroke:#000000;stroke-width: 5.10 ;&st6;" d=" M   169.97,   418.22  L   169.97,   324.73  " /><path style="stroke:#FFFFFF;stroke-width: 4.53 ;&st6;" d=" M   169.97,   418.22  L   169.97,   324.73  " /><path style="stroke:#000000;stroke-width: 1.13 ;&st6;" d=" M   169.97,   418.22  L   169.97,   324.73  " /></a><a style="cursor:pointer;" ewd:lineID="7"><path style="stroke:#99D9E8;stroke-width: 5.10 ;&st6;" d=" M   169.97,   112.27  L   169.97,   222.75  " /></a><a style="cursor:pointer;" ewd:lineID="8"><path style="stroke:#F668B2;stroke-width: 5.10 ;&st6;" d=" M   203.97,   112.27  L   203.97,   222.75  " /></a><a style="cursor:pointer;" ewd:lineID="9"><path style="stroke:#56077D;stroke-width: 5.10 ;&st6;" d=" M   237.96,   432.95  L   237.96,   656.18  L  2014.16,   656.18  L  2014.16,   392.72  " /></a><a style="cursor:pointer;" ewd:lineID="10"> d=" M   237.96,   324.73  L   237.96,   418.22 
	
		<path style="stroke:#000000;stroke-width: 5.10 ;&st6;" d=" M   237.96,   324.73  L   237.96,   418.22  " /><path style="stroke:#FFFFFF;stroke-width: 4.53 ;&st6;" d=" M   237.96,   324.73  L   237.96,   418.22  " /></a><a style="cursor:pointer;" ewd:lineID="11"><path style="stroke:#000000;stroke-width: 5.10 ;&st6;" d=" M   237.96,   112.27  L   237.96,   222.75  " /></a><a style="cursor:pointer;" ewd:lineID="12"><path style="stroke:#BFB1C5;stroke-width: 5.10 ;&st6;" d=" M   390.93,   341.73  L   390.93,   324.73  L   356.94,   324.73  L   356.94,   622.18  L  1172.80,   622.18  L  1172.80,   460.71  " /><path style="stroke:#FFFFFF;stroke-width: 2.27 ;&st6;" d=" M   390.93,   341.73  L   390.93,   324.73  L   356.94,   324.73  L   356.94,   622.18  L  1172.80,   622.18  L  1172.80,   460.71  " /><path style="stroke:#999999;stroke-width: 1.13 ;&st6;" d=" M   390.93,   341.73  L   390.93,   324.73  L   356.94,   324.73  L   356.94,   622.18  L  1172.80,   622.18  L  1172.80,   460.71  " /></a><a style="cursor:pointer;" ewd:lineID="13"><path style="stroke:#BFB1C5;stroke-width: 5.10 ;&st6;" d=" M   399.43,   409.72  L   399.43,   525.86  " /><path style="stroke:#FFFFFF;stroke-width: 2.27 ;&st6;" d=" M   399.43,   409.72  L   399.43,   525.86  " /><path style="stroke:#FFE600;stroke-width: 1.13 ;&st6;" d=" M   399.43,   409.72  L   399.43,   525.86  " /></a><a style="cursor:pointer;" ewd:lineID="14"><path style="stroke:#BFB1C5;stroke-width: 5.10 ;&st6;" d=" M   407.93,   341.73  L   407.93,   290.74  " /><path style="stroke:#FFFFFF;stroke-width: 2.27 ;&st6;" d=" M   407.93,   341.73  L   407.93,   290.74  " /><path style="stroke:#FF0000;stroke-width: 1.13 ;&st6;" d=" M   407.93,   341.73  L   407.93,   290.74  " /></a><a style="cursor:pointer;" ewd:lineID="15"><path style="stroke:#BFB1C5;stroke-width: 5.10 ;&st6;" d=" M   407.93,   275.72  L   407.93,   220.77  " /><path style="stroke:#FFFFFF;stroke-width: 2.27 ;&st6;" d=" M   407.93,   275.72  L   407.93,   220.77  " /><path style="stroke:#FF0000;stroke-width: 1.13 ;&st6;" d=" M   407.93,   275.72  L   407.93,   220.77  " /></a><a style="cursor:pointer;" ewd:lineID="16"><path style="stroke:#BFB1C5;stroke-width: 5.10 ;&st6;" d=" M   407.93,   205.75  L   407.93,   112.27  " /><path style="stroke:#FFFFFF;stroke-width: 2.27 ;&st6;" d=" M   407.93,   205.75  L   407.93,   112.27  " /><path style="stroke:#FF0000;stroke-width: 1.13 ;&st6;" d=" M   407.93,   205.75  L   407.93,   112.27  " /></a><a style="cursor:pointer;" ewd:lineID="17"><path style="stroke:#BFB1C5;stroke-width: 5.10 ;&st6;" d=" M   450.42,   341.73  L   450.42,   290.74  " /><path style="stroke:#FFFFFF;stroke-width: 2.27 ;&st6;" d=" M   450.42,   341.73  L   450.42,   290.74  " /><path style="stroke:#008837;stroke-width: 1.13 ;&st6;" d=" M   450.42,   341.73  L   450.42,   290.74  " /></a><a style="cursor:pointer;" ewd:lineID="18"><path style="stroke:#BFB1C5;stroke-width: 5.10 ;&st6;" d=" M   450.42,   275.72  L   450.42,   220.77  " /><path style="stroke:#FFFFFF;stroke-width: 2.27 ;&st6;" d=" M   450.42,   275.72  L   450.42,   220.77  " /><path style="stroke:#008837;stroke-width: 1.13 ;&st6;" d=" M   450.42,   275.72  L   450.42,   220.77  " /></a><a style="cursor:pointer;" ewd:lineID="19"><path style="stroke:#BFB1C5;stroke-width: 5.10 ;&st6;" d=" M   450.42,   205.75  L   450.42,   112.27  " /><path style="stroke:#FFFFFF;stroke-width: 2.27 ;&st6;" d=" M   450.42,   205.75  L   450.42,   112.27  " /><path style="stroke:#008837;stroke-width: 1.13 ;&st6;" d=" M   450.42,   205.75  L   450.42,   112.27  " /></a><a style="cursor:pointer;" ewd:lineID="20"><path style="stroke:#BFB1C5;stroke-width: 5.10 ;&st6;" d=" M   458.92,   409.72  L   458.92,   571.19  L   399.43,   571.19  L   399.43,   548.53  " /><path style="stroke:#FFFFFF;stroke-width: 2.27 ;&st6;" d=" M   458.92,   409.72  L   458.92,   571.19  L   399.43,   571.19  L   399.43,   548.53  " /><path style="stroke:#999999;stroke-width: 1.13 ;&st6;" d=" M   458.92,   409.72  L   458.92,   571.19  L   399.43,   571.19  L   399.43,   548.53  " /></a><a ewd:comment="5" style="cursor:pointer;" ewd:lineID="21"><path style="stroke:#00A0C6;stroke-width: 5.10 ;&st6;" d=" M   611.90,   341.73  L   611.90,   324.73  L   577.90,   324.73  L   577.90,   605.18  L  1266.29,   605.18  L  1266.29,   460.71  " /></a><a ewd:comment="5" style="cursor:pointer;" ewd:lineID="22"><path style="stroke:#BFB1C5;stroke-width: 5.10 ;&st6;" d=" M   620.40,   409.72  L   620.40,   525.86  " /><path style="stroke:#FFFFFF;stroke-width: 2.27 ;&st6;" d=" M   620.40,   409.72  L   620.40,   525.86  " /><path style="stroke:#FF0000;stroke-width: 1.13 ;&st6;" d=" M   620.40,   409.72  L   620.40,   525.86  " /></a><a ewd:comment="5" style="cursor:pointer;" ewd:lineID="23"><path style="stroke:#FFE600;stroke-width: 5.10 ;&st6;" d=" M   628.89,   341.73  L   628.89,   290.74  " /></a><a ewd:comment="5" style="cursor:pointer;" ewd:lineID="24"><path style="stroke:#BFB1C5;stroke-width: 5.10 ;&st6;" d=" M   628.89,   275.72  L   628.89,   220.77  " /><path style="stroke:#FFFFFF;stroke-width: 2.27 ;&st6;" d=" M   628.89,   275.72  L   628.89,   220.77  " /><path style="stroke:#FFE600;stroke-width: 1.13 ;&st6;" d=" M   628.89,   275.72  L   628.89,   220.77  " /></a><a ewd:comment="5" style="cursor:pointer;" ewd:lineID="25"><path style="stroke:#BFB1C5;stroke-width: 5.10 ;&st6;" d=" M   628.89,   205.75  L   628.89,   112.27  " /><path style="stroke:#FFFFFF;stroke-width: 2.27 ;&st6;" d=" M   628.89,   205.75  L   628.89,   112.27  " /><path style="stroke:#FFE600;stroke-width: 1.13 ;&st6;" d=" M   628.89,   205.75  L   628.89,   112.27  " /></a><a ewd:comment="5" style="cursor:pointer;" ewd:lineID="26"><path style="stroke:#F668B2;stroke-width: 5.10 ;&st6;" d=" M   671.39,   341.73  L   671.39,   290.74  " /></a><a ewd:comment="5" style="cursor:pointer;" ewd:lineID="27"><path style="stroke:#BFB1C5;stroke-width: 5.10 ;&st6;" d=" M   671.39,   275.72  L   671.39,   220.77  " /><path style="stroke:#FFFFFF;stroke-width: 2.27 ;&st6;" d=" M   671.39,   275.72  L   671.39,   220.77  " /><path style="stroke:#F668B2;stroke-width: 1.13 ;&st6;" d=" M   671.39,   275.72  L   671.39,   220.77  " /></a><a ewd:comment="5" style="cursor:pointer;" ewd:lineID="28"><path style="stroke:#BFB1C5;stroke-width: 5.10 ;&st6;" d=" M   671.39,   205.75  L   671.39,   112.27  " /><path style="stroke:#FFFFFF;stroke-width: 2.27 ;&st6;" d=" M   671.39,   205.75  L   671.39,   112.27  " /><path style="stroke:#F668B2;stroke-width: 1.13 ;&st6;" d=" M   671.39,   205.75  L   671.39,   112.27  " /></a><a ewd:comment="5" style="cursor:pointer;" ewd:lineID="29"><path style="stroke:#BFB1C5;stroke-width: 5.10 ;&st6;" d=" M   679.89,   409.72  L   679.89,   571.19  L   620.40,   571.19  L   620.40,   548.53  " /><path style="stroke:#FFFFFF;stroke-width: 2.27 ;&st6;" d=" M   679.89,   409.72  L   679.89,   571.19  L   620.40,   571.19  L   620.40,   548.53  " /><path style="stroke:#999999;stroke-width: 1.13 ;&st6;" d=" M   679.89,   409.72  L   679.89,   571.19  L   620.40,   571.19  L   620.40,   548.53  " /></a><a ewd:comment="5" style="cursor:pointer;" ewd:lineID="30"><path style="stroke:#008837;stroke-width: 5.10 ;&st6;" d=" M   798.87,   341.73  L   798.87,   324.73  L   764.87,   324.73  L   764.87,   588.19  L  1215.30,   588.19  L  1215.30,   460.71  " /></a><a ewd:comment="5" style="cursor:pointer;" ewd:lineID="31"><path style="stroke:#BFB1C5;stroke-width: 5.10 ;&st6;" d=" M   807.37,   409.72  L   807.37,   525.86  " /><path style="stroke:#FFFFFF;stroke-width: 2.27 ;&st6;" d=" M   807.37,   409.72  L   807.37,   525.86  " /><path style="stroke:#FF0000;stroke-width: 1.13 ;&st6;" d=" M   807.37,   409.72  L   807.37,   525.86  " /></a><a ewd:comment="5" style="cursor:pointer;" ewd:lineID="32"><path style="stroke:#000000;stroke-width: 5.10 ;&st6;" d=" M   815.86,   341.73  L   815.86,   290.74  " /></a><a ewd:comment="5" style="cursor:pointer;" ewd:lineID="33"><path style="stroke:#BFB1C5;stroke-width: 5.10 ;&st6;" d=" M   815.86,   275.72  L   815.86,   220.77  " /><path style="stroke:#FFFFFF;stroke-width: 2.27 ;&st6;" d=" M   815.86,   275.72  L   815.86,   220.77  " /><path style="stroke:#000000;stroke-width: 1.13 ;&st6;" d=" M   815.86,   275.72  L   815.86,   220.77  " /></a><a ewd:comment="5" style="cursor:pointer;" ewd:lineID="34"><path style="stroke:#BFB1C5;stroke-width: 5.10 ;&st6;" d=" M   815.86,   205.75  L   815.86,   112.27  " /><path style="stroke:#FFFFFF;stroke-width: 2.27 ;&st6;" d=" M   815.86,   205.75  L   815.86,   112.27  " /><path style="stroke:#000000;stroke-width: 1.13 ;&st6;" d=" M   815.86,   205.75  L   815.86,   112.27  " /></a><a ewd:comment="5" style="cursor:pointer;" ewd:lineID="35"><path style="stroke:#56077D;stroke-width: 5.10 ;&st6;" d=" M   858.36,   341.73  L   858.36,   290.74  " /></a><a ewd:comment="5" style="cursor:pointer;" ewd:lineID="36"><path style="stroke:#BFB1C5;stroke-width: 5.10 ;&st6;" d=" M   858.36,   275.72  L   858.36,   220.77  " /><path style="stroke:#FFFFFF;stroke-width: 2.27 ;&st6;" d=" M   858.36,   275.72  L   858.36,   220.77  " /><path style="stroke:#56077D;stroke-width: 1.13 ;&st6;" d=" M   858.36,   275.72  L   858.36,   220.77  " /></a><a ewd:comment="5" style="cursor:pointer;" ewd:lineID="37"><path style="stroke:#BFB1C5;stroke-width: 5.10 ;&st6;" d=" M   858.36,   205.75  L   858.36,   112.27  " /><path style="stroke:#FFFFFF;stroke-width: 2.27 ;&st6;" d=" M   858.36,   205.75  L   858.36,   112.27  " /><path style="stroke:#56077D;stroke-width: 1.13 ;&st6;" d=" M   858.36,   205.75  L   858.36,   112.27  " /></a><a ewd:comment="5" style="cursor:pointer;" ewd:lineID="38"><path style="stroke:#BFB1C5;stroke-width: 5.10 ;&st6;" d=" M   866.86,   409.72  L   866.86,   571.19  L   807.37,   571.19  L   807.37,   548.53  " /><path style="stroke:#FFFFFF;stroke-width: 2.27 ;&st6;" d=" M   866.86,   409.72  L   866.86,   571.19  L   807.37,   571.19  L   807.37,   548.53  " /><path style="stroke:#999999;stroke-width: 1.13 ;&st6;" d=" M   866.86,   409.72  L   866.86,   571.19  L   807.37,   571.19  L   807.37,   548.53  " /></a><a style="cursor:pointer;" ewd:lineID="39"><path style="stroke:#BFB1C5;stroke-width: 5.10 ;&st6;" d=" M   960.34,   220.77  L   960.34,   571.19  L  1113.31,   571.19  L  1113.31,   384.22  " /><path style="stroke:#FFFFFF;stroke-width: 2.27 ;&st6;" d=" M   960.34,   220.77  L   960.34,   571.19  L  1113.31,   571.19  L  1113.31,   384.22  " /><path style="stroke:#999999;stroke-width: 1.13 ;&st6;" d=" M   960.34,   220.77  L   960.34,   571.19  L  1113.31,   571.19  L  1113.31,   384.22  " /></a><a style="cursor:pointer;" ewd:lineID="40"><path style="stroke:#BFB1C5;stroke-width: 5.10 ;&st6;" d=" M   960.34,   205.75  L   960.34,   112.27  " /><path style="stroke:#FFFFFF;stroke-width: 2.27 ;&st6;" d=" M   960.34,   205.75  L   960.34,   112.27  " /><path style="stroke:#999999;stroke-width: 1.13 ;&st6;" d=" M   960.34,   205.75  L   960.34,   112.27  " /></a><a style="cursor:pointer;" ewd:lineID="41"><path style="stroke:#BFB1C5;stroke-width: 5.10 ;&st6;" d=" M  1172.80,   384.22  L  1172.80,   445.69  " /><path style="stroke:#FFFFFF;stroke-width: 2.27 ;&st6;" d=" M  1172.80,   384.22  L  1172.80,   445.69  " /><path style="stroke:#999999;stroke-width: 1.13 ;&st6;" d=" M  1172.80,   384.22  L  1172.80,   445.69  " /></a><a ewd:comment="5" style="cursor:pointer;" ewd:lineID="42"><path style="stroke:#BFB1C5;stroke-width: 5.10 ;&st6;" d=" M  1215.30,   445.69  L  1215.30,   384.22  " /><path style="stroke:#FFFFFF;stroke-width: 2.27 ;&st6;" d=" M  1215.30,   445.69  L  1215.30,   384.22  " /><path style="stroke:#008837;stroke-width: 1.13 ;&st6;" d=" M  1215.30,   445.69  L  1215.30,   384.22  " /></a><a style="cursor:pointer;" ewd:lineID="43"><path style="stroke:#000000;stroke-width: 5.10 ;&st6;" d=" M  1249.29,   103.77  L  1249.29,   154.76  " /></a><a ewd:comment="5" style="cursor:pointer;" ewd:lineID="44"><path style="stroke:#BFB1C5;stroke-width: 5.10 ;&st6;" d=" M  1266.29,   445.69  L  1266.29,   384.22  " /><path style="stroke:#FFFFFF;stroke-width: 2.27 ;&st6;" d=" M  1266.29,   445.69  L  1266.29,   384.22  " /><path style="stroke:#00A0C6;stroke-width: 1.13 ;&st6;" d=" M  1266.29,   445.69  L  1266.29,   384.22  " /></a><a style="cursor:pointer;" ewd:lineID="45"><path style="stroke:#000000;stroke-width: 5.10 ;&st6;" d=" M  1308.78,   384.22  L  1308.78,   681.67  " /><path style="stroke:#FFFFFF;stroke-width: 4.53 ;&st6;" d=" M  1308.78,   384.22  L  1308.78,   681.67  " /><path style="stroke:#000000;stroke-width: 1.13 ;&st6;" d=" M  1308.78,   384.22  L  1308.78,   681.67  " /></a><a style="cursor:pointer;" ewd:lineID="46"><path style="stroke:#BFB1C5;stroke-width: 5.10 ;&st6;" d=" M  1640.23,   237.76  L  1640.23,   290.74  L  1835.69,   290.74  L  1835.69,   248.81  " /><path style="stroke:#FFFFFF;stroke-width: 2.27 ;&st6;" d=" M  1640.23,   237.76  L  1640.23,   290.74  L  1835.69,   290.74  L  1835.69,   248.81  " /><path style="stroke:#FF0000;stroke-width: 1.13 ;&st6;" d=" M  1640.23,   237.76  L  1640.23,   290.74  L  1835.69,   290.74  L  1835.69,   248.81  " /></a><a style="cursor:pointer;" ewd:lineID="47"><path style="stroke:#000000;stroke-width: 5.10 ;&st6;" d=" M  1640.23,   103.77  L  1640.23,   222.75  " /></a><a style="cursor:pointer;" ewd:lineID="48"><path style="stroke:#000000;stroke-width: 5.10 ;&st6;" d=" M  1725.21,   103.77  L  1725.21,   213.68  " /></a><a style="cursor:pointer;" ewd:lineID="49"><path style="stroke:#F668B2;stroke-width: 5.10 ;&st6;" d=" M  1793.20,   129.26  L  1793.20,   265.24  L  1725.21,   265.24  L  1725.21,   248.81  " /></a><a ewd:comment="23" style="cursor:pointer;" ewd:lineID="50"><path style="stroke:#BFB1C5;stroke-width: 5.10 ;&st6;" d=" M  1835.69,   129.26  L  1835.69,   213.68  " /><path style="stroke:#FFFFFF;stroke-width: 2.27 ;&st6;" d=" M  1835.69,   129.26  L  1835.69,   213.68  " /><path style="stroke:#FF0000;stroke-width: 1.13 ;&st6;" d=" M  1835.69,   129.26  L  1835.69,   213.68  " /></a><a ewd:comment="22" style="cursor:pointer;" ewd:lineID="51"><path style="stroke:#FF0000;stroke-width: 5.10 ;&st6;" d=" M  1946.17,   409.72  L  1946.17,   426.71  L  1878.19,   426.71  L  1878.19,   248.81  " /></a><a ewd:comment="22" style="cursor:pointer;" ewd:lineID="52"><path style="stroke:#FF0000;stroke-width: 5.10 ;&st6;" d=" M  1946.17,   341.73  L  1946.17,   394.99  " /></a><a ewd:comment="22" style="cursor:pointer;" ewd:lineID="53"><path style="stroke:#56077D;stroke-width: 5.10 ;&st6;" d=" M  1946.17,   299.24  L  1946.17,   228.98  " /></a><a ewd:comment="22" style="cursor:pointer;" ewd:lineID="54"><path style="stroke:#F668B2;stroke-width: 5.10 ;&st6;" d=" M  1946.17,   214.25  L  1946.17,   146.26  L  1844.19,   146.26  L  1835.69,   137.76  L  1835.69,   129.26  " /></a><a style="cursor:pointer;" ewd:lineID="55"><path style="stroke:#56077D;stroke-width: 5.10 ;&st6;" d=" M  2014.16,   290.74  L  2014.16,   375.72  " /></a><a style="cursor:pointer;" ewd:lineID="56"><path style="stroke:#56077D;stroke-width: 5.10 ;&st6;" d=" M  2014.16,   273.74  L  2014.16,   186.49  " /></a><a style="cursor:pointer;" ewd:lineID="57"><path style="stroke:#99D9E8;stroke-width: 5.10 ;&st6;" d=" M  2014.16,    95.84  L  2014.16,   171.76  " /></a><a style="cursor:pointer;" ewd:lineID="58"><path style="stroke:#FF0000;stroke-width: 5.10 ;&st6;" d=" M  2150.14,   129.26  L  2150.14,   401.22  " /></a><a style="cursor:pointer;" ewd:lineID="59"><path style="stroke:#FF0000;stroke-width: 5.10 ;&st6;" d=" M  2328.61,   288.47  L  2328.61,   401.22  " /></a><a style="cursor:pointer;" ewd:lineID="60"><path style="stroke:#FF0000;stroke-width: 5.10 ;&st6;" d=" M  2328.61,   188.75  L  2328.61,   273.74  " /></a><a style="cursor:pointer;" ewd:lineID="61"><path style="stroke:#7FC97F;stroke-width: 5.10 ;&st6;" d=" M  2328.61,    95.84  L  2328.61,   171.76  " /></a><a style="cursor:pointer;" ewd:lineID="62"><path style="stroke:#000000;stroke-width: 5.10 ;&st6;" d=" M  2498.58,   681.67  L  2498.58,   129.26  " /><path style="stroke:#FFFFFF;stroke-width: 4.53 ;&st6;" d=" M  2498.58,   681.67  L  2498.58,   129.26  " /><path style="stroke:#000000;stroke-width: 1.13 ;&st6;" d=" M  2498.58,   681.67  L  2498.58,   129.26  " /></a><a ewd:figtype="w2w" style="cursor:pointer;" ewd:pinNo="6" ewd:code="KG2" ewd:figID="29"><path style="&st2;" d=" M    42.49,   239.75  L    25.50,   239.75  L    25.50,   248.24  L    42.49,   248.24  L    42.49,   239.75 " /><text style="&st8;" transform="matrix(&st16;  28.35  246.11 )"><tspan x="0" style="&st18;" y="0">KG2</tspan></text></a><a ewd:figtype="w2w" style="cursor:pointer;" ewd:pinNo="17" ewd:code="KN1" ewd:figID="30"><path style="&st2;" d=" M   127.48,   239.75  L   110.48,   239.75  L   110.48,   248.24  L   127.48,   248.24  L   127.48,   239.75 " /><text style="&st8;" transform="matrix(&st16;  113.49  246.11 )"><tspan x="0" style="&st18;" y="0">KN1</tspan></text></a><a ewd:figtype="w2w" style="cursor:pointer;" ewd:pinNo="18" ewd:code="KN1" ewd:figID="31"><path style="&st2;" d=" M   178.47,   418.22  L   161.47,   418.22  L   161.47,   426.71  L   178.47,   426.71  L   178.47,   418.22 " /><text style="&st8;" transform="matrix(&st16;  164.48  424.58 )"><tspan x="0" style="&st18;" y="0">KN1</tspan></text></a><a ewd:figtype="w2w" style="cursor:pointer;" ewd:pinNo="14" ewd:code="KN1" ewd:figID="32"><path style="&st2;" d=" M   246.46,   418.22  L   229.46,   418.22  L   229.46,   426.71  L   246.46,   426.71  L   246.46,   418.22 " /><text style="&st8;" transform="matrix(&st16;  232.47  424.58 )"><tspan x="0" style="&st18;" y="0">KN1</tspan></text></a><a ewd:figtype="w2w" style="cursor:pointer;" ewd:pinNo="7" ewd:code="JG2" ewd:figID="33"><path style="&st2;" d=" M   416.43,   282.24  L   399.43,   282.24  L   399.43,   290.74  L   416.43,   290.74  L   416.43,   282.24 " /><text style="&st8;" transform="matrix(&st16;  403.12  288.61 )"><tspan x="0" style="&st18;" y="0">JG2</tspan></text></a><a ewd:figtype="w2w" style="cursor:pointer;" ewd:pinNo="7" ewd:code="KG2" ewd:figID="34"><path style="&st2;" d=" M   416.43,   205.75  L   399.43,   205.75  L   399.43,   214.25  L   416.43,   214.25  L   416.43,   205.75 " /><text style="&st8;" transform="matrix(&st16;  402.29  212.12 )"><tspan x="0" style="&st18;" y="0">KG2</tspan></text></a><a ewd:figtype="w2w" style="cursor:pointer;" ewd:pinNo="12" ewd:code="JG2" ewd:figID="35"><path style="&st2;" d=" M   458.92,   282.24  L   441.93,   282.24  L   441.93,   290.74  L   458.92,   290.74  L   458.92,   282.24 " /><text style="&st8;" transform="matrix(&st16;  445.61  288.61 )"><tspan x="0" style="&st18;" y="0">JG2</tspan></text></a><a ewd:figtype="w2w" style="cursor:pointer;" ewd:pinNo="12" ewd:code="KG2" ewd:figID="36"><path style="&st2;" d=" M   458.92,   205.75  L   441.93,   205.75  L   441.93,   214.25  L   458.92,   214.25  L   458.92,   205.75 " /><text style="&st8;" transform="matrix(&st16;  444.78  212.12 )"><tspan x="0" style="&st18;" y="0">KG2</tspan></text></a><a ewd:figtype="w2w" style="cursor:pointer;" ewd:pinNo="12" ewd:code="MN1" ewd:figID="37"><path style="&st2;" d=" M   637.39,   282.24  L   620.40,   282.24  L   620.40,   290.74  L   637.39,   290.74  L   637.39,   282.24 " /><text style="&st8;" transform="matrix(&st16;  622.99  288.61 )"><tspan x="0" style="&st18;" y="0">MN1</tspan></text></a><a ewd:figtype="w2w" style="cursor:pointer;" ewd:pinNo="1" ewd:code="KN1" ewd:figID="38"><path style="&st2;" d=" M   637.39,   205.75  L   620.40,   205.75  L   620.40,   214.25  L   637.39,   214.25  L   637.39,   205.75 " /><text style="&st8;" transform="matrix(&st16;  623.4  212.12 )"><tspan x="0" style="&st18;" y="0">KN1</tspan></text></a><a ewd:figtype="w2w" style="cursor:pointer;" ewd:pinNo="13" ewd:code="MN1" ewd:figID="39"><path style="&st2;" d=" M   679.89,   282.24  L   662.89,   282.24  L   662.89,   290.74  L   679.89,   290.74  L   679.89,   282.24 " /><text style="&st8;" transform="matrix(&st16;  665.48  288.61 )"><tspan x="0" style="&st18;" y="0">MN1</tspan></text></a><a ewd:figtype="w2w" style="cursor:pointer;" ewd:pinNo="2" ewd:code="KN1" ewd:figID="40"><path style="&st2;" d=" M   679.89,   205.75  L   662.89,   205.75  L   662.89,   214.25  L   679.89,   214.25  L   679.89,   205.75 " /><text style="&st8;" transform="matrix(&st16;  665.89  212.12 )"><tspan x="0" style="&st18;" y="0">KN1</tspan></text></a><a ewd:figtype="w2w" style="cursor:pointer;" ewd:pinNo="12" ewd:code="LN1" ewd:figID="41"><path style="&st2;" d=" M   824.36,   282.24  L   807.37,   282.24  L   807.37,   290.74  L   824.36,   290.74  L   824.36,   282.24 " /><text style="&st8;" transform="matrix(&st16;  810.6  288.61 )"><tspan x="0" style="&st18;" y="0">LN1</tspan></text></a><a ewd:figtype="w2w" style="cursor:pointer;" ewd:pinNo="10" ewd:code="KN1" ewd:figID="42"><path style="&st2;" d=" M   824.36,   205.75  L   807.37,   205.75  L   807.37,   214.25  L   824.36,   214.25  L   824.36,   205.75 " /><text style="&st8;" transform="matrix(&st16;  810.37  212.12 )"><tspan x="0" style="&st18;" y="0">KN1</tspan></text></a><a ewd:figtype="w2w" style="cursor:pointer;" ewd:pinNo="13" ewd:code="LN1" ewd:figID="43"><path style="&st2;" d=" M   866.86,   282.24  L   849.86,   282.24  L   849.86,   290.74  L   866.86,   290.74  L   866.86,   282.24 " /><text style="&st8;" transform="matrix(&st16;  853.09  288.61 )"><tspan x="0" style="&st18;" y="0">LN1</tspan></text></a><a ewd:figtype="w2w" style="cursor:pointer;" ewd:pinNo="11" ewd:code="KN1" ewd:figID="44"><path style="&st2;" d=" M   866.86,   205.75  L   849.86,   205.75  L   849.86,   214.25  L   866.86,   214.25  L   866.86,   205.75 " /><text style="&st8;" transform="matrix(&st16;  852.86  212.12 )"><tspan x="0" style="&st18;" y="0">KN1</tspan></text></a><a ewd:figtype="w2w" style="cursor:pointer;" ewd:pinNo="11" ewd:code="KG2" ewd:figID="45"><path style="&st2;" d=" M   968.84,   205.75  L   951.84,   205.75  L   951.84,   214.25  L   968.84,   214.25  L   968.84,   205.75 " /><text style="&st8;" transform="matrix(&st16;  954.7  212.12 )"><tspan x="0" style="&st18;" y="0">KG2</tspan></text></a><a ewd:figtype="w2w" style="cursor:pointer;" ewd:pinNo="11" ewd:code="JG2" ewd:figID="46"><path style="&st2;" d=" M  1181.30,   452.21  L  1164.31,   452.21  L  1164.31,   460.71  L  1181.30,   460.71  L  1181.30,   452.21 " /><text style="&st8;" transform="matrix(&st16;  1167.99  458.58 )"><tspan x="0" style="&st18;" y="0">JG2</tspan></text></a><a ewd:figtype="w2w" style="cursor:pointer;" ewd:pinNo="8" ewd:code="LN1" ewd:figID="47"><path style="&st2;" d=" M  1223.80,   452.21  L  1206.80,   452.21  L  1206.80,   460.71  L  1223.80,   460.71  L  1223.80,   452.21 " /><text style="&st8;" transform="matrix(&st16;  1210.03  458.58 )"><tspan x="0" style="&st18;" y="0">LN1</tspan></text></a><a ewd:figtype="w2w" style="cursor:pointer;" ewd:pinNo="8" ewd:code="MN1" ewd:figID="48"><path style="&st2;" d=" M  1274.79,   452.21  L  1257.79,   452.21  L  1257.79,   460.71  L  1274.79,   460.71  L  1274.79,   452.21 " /><text style="&st8;" transform="matrix(&st16;  1260.38  458.58 )"><tspan x="0" style="&st18;" y="0">MN1</tspan></text></a><a ewd:figtype="w2w" style="cursor:pointer;" ewd:pinNo="1" ewd:code="AG1" ewd:figID="49"><path style="&st2;" d=" M  1648.72,   222.75  L  1631.73,   222.75  L  1631.73,   231.25  L  1648.72,   231.25  L  1648.72,   222.75 " /><text style="&st8;" transform="matrix(&st16;  1634.58  229.12 )"><tspan x="0" style="&st18;" y="0">AG1</tspan></text></a><a ewd:figtype="w2w" style="cursor:pointer;" ewd:pinNo="8" ewd:code="GN2" ewd:figID="50"><path style="&st2;" d=" M  1954.67,   401.22  L  1937.68,   401.22  L  1937.68,   409.72  L  1954.67,   409.72  L  1954.67,   401.22 " /><text style="&st8;" transform="matrix(&st16;  1940.53  407.59 )"><tspan x="0" style="&st18;" y="0">GN2</tspan></text></a><a ewd:figtype="w2w" style="cursor:pointer;" ewd:pinNo="11" ewd:code="GN4" ewd:figID="51"><path style="&st2;" d=" M  1954.67,   214.25  L  1937.68,   214.25  L  1937.68,   222.75  L  1954.67,   222.75  L  1954.67,   214.25 " /><text style="&st8;" transform="matrix(&st16;  1940.53  220.62 )"><tspan x="0" style="&st18;" y="0">GN4</tspan></text></a><a ewd:figtype="w2w" style="cursor:pointer;" ewd:pinNo="8" ewd:code="GN1" ewd:figID="52"><path style="&st2;" d=" M  2022.66,   171.76  L  2005.66,   171.76  L  2005.66,   180.26  L  2022.66,   180.26  L  2022.66,   171.76 " /><text style="&st8;" transform="matrix(&st16;  2008.52  178.13 )"><tspan x="0" style="&st18;" y="0">GN1</tspan></text></a><a ewd:figtype="w2w" style="cursor:pointer;" ewd:pinNo="20" ewd:code="GN2" ewd:figID="53"><path style="&st2;" d=" M  2337.11,   273.74  L  2320.11,   273.74  L  2320.11,   282.24  L  2337.11,   282.24  L  2337.11,   273.74 " /><text style="&st8;" transform="matrix(&st16;  2322.97  280.11 )"><tspan x="0" style="&st18;" y="0">GN2</tspan></text></a><a ewd:figtype="gp" style="cursor:pointer;" ewd:code="NA" ewd:figID="54"><path style="&st2;" d=" M   159.35,   681.67  L   180.59,   681.67  L   169.97,   697.25  L   159.35,   681.67 " /><text style="&st8;" transform="matrix(&st16;  165.98  689.46 )"><tspan x="0" style="&st18;" y="0">NA</tspan></text></a><a ewd:figtype="gp" style="cursor:pointer;" ewd:code="GC" ewd:figID="55"><path style="&st2;" d=" M  1298.16,   681.67  L  1319.40,   681.67  L  1308.78,   697.25  L  1298.16,   681.67 " /><text style="&st8;" transform="matrix(&st16;  1304.53  689.46 )"><tspan x="0" style="&st18;" y="0">GC</tspan></text></a><a ewd:figtype="gp" style="cursor:pointer;" ewd:code="GC" ewd:figID="56"><path style="&st2;" d=" M  2487.96,   681.67  L  2509.21,   681.67  L  2498.58,   697.25  L  2487.96,   681.67 " /><text style="&st8;" transform="matrix(&st16;  2494.33  689.46 )"><tspan x="0" style="&st18;" y="0">GC</tspan></text></a></g></svg>