﻿<?xml version="1.0" encoding="utf-8"?>
<!DOCTYPE svg PUBLIC "-//W3C//DTD SVG 1.0//EN" "http://www.w3.org/TR/2001/REC-SVG-20010904/DTD/svg10.dtd"[
	<!ENTITY ns_flows "http://ns.adobe.com/Flows/1.0/">
	<!ENTITY ns_svg "http://www.w3.org/2000/svg">
	<!ENTITY ns_xlink "http://www.w3.org/1999/xlink">
	<!ENTITY st0 "font-size:7px;font-family:'MS-PGothic';adobe-font-script:japanese;">
	<!ENTITY st1 "font-size:6px;font-family:'ArialMT';">
	<!-- White fill  -->
	<!ENTITY st2 "fill:#FFFFFF;stroke:#000000; stroke-width:1.41;stroke-linecap:round;stroke-linejoin:round;">
	<!-- Yellow fill  -->
	<!ENTITY st3 "fill:#FFFFCC;stroke:#FFFFCC; stroke-width:0.1;stroke-linecap:round;stroke-linejoin:round;">
	<!-- Gray fill  -->
	<!ENTITY st4 "fill:#CCCCCC;stroke:#CCCCCC; stroke-width:0.1;stroke-linecap:round;stroke-linejoin:round;">
	<!-- Light-blue fill -->
	<!ENTITY st5 "fill:#CCECF4;stroke:#000000; stroke-width:1.133;stroke-linecap:round;stroke-linejoin:round;">
	<!ENTITY st6 "fill:none;stroke-linecap:butt; stroke-linejoin:round;">
	<!ENTITY st7 "fill:none;stroke:#000000;stroke-linecap:round;stroke-linejoin:round;">
	<!ENTITY st8 "enable-background:new    ;">
	<!-- Black fill -->
	<!ENTITY st9 "fill:#000000;stroke:#000000; stroke-linecap:round;stroke-linejoin:round;">
	<!-- SRS note   -->
	<!ENTITY st10 "font-size:9px;font-family:'ArialMT';">
	<!ENTITY st11 "font-size:9px;font-family:'Svg Symbol';">
	<!ENTITY st12 "font-size:6px;font-family:'Svg Symbol';">
	<!ENTITY st13 "fill:none;stroke:#ff0000;stroke-linecap:round;stroke-linejoin:round;">
	<!-- Yellow fill  -->
	<!ENTITY st14 "fill:#FFFF00;stroke:#FFFF00; stroke-width:0.1;stroke-linecap:round;stroke-linejoin:round;">
	<!ENTITY st15 "font-size:6px;font-family:'MS-PGothic';adobe-font-script:japanese;">
	<!ENTITY st16 "1.00 0.00 0.00 1.00">
	<!ENTITY st17 "0.00 -1.00 1.00 0.00">
	<!ENTITY st18 "font-size:6px;font-family:'Arial';">
	<!ENTITY st19 "font-size:9px;font-family:'Arial';">
	<!ENTITY st20 "font-size:6px;font-family:'MS-PGothic','MS PGothic';adobe-font-script:japanese;">
	<!ENTITY st21 "font-size:7px;font-family:'MS-PGothic','MS PGothic';adobe-font-script:japanese;">
	<!ATTLIST svg
		xmlns:ewd CDATA #FIXED "http://shcl.co.jp/ewd"
		xmlns:a CDATA #FIXED "http://ns.adobe.com/AdobeSVGViewerExtensions/3.0/"
		ewd:ver CDATA #IMPLIED
	>
	<!ATTLIST a
		ewd:lineID CDATA #IMPLIED
		ewd:groupID CDATA #IMPLIED
		ewd:figtype CDATA #IMPLIED
		ewd:code CDATA #IMPLIED
		ewd:figID CDATA #IMPLIED
		ewd:pinNo CDATA #IMPLIED
		ewd:comment CDATA #IMPLIED >
	<!ATTLIST g
		ewd:lineID CDATA #IMPLIED
		ewd:groupID CDATA #IMPLIED
		ewd:figtype CDATA #IMPLIED
		ewd:code CDATA #IMPLIED
		ewd:figID CDATA #IMPLIED
		ewd:pinNo CDATA #IMPLIED
		ewd:comment CDATA #IMPLIED >
	<!ATTLIST text
		ewd:textID CDATA #IMPLIED >
	<!ATTLIST title
		ewd:textID CDATA #IMPLIED >
]>
<!-- Generator: Shintec Hozumi YS   -->
<svg onload="call_execInitLoadProc_svg('system')" style="overflow:visible;  enable-background:new 0 0 2040.367 710.000" viewBox="0 0 2040.367 710.000" height="710.000" width="2040.367" xml:space="preserve" ewd:ver="2.1.2.9" xmlns="&ns_svg;" xmlns:a="http://ns.adobe.com/AdobeSVGViewerExtensions/3.0/" xmlns:ewd="http://shcl.co.jp/ewd" xmlns:xlink="&ns_xlink;">
<text style="&st18;" transform="matrix(&st17;  2018.97  237.2 )">W-B</text><g ewd:figtype="conn" ewd:figID="11" ewd:code="G27"><g ewd:lineID="61"><text style="&st18;" transform="matrix(&st16;  2016.01  83.07 )">GND</text></g></g><g ewd:figtype="jb" ewd:figID="25" ewd:code="2"><path style="stroke-width: 1.42 ;&st7;  " d=" M  2024.79,   129.26  L  2020.54,   129.26  " /><path style="stroke-width: 1.42 ;&st7;  " d=" M  2024.79,   120.77  L  2020.54,   120.77  " /><path style="stroke-width: 1.42 ;&st7;   " d=" M  2029.04,   125.01  C  2029.04    122.67   2027.13    120.77   2024.79    120.77  " /><path style="stroke-width: 1.42 ;&st7;   " d=" M  2024.79,   129.26  C  2027.13    129.26   2029.04    127.36   2029.04    125.01  " /><path style="stroke-width: 1.42 ;&st7;   " d=" M  2016.29,   125.01  C  2016.29    127.36   2018.19    129.26   2020.54    129.26  " /><path style="stroke-width: 1.42 ;&st7;   " d=" M  2020.54,   120.77  C  2018.19    120.77   2016.29    122.67   2016.29    125.01  " /><path style="stroke-width: 0.85 ;&st7;  " d=" M  2022.66,    86.77  L  2022.66,   120.77  " /><path style="stroke-width: 0.28 ;&st9;  " d=" M  2022.66,   115.87  L  2019.83,   113.04  L  2019.83,   117.29  L  2022.66,   120.12  L  2025.49,   117.29  L  2025.49,   113.04  L  2022.66,   115.87  " /><text style="&st18;" transform="matrix(&st16;  2016.48  94.96 )">1</text><text style="&st18;" transform="matrix(&st16;  2012.16  126.98 )">5</text><text style="&st18;" transform="matrix(&st16;  2019.66  126.98 )">2J</text></g><g ewd:figtype="gp" ewd:figID="52" ewd:code="GC"><path style="stroke-width: 0.85 ;&st7;  " d=" M  2021.24,   710.00  L  2024.08,   710.00  " /><path style="stroke-width: 0.85 ;&st7;  " d=" M  2019.83,   707.17  L  2025.49,   707.17  " /><path style="stroke-width: 0.85 ;&st7;  " d=" M  2018.41,   704.33  L  2026.91,   704.33  " /><path style="stroke-width: 0.85 ;&st7;  " d=" M  2014.16,   701.50  L  2031.16,   701.50  " /><path style="stroke-width: 0.85 ;&st7;  " d=" M  2022.66,   697.25  L  2022.66,   701.50  " /></g></svg>