﻿<?xml version="1.0" encoding="utf-8"?>
<!DOCTYPE svg PUBLIC "-//W3C//DTD SVG 1.0//EN" "http://www.w3.org/TR/2001/REC-SVG-20010904/DTD/svg10.dtd"[
	<!ENTITY ns_flows "http://ns.adobe.com/Flows/1.0/">
	<!ENTITY ns_svg "http://www.w3.org/2000/svg">
	<!ENTITY ns_xlink "http://www.w3.org/1999/xlink">
	<!ENTITY st0 "font-size:7px;font-family:'MS-PGothic';adobe-font-script:japanese;">
	<!ENTITY st1 "font-size:6px;font-family:'ArialMT';">
	<!-- White fill  -->
	<!ENTITY st2 "fill:#FFFFFF;stroke:#000000; stroke-width:1.41;stroke-linecap:round;stroke-linejoin:round;">
	<!-- Yellow fill  -->
	<!ENTITY st3 "fill:#FFFFCC;stroke:#FFFFCC; stroke-width:0.1;stroke-linecap:round;stroke-linejoin:round;">
	<!-- Gray fill  -->
	<!ENTITY st4 "fill:#CCCCCC;stroke:#CCCCCC; stroke-width:0.1;stroke-linecap:round;stroke-linejoin:round;">
	<!-- Light-blue fill -->
	<!ENTITY st5 "fill:#CCECF4;stroke:#000000; stroke-width:1.133;stroke-linecap:round;stroke-linejoin:round;">
	<!ENTITY st6 "fill:none;stroke-linecap:butt; stroke-linejoin:round;">
	<!ENTITY st7 "fill:none;stroke:#000000;stroke-linecap:round;stroke-linejoin:round;">
	<!ENTITY st8 "enable-background:new    ;">
	<!-- Black fill -->
	<!ENTITY st9 "fill:#000000;stroke:#000000; stroke-linecap:round;stroke-linejoin:round;">
	<!-- SRS note   -->
	<!ENTITY st10 "font-size:9px;font-family:'ArialMT';">
	<!ENTITY st11 "font-size:9px;font-family:'Svg Symbol';">
	<!ENTITY st12 "font-size:6px;font-family:'Svg Symbol';">
	<!ENTITY st13 "fill:none;stroke:#ff0000;stroke-linecap:round;stroke-linejoin:round;">
	<!-- Yellow fill  -->
	<!ENTITY st14 "fill:#FFFF00;stroke:#FFFF00; stroke-width:0.1;stroke-linecap:round;stroke-linejoin:round;">
	<!ENTITY st15 "font-size:6px;font-family:'MS-PGothic';adobe-font-script:japanese;">
	<!ENTITY st16 "1.00 0.00 0.00 1.00">
	<!ENTITY st17 "0.00 -1.00 1.00 0.00">
	<!ENTITY st18 "font-size:6px;font-family:'Arial';">
	<!ENTITY st19 "font-size:9px;font-family:'Arial';">
	<!ENTITY st20 "font-size:6px;font-family:'MS-PGothic','MS PGothic';adobe-font-script:japanese;">
	<!ENTITY st21 "font-size:7px;font-family:'MS-PGothic','MS PGothic';adobe-font-script:japanese;">
	<!ATTLIST svg
		xmlns:ewd CDATA #FIXED "http://shcl.co.jp/ewd"
		xmlns:a CDATA #FIXED "http://ns.adobe.com/AdobeSVGViewerExtensions/3.0/"
		ewd:ver CDATA #IMPLIED
	>
	<!ATTLIST a
		ewd:lineID CDATA #IMPLIED
		ewd:groupID CDATA #IMPLIED
		ewd:figtype CDATA #IMPLIED
		ewd:code CDATA #IMPLIED
		ewd:figID CDATA #IMPLIED
		ewd:pinNo CDATA #IMPLIED
		ewd:comment CDATA #IMPLIED >
	<!ATTLIST g
		ewd:lineID CDATA #IMPLIED
		ewd:groupID CDATA #IMPLIED
		ewd:figtype CDATA #IMPLIED
		ewd:code CDATA #IMPLIED
		ewd:figID CDATA #IMPLIED
		ewd:pinNo CDATA #IMPLIED
		ewd:comment CDATA #IMPLIED >
	<!ATTLIST text
		ewd:textID CDATA #IMPLIED >
	<!ATTLIST title
		ewd:textID CDATA #IMPLIED >
]>
<!-- Generator: Shintec Hozumi YS   -->
<svg onload="call_execInitLoadProc_svg('system')" style="overflow:visible;  enable-background:new 0 0 493.626 710.000" viewBox="0 0 493.626 710.000" height="710.000" width="493.626" xml:space="preserve" ewd:ver="2.1.2.9" xmlns="&ns_svg;" xmlns:a="http://ns.adobe.com/AdobeSVGViewerExtensions/3.0/" xmlns:ewd="http://shcl.co.jp/ewd" xmlns:xlink="&ns_xlink;"><script type="text/javascript" xlink:href="../../../../../system/js/ewd/fig/svgfig.js" xmlns:xlink="http://www.w3.org/1999/xlink" />
<g id="ewd_top"><a ewd:figtype="rb" style="cursor:pointer;" ewd:code="FUSE17" ewd:figID="1"><path style="fill:#CCECF4;stroke:#000000; stroke-width:0; stroke-linecap:round;stroke-linejoin:round; " d=" M    55.24,    35.78  L    55.24,    78.27  L    80.74,    78.27  L    80.74,    35.78  L    55.24,    35.78 " /></a><a ewd:figtype="conn" style="cursor:pointer;" ewd:code="A35" ewd:figID="2"><path style="fill:#CCECF4;stroke:#000000; stroke-width:1.133; stroke-linecap:round;stroke-linejoin:round; " d=" M    76.49,   205.75  L    76.49,   171.76  L    59.49,   171.76  L    59.49,   205.75  L    76.49,   205.75 " /><title ewd:textID="14">Stop Light Switch Assembly</title></a><a ewd:figtype="conn" style="cursor:pointer;" ewd:code="A45" ewd:figID="3"><path style="fill:#CCECF4;stroke:#000000; stroke-width:1.133; stroke-linecap:round;stroke-linejoin:round; " d=" M    59.49,   273.74  L    76.49,   273.74  L    76.49,   290.74  L    59.49,   290.74  L    59.49,   273.74 " /><title ewd:textID="4">No. 1 Junction Connector</title></a><a ewd:figtype="conn" style="cursor:pointer;" ewd:code="A47" ewd:figID="4"><path style="fill:#CCECF4;stroke:#000000; stroke-width:1.133; stroke-linecap:round;stroke-linejoin:round; " d=" M   135.98,   171.76  L   152.97,   171.76  L   152.97,   188.75  L   135.98,   188.75  L   135.98,   171.76 " /><title ewd:textID="5">No. 2 Junction Connector</title></a><a ewd:figtype="conn" style="cursor:pointer;" ewd:code="I3,I4" ewd:figID="5"><path style="fill:#CCECF4;stroke:#000000; stroke-width:1.133; stroke-linecap:round;stroke-linejoin:round; " d=" M   127.48,   375.72  L   492.92,   375.72  L   492.92,   503.20  L   373.94,   503.20  L   373.94,   418.22  L   127.48,   418.22  L   127.48,   375.72 " /><title ewd:textID="12">Shift Lock Control ECU (Transmission Floor Shift Assembly)</title></a><a ewd:figtype="conn" style="cursor:pointer;" ewd:code="G35" ewd:figID="6"><path style="fill:#CCECF4;stroke:#000000; stroke-width:1.133; stroke-linecap:round;stroke-linejoin:round; " d=" M   305.95,   554.19  L   305.95,   588.19  L   339.94,   588.19  L   339.94,   554.19  L   305.95,   554.19 " /><title ewd:textID="3">Key Inter Lock Solenoid</title></a><a ewd:figtype="conn" style="cursor:pointer;" ewd:code="G64,G94" ewd:figID="7"><path style="fill:#CCECF4;stroke:#000000; stroke-width:1.133; stroke-linecap:round;stroke-linejoin:round; " d=" M    59.49,   486.20  L    59.49,   503.20  L    76.49,   503.20  L    76.49,   486.20  L    59.49,   486.20 " /><title ewd:textID="10">No. 23 Junction Connector , No. 27 Junction Connector</title></a><a ewd:figtype="conn" style="cursor:pointer;" ewd:code="G56,G62" ewd:figID="8"><path style="fill:#CCECF4;stroke:#000000; stroke-width:1.133; stroke-linecap:round;stroke-linejoin:round; " d=" M   237.96,   171.76  L   237.96,   188.75  L   254.96,   188.75  L   254.96,   171.76  L   237.96,   171.76 " /><title ewd:textID="7">No. 16 Junction Connector , No. 21 Junction Connector</title></a><a ewd:figtype="jb" style="cursor:pointer;" ewd:code="2" ewd:figID="10"><path style="&st4; " d=" M   229.46,   103.77  L   229.46,    35.78  L   305.95,    35.78  L   305.95,   103.77  L   229.46,   103.77  " /></a><a ewd:figtype="jb" style="cursor:pointer;" ewd:code="2" ewd:figID="11"><path style="&st4; " d=" M    50.99,   350.23  L    50.99,   401.22  L    76.49,   401.22  L    76.49,   350.23  L    50.99,   350.23  " /></a><a ewd:figtype="jb" style="cursor:pointer;" ewd:code="2" ewd:figID="12"><path style="&st4; " d=" M   127.48,   112.27  L   195.47,   112.27  L   195.47,    35.78  L   127.48,    35.78  L   127.48,   112.27  " /></a><a ewd:figtype="fuse" style="cursor:pointer;" ewd:code="FUSE17" ewd:figID="22"><path style="&st7; stroke-width:0;" d=" M    55.24,    35.78  L    55.24,    78.27  L    80.74,    78.27  L    80.74,    35.78  L    55.24,    35.78 " /></a><a ewd:figtype="fuse" style="cursor:pointer;" ewd:code="FUSE48" ewd:figID="23"><path style="&st7; stroke-width:0;" d=" M   131.73,    35.78  L   131.73,    78.27  L   157.22,    78.27  L   157.22,    35.78  L   131.73,    35.78 " /></a><a ewd:figtype="fuse" style="cursor:pointer;" ewd:code="FUSE52" ewd:figID="24"><path style="&st7; stroke-width:0;" d=" M   233.71,    35.78  L   233.71,    78.27  L   259.21,    78.27  L   259.21,    35.78  L   233.71,    35.78 " /></a><a style="cursor:pointer;" ewd:lineID="1"><path style="stroke:#56077D;stroke-width: 5.10 ;&st6;" d=" M    67.99,   521.33  L    67.99,   554.19  L   144.48,   554.19  L   144.48,   500.93  " /></a><a style="cursor:pointer;" ewd:lineID="2"><path style="stroke:#00A0C6;stroke-width: 5.10 ;&st6;" d=" M    67.99,   401.22  L    67.99,   468.07  " /></a><a style="cursor:pointer;" ewd:lineID="3"><path style="stroke:#C3AF96;stroke-width: 5.10 ;&st6;" d=" M    67.99,   299.80  L    67.99,   350.23  " /></a><a style="cursor:pointer;" ewd:lineID="4"><path style="stroke:#008837;stroke-width: 5.10 ;&st6;" d=" M    67.99,   205.75  L    67.99,   264.67  " /></a><a style="cursor:pointer;" ewd:lineID="5"><path style="stroke:#000000;stroke-width: 5.10 ;&st6;" d=" M    67.99,   103.77  L    67.99,   171.76  " /></a><a style="cursor:pointer;" ewd:lineID="6"><path style="stroke:#56077D;stroke-width: 5.10 ;&st6;" d=" M   144.48,   436.35  L   144.48,   486.20  " /></a><a style="cursor:pointer;" ewd:lineID="7"><path style="stroke:#000000;stroke-width: 5.10 ;&st6;" d=" M   144.48,   324.73  L   144.48,   357.59  " /></a><a style="cursor:pointer;" ewd:lineID="8"><path style="stroke:#000000;stroke-width: 5.10 ;&st6;" d=" M   144.48,   262.97  L   144.48,   310.00  " /></a><a style="cursor:pointer;" ewd:lineID="9"><path style="stroke:#C3AF96;stroke-width: 5.10 ;&st6;" d=" M   144.48,   188.75  L   144.48,   248.24  " /></a><a style="cursor:pointer;" ewd:lineID="10"><path style="stroke:#008837;stroke-width: 5.10 ;&st6;" d=" M   144.48,   171.76  L   144.48,   112.27  " /></a><a style="cursor:pointer;" ewd:lineID="11"><path style="stroke:#000000;stroke-width: 5.10 ;&st6;" d=" M   246.46,   500.93  L   246.46,   681.67  " /><path style="stroke:#FFFFFF;stroke-width: 4.53 ;&st6;" d=" M   246.46,   500.93  L   246.46,   681.67  " /><path style="stroke:#000000;stroke-width: 1.13 ;&st6;" d=" M   246.46,   500.93  L   246.46,   681.67  " /></a><a style="cursor:pointer;" ewd:lineID="12"><path style="stroke:#000000;stroke-width: 5.10 ;&st6;" d=" M   246.46,   436.35  L   246.46,   486.20  " /><path style="stroke:#FFFFFF;stroke-width: 4.53 ;&st6;" d=" M   246.46,   436.35  L   246.46,   486.20  " /><path style="stroke:#000000;stroke-width: 1.13 ;&st6;" d=" M   246.46,   436.35  L   246.46,   486.20  " /></a><a ewd:comment="2" style="cursor:pointer;" ewd:lineID="13"><path style="stroke:#999999;stroke-width: 5.10 ;&st6;" d=" M   246.46,   324.73  L   246.46,   366.66  " /></a><a ewd:comment="2" style="cursor:pointer;" ewd:lineID="14"><path style="stroke:#999999;stroke-width: 5.10 ;&st6;" d=" M   246.46,   310.00  L   246.46,   206.88  " /></a><a ewd:comment="2" style="cursor:pointer;" ewd:lineID="15"><path style="stroke:#999999;stroke-width: 5.10 ;&st6;" d=" M   246.46,   103.77  L   246.46,   153.63  " /></a><a ewd:comment="2" style="cursor:pointer;" ewd:lineID="16"><path style="stroke:#000000;stroke-width: 5.10 ;&st6;" d=" M   322.95,   588.19  L   322.95,   681.67  " /><path style="stroke:#FFFFFF;stroke-width: 4.53 ;&st6;" d=" M   322.95,   588.19  L   322.95,   681.67  " /><path style="stroke:#000000;stroke-width: 1.13 ;&st6;" d=" M   322.95,   588.19  L   322.95,   681.67  " /></a><a ewd:comment="2" style="cursor:pointer;" ewd:lineID="17"><path style="stroke:#99D9E8;stroke-width: 5.10 ;&st6;" d=" M   322.95,   500.93  L   322.95,   554.19  " /></a><a ewd:comment="2" style="cursor:pointer;" ewd:lineID="18"><path style="stroke:#99D9E8;stroke-width: 5.10 ;&st6;" d=" M   322.95,   427.28  L   322.95,   486.20  " /></a><a ewd:comment="2" style="cursor:pointer;" ewd:lineID="19"><path style="stroke:#000000;stroke-width: 5.10 ;&st6;" d=" M   365.44,   681.67  L   365.44,   605.18  L   331.44,   605.18  L   322.95,   596.69  L   322.95,   588.19  " /><path style="stroke:#FFFFFF;stroke-width: 4.53 ;&st6;" d=" M   365.44,   681.67  L   365.44,   605.18  L   331.44,   605.18  L   322.95,   596.69  L   322.95,   588.19  " /><path style="stroke:#000000;stroke-width: 1.13 ;&st6;" d=" M   365.44,   681.67  L   365.44,   605.18  L   331.44,   605.18  L   322.95,   596.69  L   322.95,   588.19  " /></a><a ewd:figtype="w2w" style="cursor:pointer;" ewd:pinNo="15" ewd:code="IG1" ewd:figID="13"><path style="&st2;" d=" M   152.97,   486.20  L   135.98,   486.20  L   135.98,   494.70  L   152.97,   494.70  L   152.97,   486.20 " /><text style="&st8;" transform="matrix(&st16;  139.96  492.57 )"><tspan x="0" style="&st18;" y="0">IG1</tspan></text></a><a ewd:figtype="w2w" style="cursor:pointer;" ewd:pinNo="16" ewd:code="IG1" ewd:figID="14"><path style="&st2;" d=" M   152.97,   316.23  L   135.98,   316.23  L   135.98,   324.73  L   152.97,   324.73  L   152.97,   316.23 " /><text style="&st8;" transform="matrix(&st16;  139.96  322.6 )"><tspan x="0" style="&st18;" y="0">IG1</tspan></text></a><a ewd:figtype="w2w" style="cursor:pointer;" ewd:pinNo="21" ewd:code="AG7" ewd:figID="15"><path style="&st2;" d=" M   152.97,   248.24  L   135.98,   248.24  L   135.98,   256.74  L   152.97,   256.74  L   152.97,   248.24 " /><text style="&st8;" transform="matrix(&st16;  138.83  254.61 )"><tspan x="0" style="&st18;" y="0">AG7</tspan></text></a><a ewd:figtype="w2w" style="cursor:pointer;" ewd:pinNo="3" ewd:code="IG1" ewd:figID="16"><path style="&st2;" d=" M   254.96,   486.20  L   237.96,   486.20  L   237.96,   494.70  L   254.96,   494.70  L   254.96,   486.20 " /><text style="&st8;" transform="matrix(&st16;  241.94  492.57 )"><tspan x="0" style="&st18;" y="0">IG1</tspan></text></a><a ewd:figtype="w2w" style="cursor:pointer;" ewd:pinNo="23" ewd:code="IG1" ewd:figID="17"><path style="&st2;" d=" M   254.96,   316.23  L   237.96,   316.23  L   237.96,   324.73  L   254.96,   324.73  L   254.96,   316.23 " /><text style="&st8;" transform="matrix(&st16;  241.94  322.6 )"><tspan x="0" style="&st18;" y="0">IG1</tspan></text></a><a ewd:figtype="w2w" style="cursor:pointer;" ewd:pinNo="13" ewd:code="IG1" ewd:figID="18"><path style="&st2;" d=" M   331.44,   486.20  L   314.45,   486.20  L   314.45,   494.70  L   331.44,   494.70  L   331.44,   486.20 " /><text style="&st8;" transform="matrix(&st16;  318.43  492.57 )"><tspan x="0" style="&st18;" y="0">IG1</tspan></text></a><a ewd:figtype="gp" style="cursor:pointer;" ewd:code="GC" ewd:figID="19"><path style="&st2;" d=" M   235.84,   681.67  L   257.08,   681.67  L   246.46,   697.25  L   235.84,   681.67 " /><text style="&st8;" transform="matrix(&st16;  242.21  689.46 )"><tspan x="0" style="&st18;" y="0">GC</tspan></text></a><a ewd:figtype="gp" style="cursor:pointer;" ewd:code="GE" ewd:figID="20"><path style="&st2;" d=" M   312.32,   681.67  L   333.57,   681.67  L   322.95,   697.25  L   312.32,   681.67 " /><text style="&st8;" transform="matrix(&st16;  319.0  689.46 )"><tspan x="0" style="&st18;" y="0">GE</tspan></text></a><a ewd:figtype="gp" style="cursor:pointer;" ewd:code="GA" ewd:figID="21"><path style="&st2;" d=" M   354.82,   681.67  L   376.06,   681.67  L   365.44,   697.25  L   354.82,   681.67 " /><text style="&st8;" transform="matrix(&st16;  361.3  689.46 )"><tspan x="0" style="&st18;" y="0">GA</tspan></text></a></g></svg>