﻿<?xml version="1.0" encoding="utf-8"?>
<!DOCTYPE svg PUBLIC "-//W3C//DTD SVG 1.0//EN" "http://www.w3.org/TR/2001/REC-SVG-20010904/DTD/svg10.dtd"[
	<!ENTITY ns_flows "http://ns.adobe.com/Flows/1.0/">
	<!ENTITY ns_svg "http://www.w3.org/2000/svg">
	<!ENTITY ns_xlink "http://www.w3.org/1999/xlink">
	<!ENTITY st0 "font-size:7px;font-family:'MS-PGothic';adobe-font-script:japanese;">
	<!ENTITY st1 "font-size:6px;font-family:'ArialMT';">
	<!-- White fill  -->
	<!ENTITY st2 "fill:#FFFFFF;stroke:#000000; stroke-width:1.41;stroke-linecap:round;stroke-linejoin:round;">
	<!-- Yellow fill  -->
	<!ENTITY st3 "fill:#FFFFCC;stroke:#FFFFCC; stroke-width:0.1;stroke-linecap:round;stroke-linejoin:round;">
	<!-- Gray fill  -->
	<!ENTITY st4 "fill:#CCCCCC;stroke:#CCCCCC; stroke-width:0.1;stroke-linecap:round;stroke-linejoin:round;">
	<!-- Light-blue fill -->
	<!ENTITY st5 "fill:#CCECF4;stroke:#000000; stroke-width:1.133;stroke-linecap:round;stroke-linejoin:round;">
	<!ENTITY st6 "fill:none;stroke-linecap:butt; stroke-linejoin:round;">
	<!ENTITY st7 "fill:none;stroke:#000000;stroke-linecap:round;stroke-linejoin:round;">
	<!ENTITY st8 "enable-background:new    ;">
	<!-- Black fill -->
	<!ENTITY st9 "fill:#000000;stroke:#000000; stroke-linecap:round;stroke-linejoin:round;">
	<!-- SRS note   -->
	<!ENTITY st10 "font-size:9px;font-family:'ArialMT';">
	<!ENTITY st11 "font-size:9px;font-family:'Svg Symbol';">
	<!ENTITY st12 "font-size:6px;font-family:'Svg Symbol';">
	<!ENTITY st13 "fill:none;stroke:#ff0000;stroke-linecap:round;stroke-linejoin:round;">
	<!-- Yellow fill  -->
	<!ENTITY st14 "fill:#FFFF00;stroke:#FFFF00; stroke-width:0.1;stroke-linecap:round;stroke-linejoin:round;">
	<!ENTITY st15 "font-size:6px;font-family:'MS-PGothic';adobe-font-script:japanese;">
	<!ENTITY st16 "1.00 0.00 0.00 1.00">
	<!ENTITY st17 "0.00 -1.00 1.00 0.00">
	<!ENTITY st18 "font-size:6px;font-family:'Arial';">
	<!ENTITY st19 "font-size:9px;font-family:'Arial';">
	<!ENTITY st20 "font-size:6px;font-family:'MS-PGothic','MS PGothic';adobe-font-script:japanese;">
	<!ENTITY st21 "font-size:7px;font-family:'MS-PGothic','MS PGothic';adobe-font-script:japanese;">
	<!ATTLIST svg
		xmlns:ewd CDATA #FIXED "http://shcl.co.jp/ewd"
		xmlns:a CDATA #FIXED "http://ns.adobe.com/AdobeSVGViewerExtensions/3.0/"
		ewd:ver CDATA #IMPLIED
	>
	<!ATTLIST a
		ewd:lineID CDATA #IMPLIED
		ewd:groupID CDATA #IMPLIED
		ewd:figtype CDATA #IMPLIED
		ewd:code CDATA #IMPLIED
		ewd:figID CDATA #IMPLIED
		ewd:pinNo CDATA #IMPLIED
		ewd:comment CDATA #IMPLIED >
	<!ATTLIST g
		ewd:lineID CDATA #IMPLIED
		ewd:groupID CDATA #IMPLIED
		ewd:figtype CDATA #IMPLIED
		ewd:code CDATA #IMPLIED
		ewd:figID CDATA #IMPLIED
		ewd:pinNo CDATA #IMPLIED
		ewd:comment CDATA #IMPLIED >
	<!ATTLIST text
		ewd:textID CDATA #IMPLIED >
	<!ATTLIST title
		ewd:textID CDATA #IMPLIED >
]>
<!-- Generator: Shintec Hozumi YS   -->
<svg onload="call_execInitLoadProc_svg('system')" style="overflow:visible;  enable-background:new 0 0 1856.063 710.000" viewBox="0 0 1856.063 710.000" height="710.000" width="1856.063" xml:space="preserve" ewd:ver="2.1.2.9" xmlns="&ns_svg;" xmlns:a="http://ns.adobe.com/AdobeSVGViewerExtensions/3.0/" xmlns:ewd="http://shcl.co.jp/ewd" xmlns:xlink="&ns_xlink;"><script type="text/javascript" xlink:href="../../../../../system/js/ewd/fig/svgfig.js" xmlns:xlink="http://www.w3.org/1999/xlink" />
<g id="ewd_top"><a ewd:figtype="conn" style="cursor:pointer;" ewd:code="G61,G108" ewd:figID="1"><path style="fill:#CCECF4;stroke:#000000; stroke-width:1.133; stroke-linecap:round;stroke-linejoin:round; " d=" M   297.45,   205.75  L   390.93,   205.75  L   390.93,   222.75  L   297.45,   222.75  L   297.45,   205.75 " /><title ewd:textID="24">No. 40 Junction Connector , No. 20 Junction Connector</title></a><a ewd:figtype="conn" style="cursor:pointer;" ewd:code="G9,G10,G11" ewd:figID="2"><path style="fill:#CCECF4;stroke:#000000; stroke-width:1.133; stroke-linecap:round;stroke-linejoin:round; " d=" M   263.46,   282.24  L   263.46,   452.21  L   917.85,   452.21  L   917.85,   282.24  L   263.46,   282.24 " /><title ewd:textID="6">Combination Meter Assembly</title></a><a ewd:figtype="rb" style="cursor:pointer;" ewd:code="FUSE9" ewd:figID="3"><path style="fill:#CCECF4;stroke:#000000; stroke-width:0; stroke-linecap:round;stroke-linejoin:round; " d=" M    46.74,    35.78  L    46.74,    78.27  L    72.24,    78.27  L    72.24,    35.78  L    46.74,    35.78 " /></a><a ewd:figtype="rb" style="cursor:pointer;" ewd:code="FUSE67" ewd:figID="4"><path style="fill:#CCECF4;stroke:#000000; stroke-width:0; stroke-linecap:round;stroke-linejoin:round; " d=" M   369.69,    35.78  L   369.69,    78.27  L   395.18,    78.27  L   395.18,    35.78  L   369.69,    35.78 " /></a><a ewd:figtype="rb" style="cursor:pointer;" ewd:code="FUSE9" ewd:figID="5"><path style="fill:#CCECF4;stroke:#000000; stroke-width:0; stroke-linecap:round;stroke-linejoin:round; " d=" M   454.67,    35.78  L   454.67,    78.27  L   480.17,    78.27  L   480.17,    35.78  L   454.67,    35.78 " /></a><a ewd:figtype="conn" style="cursor:pointer;" ewd:code="H3" ewd:figID="6"><path style="fill:#CCECF4;stroke:#000000; stroke-width:1.133; stroke-linecap:round;stroke-linejoin:round; " d=" M    42.49,   435.21  L    42.49,   486.20  L   220.96,   486.20  L   220.96,   435.21  L    42.49,   435.21 " /><title ewd:textID="5">Clock Assembly</title></a><a ewd:figtype="conn" style="cursor:pointer;" ewd:code="G57,G102" ewd:figID="7"><path style="fill:#CCECF4;stroke:#000000; stroke-width:1.133; stroke-linecap:round;stroke-linejoin:round; " d=" M  1104.82,   163.26  L  1223.80,   163.26  L  1223.80,   180.26  L  1104.82,   180.26  L  1104.82,   163.26 " /><title ewd:textID="22">No. 35 Junction Connector , No. 17 Junction Connector</title></a><a ewd:figtype="conn" style="cursor:pointer;" ewd:code="J3" ewd:figID="8"><path style="fill:#CCECF4;stroke:#000000; stroke-width:1.133; stroke-linecap:round;stroke-linejoin:round; " d=" M  1096.32,   477.71  L  1138.81,   477.71  L  1138.81,   426.71  L  1096.32,   426.71  L  1096.32,   477.71 " /><title ewd:textID="26">Outer Rear View Mirror Assembly RH</title></a><a ewd:figtype="conn" style="cursor:pointer;" ewd:code="A29" ewd:figID="9"><path style="fill:#CCECF4;stroke:#000000; stroke-width:1.133; stroke-linecap:round;stroke-linejoin:round; " d=" M  1189.80,   426.71  L  1232.29,   426.71  L  1232.29,   477.71  L  1189.80,   477.71  L  1189.80,   426.71 " /><title ewd:textID="9">Headlight Assembly RH</title></a><a ewd:figtype="conn" style="cursor:pointer;" ewd:code="A51" ewd:figID="10"><path style="fill:#CCECF4;stroke:#000000; stroke-width:1.133; stroke-linecap:round;stroke-linejoin:round; " d=" M  1206.80,   656.18  L  1206.80,   673.17  L  1308.78,   673.17  L  1308.78,   656.18  L  1206.80,   656.18 " /><title ewd:textID="13">No. 3 Ground Junction Connector</title></a><a ewd:figtype="conn" style="cursor:pointer;" ewd:code="O1" ewd:figID="11"><path style="fill:#CCECF4;stroke:#000000; stroke-width:1.133; stroke-linecap:round;stroke-linejoin:round; " d=" M  1359.77,   426.71  L  1402.27,   426.71  L  1402.27,   477.71  L  1359.77,   477.71  L  1359.77,   426.71 " /><title ewd:textID="28">Rear Combination Light Assembly RH</title></a><a ewd:figtype="conn" style="cursor:pointer;" ewd:code="O2" ewd:figID="12"><path style="fill:#CCECF4;stroke:#000000; stroke-width:1.133; stroke-linecap:round;stroke-linejoin:round; " d=" M  1444.76,   426.71  L  1487.25,   426.71  L  1487.25,   477.71  L  1444.76,   477.71  L  1444.76,   426.71 " /><title ewd:textID="27">Rear Combination Light Assembly LH</title></a><a ewd:figtype="conn" style="cursor:pointer;" ewd:code="A30" ewd:figID="13"><path style="fill:#CCECF4;stroke:#000000; stroke-width:1.133; stroke-linecap:round;stroke-linejoin:round; " d=" M  1614.73,   426.71  L  1657.22,   426.71  L  1657.22,   477.71  L  1614.73,   477.71  L  1614.73,   426.71 " /><title ewd:textID="8">Headlight Assembly LH</title></a><a ewd:figtype="conn" style="cursor:pointer;" ewd:code="K3" ewd:figID="14"><path style="fill:#CCECF4;stroke:#000000; stroke-width:1.133; stroke-linecap:round;stroke-linejoin:round; " d=" M  1793.20,   477.71  L  1835.69,   477.71  L  1835.69,   426.71  L  1793.20,   426.71  L  1793.20,   477.71 " /><title ewd:textID="25">Outer Rear View Mirror Assembly LH</title></a><a ewd:figtype="conn" style="cursor:pointer;" ewd:code="A49" ewd:figID="15"><path style="fill:#CCECF4;stroke:#000000; stroke-width:1.133; stroke-linecap:round;stroke-linejoin:round; " d=" M  1631.73,   656.18  L  1631.73,   673.17  L  1733.71,   673.17  L  1733.71,   656.18  L  1631.73,   656.18 " /><title ewd:textID="12">No. 1 Ground Junction Connector</title></a><a ewd:figtype="conn" style="cursor:pointer;" ewd:code="G3" ewd:figID="16"><path style="fill:#CCECF4;stroke:#000000; stroke-width:1.133; stroke-linecap:round;stroke-linejoin:round; " d=" M   722.38,   503.20  L   722.38,   605.18  L   858.36,   605.18  L   858.36,   503.20  L   722.38,   503.20 " /><title ewd:textID="10">Headlight Dimmer Switch Assembly</title></a><a ewd:figtype="conn" style="cursor:pointer;" ewd:code="G50,G94" ewd:figID="17"><path style="fill:#CCECF4;stroke:#000000; stroke-width:1.133; stroke-linecap:round;stroke-linejoin:round; " d=" M    50.99,   256.74  L    67.99,   256.74  L    67.99,   273.74  L    50.99,   273.74  L    50.99,   256.74 " /><title ewd:textID="15">No. 10 Junction Connector , No. 27 Junction Connector</title></a><a ewd:figtype="conn" style="cursor:pointer;" ewd:code="G54,G102" ewd:figID="18"><path style="fill:#CCECF4;stroke:#000000; stroke-width:1.133; stroke-linecap:round;stroke-linejoin:round; " d=" M   195.47,   256.74  L   212.46,   256.74  L   212.46,   273.74  L   195.47,   273.74  L   195.47,   256.74 " /><title ewd:textID="21">No. 35 Junction Connector , No. 14 Junction Connector</title></a><a ewd:figtype="conn" style="cursor:pointer;" ewd:code="G50,G94" ewd:figID="19"><path style="fill:#CCECF4;stroke:#000000; stroke-width:1.133; stroke-linecap:round;stroke-linejoin:round; " d=" M   458.92,   205.75  L   475.92,   205.75  L   475.92,   222.75  L   458.92,   222.75  L   458.92,   205.75 " /><title ewd:textID="15">No. 10 Junction Connector , No. 27 Junction Connector</title></a><a ewd:figtype="conn" style="cursor:pointer;" ewd:code="A31" ewd:figID="20"><path style="fill:#CCECF4;stroke:#000000; stroke-width:1.133; stroke-linecap:round;stroke-linejoin:round; " d=" M  1308.78,   452.21  L  1308.78,   452.21  C  1308.78    447.48   1304.95    443.66   1300.22    443.66  L  1300.22,   443.66  C  1295.50    443.66   1291.67    447.49   1291.67    452.21  L  1291.67,   452.21  C  1291.67    456.94   1295.50    460.77   1300.23    460.77  L  1300.23,   460.77  C  1304.95    460.77   1308.78    456.94   1308.78    452.21 " /><title ewd:textID="30">Side Turn Signal Light Assembly RH</title></a><a ewd:figtype="conn" style="cursor:pointer;" ewd:code="A32" ewd:figID="21"><path style="fill:#CCECF4;stroke:#000000; stroke-width:1.133; stroke-linecap:round;stroke-linejoin:round; " d=" M  1733.71,   452.21  L  1733.71,   452.21  C  1733.71    447.48   1729.88    443.66   1725.15    443.66  L  1725.15,   443.66  C  1720.43    443.66   1716.60    447.49   1716.60    452.21  L  1716.60,   452.21  C  1716.60    456.94   1720.43    460.77   1725.16    460.77  L  1725.16,   460.77  C  1729.88    460.77   1733.71    456.94   1733.71    452.21 " /><title ewd:textID="29">Side Turn Signal Light Assembly LH</title></a><a ewd:figtype="jb" style="cursor:pointer;" ewd:code="2" ewd:figID="25"><path style="&st4; " d=" M   756.37,    35.78  L   756.37,   103.77  L   824.36,   103.77  L   824.36,    35.78  L   756.37,    35.78  " /></a><a ewd:figtype="jb" style="cursor:pointer;" ewd:code="2" ewd:figID="26"><path style="&st4; " d=" M   671.39,    35.78  L   671.39,   103.77  L   730.88,   103.77  L   730.88,    35.78  L   671.39,    35.78  " /></a><a ewd:figtype="jb" style="cursor:pointer;" ewd:code="2" ewd:figID="27"><path style="&st4; " d=" M  1198.30,   248.24  L  1198.30,   299.24  L  1818.70,   299.24  L  1818.70,   248.24  L  1198.30,   248.24  " /></a><a ewd:figtype="fuse" style="cursor:pointer;" ewd:code="FUSE9" ewd:figID="52"><path style="&st7; stroke-width:0;" d=" M    46.74,    35.78  L    46.74,    78.27  L    72.24,    78.27  L    72.24,    35.78  L    46.74,    35.78 " /></a><a ewd:figtype="fuse" style="cursor:pointer;" ewd:code="FUSE67" ewd:figID="53"><path style="&st7; stroke-width:0;" d=" M   369.69,    35.78  L   369.69,    78.27  L   395.18,    78.27  L   395.18,    35.78  L   369.69,    35.78 " /></a><a ewd:figtype="fuse" style="cursor:pointer;" ewd:code="FUSE9" ewd:figID="54"><path style="&st7; stroke-width:0;" d=" M   454.67,    35.78  L   454.67,    78.27  L   480.17,    78.27  L   480.17,    35.78  L   454.67,    35.78 " /></a><a ewd:figtype="fuse" style="cursor:pointer;" ewd:code="FUSE42" ewd:figID="55"><path style="&st7; stroke-width:0;" d=" M   675.64,    35.78  L   675.64,    78.27  L   701.13,    78.27  L   701.13,    35.78  L   675.64,    35.78 " /></a><a ewd:figtype="fuse" style="cursor:pointer;" ewd:code="FUSE54" ewd:figID="56"><path style="&st7; stroke-width:0;" d=" M   760.62,    35.78  L   760.62,    78.27  L   786.12,    78.27  L   786.12,    35.78  L   760.62,    35.78 " /></a><a style="cursor:pointer;" ewd:lineID="1"> d=" M    59.49,   365.24  L    59.49,   435.21 
	
		<path style="stroke:#000000;stroke-width: 5.10 ;&st6;" d=" M    59.49,   365.24  L    59.49,   435.21  " /><path style="stroke:#FFFFFF;stroke-width: 4.53 ;&st6;" d=" M    59.49,   365.24  L    59.49,   435.21  " /></a><a style="cursor:pointer;" ewd:lineID="2"> d=" M    59.49,   350.23  L    59.49,   291.87 
	
		<path style="stroke:#000000;stroke-width: 5.10 ;&st6;" d=" M    59.49,   350.23  L    59.49,   291.87  " /><path style="stroke:#FFFFFF;stroke-width: 4.53 ;&st6;" d=" M    59.49,   350.23  L    59.49,   291.87  " /></a><a style="cursor:pointer;" ewd:lineID="3"> d=" M    59.49,   186.77  L    59.49,   238.61 
	
		<path style="stroke:#000000;stroke-width: 5.10 ;&st6;" d=" M    59.49,   186.77  L    59.49,   238.61  " /><path style="stroke:#FFFFFF;stroke-width: 4.53 ;&st6;" d=" M    59.49,   186.77  L    59.49,   238.61  " /></a><a style="cursor:pointer;" ewd:lineID="4"><path style="stroke:#999999;stroke-width: 5.10 ;&st6;" d=" M    59.49,   103.77  L    59.49,   171.76  " /></a><a style="cursor:pointer;" ewd:lineID="5"><path style="stroke:#000000;stroke-width: 5.10 ;&st6;" d=" M   135.98,   562.69  L   135.98,   664.67  L   271.95,   664.67  L   280.45,   673.17  L   280.45,   681.67  " /><path style="stroke:#FFFFFF;stroke-width: 4.53 ;&st6;" d=" M   135.98,   562.69  L   135.98,   664.67  L   271.95,   664.67  L   280.45,   673.17  L   280.45,   681.67  " /><path style="stroke:#000000;stroke-width: 1.13 ;&st6;" d=" M   135.98,   562.69  L   135.98,   664.67  L   271.95,   664.67  L   280.45,   673.17  L   280.45,   681.67  " /></a><a style="cursor:pointer;" ewd:lineID="6"><path style="stroke:#000000;stroke-width: 5.10 ;&st6;" d=" M   135.98,   486.20  L   135.98,   547.96  " /><path style="stroke:#FFFFFF;stroke-width: 4.53 ;&st6;" d=" M   135.98,   486.20  L   135.98,   547.96  " /><path style="stroke:#000000;stroke-width: 1.13 ;&st6;" d=" M   135.98,   486.20  L   135.98,   547.96  " /></a><a style="cursor:pointer;" ewd:lineID="7"><path style="stroke:#008837;stroke-width: 5.10 ;&st6;" d=" M   135.98,   364.96  L   135.98,   435.21  " /></a><a style="cursor:pointer;" ewd:lineID="8"><path style="stroke:#008837;stroke-width: 5.10 ;&st6;" d=" M   135.98,   350.23  L   135.98,   163.26  L   305.95,   163.26  L   305.95,   187.62  " /></a><a style="cursor:pointer;" ewd:lineID="9"><path style="stroke:#99D9E8;stroke-width: 5.10 ;&st6;" d=" M   203.97,   364.96  L   203.97,   435.21  " /></a><a style="cursor:pointer;" ewd:lineID="10"><path style="stroke:#99D9E8;stroke-width: 5.10 ;&st6;" d=" M   203.97,   350.23  L   203.97,   291.87  " /></a><a ewd:comment="5" style="cursor:pointer;" ewd:lineID="11"><path style="stroke:#000000;stroke-width: 5.10 ;&st6;" d=" M   280.45,   461.27  L   280.45,   681.67  " /><path style="stroke:#FFFFFF;stroke-width: 4.53 ;&st6;" d=" M   280.45,   461.27  L   280.45,   681.67  " /><path style="stroke:#000000;stroke-width: 1.13 ;&st6;" d=" M   280.45,   461.27  L   280.45,   681.67  " /></a><a style="cursor:pointer;" ewd:lineID="12"><path style="stroke:#99D9E8;stroke-width: 5.10 ;&st6;" d=" M   280.45,   273.17  L   280.45,   180.26  L   203.97,   180.26  L   203.97,   238.61  " /></a><a style="cursor:pointer;" ewd:lineID="13"><path style="stroke:#999999;stroke-width: 5.10 ;&st6;" d=" M   382.44,   273.17  L   382.44,   240.88  " /></a><a style="cursor:pointer;" ewd:lineID="14"><path style="stroke:#999999;stroke-width: 5.10 ;&st6;" d=" M   382.44,   103.77  L   382.44,   187.62  " /></a><a style="cursor:pointer;" ewd:lineID="15"> d=" M   467.42,   273.17  L   467.42,   240.88 
	
		<path style="stroke:#000000;stroke-width: 5.10 ;&st6;" d=" M   467.42,   273.17  L   467.42,   240.88  " /><path style="stroke:#FFFFFF;stroke-width: 4.53 ;&st6;" d=" M   467.42,   273.17  L   467.42,   240.88  " /></a><a style="cursor:pointer;" ewd:lineID="16"> d=" M   467.42,   152.78  L   467.42,   187.62 
	
		<path style="stroke:#000000;stroke-width: 5.10 ;&st6;" d=" M   467.42,   152.78  L   467.42,   187.62  " /><path style="stroke:#FFFFFF;stroke-width: 4.53 ;&st6;" d=" M   467.42,   152.78  L   467.42,   187.62  " /></a><a style="cursor:pointer;" ewd:lineID="17"><path style="stroke:#999999;stroke-width: 5.10 ;&st6;" d=" M   467.42,   103.77  L   467.42,   137.76  " /></a><a style="cursor:pointer;" ewd:lineID="18"><path style="stroke:#000000;stroke-width: 5.10 ;&st6;" d=" M   637.39,   681.67  L   637.39,   477.71  L   671.39,   477.71  L   679.89,   469.21  L   679.89,   461.27  " /><path style="stroke:#FFFFFF;stroke-width: 4.53 ;&st6;" d=" M   637.39,   681.67  L   637.39,   477.71  L   671.39,   477.71  L   679.89,   469.21  L   679.89,   461.27  " /><path style="stroke:#000000;stroke-width: 1.13 ;&st6;" d=" M   637.39,   681.67  L   637.39,   477.71  L   671.39,   477.71  L   679.89,   469.21  L   679.89,   461.27  " /></a><a style="cursor:pointer;" ewd:lineID="19"><path style="stroke:#000000;stroke-width: 5.10 ;&st6;" d=" M   679.89,   461.27  L   679.89,   681.67  " /><path style="stroke:#FFFFFF;stroke-width: 4.53 ;&st6;" d=" M   679.89,   461.27  L   679.89,   681.67  " /><path style="stroke:#000000;stroke-width: 1.13 ;&st6;" d=" M   679.89,   461.27  L   679.89,   681.67  " /></a><a style="cursor:pointer;" ewd:lineID="20"><path style="stroke:#FFE600;stroke-width: 5.10 ;&st6;" d=" M   688.38,   103.77  L   688.38,   273.17  " /></a><a style="cursor:pointer;" ewd:lineID="21"><path style="stroke:#000000;stroke-width: 5.10 ;&st6;" d=" M   756.37,   681.67  L   756.37,   639.18  L   790.37,   639.18  L   798.87,   630.68  L   798.87,   623.31  " /><path style="stroke:#FFFFFF;stroke-width: 4.53 ;&st6;" d=" M   756.37,   681.67  L   756.37,   639.18  L   790.37,   639.18  L   798.87,   630.68  L   798.87,   623.31  " /><path style="stroke:#000000;stroke-width: 1.13 ;&st6;" d=" M   756.37,   681.67  L   756.37,   639.18  L   790.37,   639.18  L   798.87,   630.68  L   798.87,   623.31  " /></a><a style="cursor:pointer;" ewd:lineID="22"><path style="stroke:#00A0C6;stroke-width: 5.10 ;&st6;" d=" M   773.37,   103.77  L   773.37,   273.17  " /></a><a style="cursor:pointer;" ewd:lineID="23"><path style="stroke:#C3AF96;stroke-width: 5.10 ;&st6;" d=" M   781.87,   461.27  L   781.87,   485.07  " /></a><a style="cursor:pointer;" ewd:lineID="24"><path style="stroke:#000000;stroke-width: 5.10 ;&st6;" d=" M   798.87,   681.67  L   798.87,   623.31  " /><path style="stroke:#FFFFFF;stroke-width: 4.53 ;&st6;" d=" M   798.87,   681.67  L   798.87,   623.31  " /><path style="stroke:#000000;stroke-width: 1.13 ;&st6;" d=" M   798.87,   681.67  L   798.87,   623.31  " /></a><a style="cursor:pointer;" ewd:lineID="25"><path style="stroke:#F668B2;stroke-width: 5.10 ;&st6;" d=" M   815.86,   461.27  L   815.86,   485.07  " /></a><a style="cursor:pointer;" ewd:lineID="26"><path style="stroke:#99D9E8;stroke-width: 5.10 ;&st6;" d=" M   892.35,   273.17  L   892.35,   112.27  L  1113.31,   112.27  L  1113.31,   145.13  " /></a><a style="cursor:pointer;" ewd:lineID="27"><path style="stroke:#FF0000;stroke-width: 5.10 ;&st6;" d=" M   900.85,   461.27  L   900.85,   647.68  L   832.86,   647.68  L   832.86,   623.31  " /></a><a ewd:comment="3" style="cursor:pointer;" ewd:lineID="28"><path style="stroke:#000000;stroke-width: 5.10 ;&st6;" d=" M  1113.31,   551.93  L  1113.31,   681.67  " /><path style="stroke:#FFFFFF;stroke-width: 4.53 ;&st6;" d=" M  1113.31,   551.93  L  1113.31,   681.67  " /><path style="stroke:#000000;stroke-width: 1.13 ;&st6;" d=" M  1113.31,   551.93  L  1113.31,   681.67  " /></a><a ewd:comment="3" style="cursor:pointer;" ewd:lineID="29"><path style="stroke:#000000;stroke-width: 5.10 ;&st6;" d=" M  1113.31,   477.71  L  1113.31,   537.20  " /><path style="stroke:#FFFFFF;stroke-width: 4.53 ;&st6;" d=" M  1113.31,   477.71  L  1113.31,   537.20  " /><path style="stroke:#000000;stroke-width: 1.13 ;&st6;" d=" M  1113.31,   477.71  L  1113.31,   537.20  " /></a><a ewd:comment="3" style="cursor:pointer;" ewd:lineID="30"><path style="stroke:#F668B2;stroke-width: 5.10 ;&st6;" d=" M  1113.31,   358.73  L  1113.31,   426.71  " /></a><a ewd:comment="3" style="cursor:pointer;" ewd:lineID="31"><path style="stroke:#99D9E8;stroke-width: 5.10 ;&st6;" d=" M  1113.31,   343.99  L  1113.31,   198.39  " /></a><a style="cursor:pointer;" ewd:lineID="32"><path style="stroke:#000000;stroke-width: 5.10 ;&st6;" d=" M  1215.30,   477.71  L  1215.30,   656.18  " /><path style="stroke:#FFFFFF;stroke-width: 4.53 ;&st6;" d=" M  1215.30,   477.71  L  1215.30,   656.18  " /><path style="stroke:#000000;stroke-width: 1.13 ;&st6;" d=" M  1215.30,   477.71  L  1215.30,   656.18  " /></a><a style="cursor:pointer;" ewd:lineID="33"><path style="stroke:#FF0000;stroke-width: 5.10 ;&st6;" d=" M  1215.30,   299.24  L  1215.30,   426.71  " /></a><a style="cursor:pointer;" ewd:lineID="34"><path style="stroke:#99D9E8;stroke-width: 5.10 ;&st6;" d=" M  1215.30,   248.24  L  1215.30,   198.39  " /></a><a ewd:comment="4" style="cursor:pointer;" ewd:lineID="35"><path style="stroke:#000000;stroke-width: 5.10 ;&st6;" d=" M  1300.28,   656.18  L  1300.28,   460.71  " /><path style="stroke:#FFFFFF;stroke-width: 4.53 ;&st6;" d=" M  1300.28,   656.18  L  1300.28,   460.71  " /><path style="stroke:#000000;stroke-width: 1.13 ;&st6;" d=" M  1300.28,   656.18  L  1300.28,   460.71  " /></a><a ewd:comment="4" style="cursor:pointer;" ewd:lineID="36"><path style="stroke:#FF0000;stroke-width: 5.10 ;&st6;" d=" M  1300.28,   299.24  L  1300.28,   443.71  " /></a><a style="cursor:pointer;" ewd:lineID="37"><path style="stroke:#000000;stroke-width: 5.10 ;&st6;" d=" M  1385.27,   477.71  L  1385.27,   528.70  L  1461.76,   528.70  " /><path style="stroke:#FFFFFF;stroke-width: 4.53 ;&st6;" d=" M  1385.27,   477.71  L  1385.27,   528.70  L  1461.76,   528.70  " /><path style="stroke:#000000;stroke-width: 1.13 ;&st6;" d=" M  1385.27,   477.71  L  1385.27,   528.70  L  1461.76,   528.70  " /></a><a style="cursor:pointer;" ewd:lineID="38"><path style="stroke:#99D9E8;stroke-width: 5.10 ;&st6;" d=" M  1385.27,   426.71  L  1385.27,   375.72  " /></a><a style="cursor:pointer;" ewd:lineID="39"><path style="stroke:#99D9E8;stroke-width: 5.10 ;&st6;" d=" M  1385.27,   299.24  L  1385.27,   360.99  " /></a><a style="cursor:pointer;" ewd:lineID="40"><path style="stroke:#000000;stroke-width: 5.10 ;&st6;" d=" M  1470.25,   594.42  L  1470.25,   681.67  " /><path style="stroke:#FFFFFF;stroke-width: 4.53 ;&st6;" d=" M  1470.25,   594.42  L  1470.25,   681.67  " /><path style="stroke:#000000;stroke-width: 1.13 ;&st6;" d=" M  1470.25,   594.42  L  1470.25,   681.67  " /></a><a style="cursor:pointer;" ewd:lineID="41"><path style="stroke:#000000;stroke-width: 5.10 ;&st6;" d=" M  1470.25,   579.69  L  1470.25,   537.20  " /><path style="stroke:#FFFFFF;stroke-width: 4.53 ;&st6;" d=" M  1470.25,   579.69  L  1470.25,   537.20  " /><path style="stroke:#000000;stroke-width: 1.13 ;&st6;" d=" M  1470.25,   579.69  L  1470.25,   537.20  " /></a><a style="cursor:pointer;" ewd:lineID="42"><path style="stroke:#000000;stroke-width: 5.10 ;&st6;" d=" M  1470.25,   477.71  L  1470.25,   520.20  " /><path style="stroke:#FFFFFF;stroke-width: 4.53 ;&st6;" d=" M  1470.25,   477.71  L  1470.25,   520.20  " /><path style="stroke:#000000;stroke-width: 1.13 ;&st6;" d=" M  1470.25,   477.71  L  1470.25,   520.20  " /></a><a style="cursor:pointer;" ewd:lineID="43"><path style="stroke:#FFE600;stroke-width: 5.10 ;&st6;" d=" M  1470.25,   426.71  L  1470.25,   375.72  " /></a><a style="cursor:pointer;" ewd:lineID="44"><path style="stroke:#FFE600;stroke-width: 5.10 ;&st6;" d=" M  1470.25,   299.24  L  1470.25,   360.99  " /></a><a style="cursor:pointer;" ewd:lineID="45"><path style="stroke:#FFE600;stroke-width: 5.10 ;&st6;" d=" M  1470.25,   248.24  L  1470.25,    95.27  L   849.86,    95.27  L   849.86,   273.17  " /></a><a style="cursor:pointer;" ewd:lineID="46"><path style="stroke:#000000;stroke-width: 5.10 ;&st6;" d=" M  1640.23,   477.71  L  1640.23,   656.18  " /><path style="stroke:#FFFFFF;stroke-width: 4.53 ;&st6;" d=" M  1640.23,   477.71  L  1640.23,   656.18  " /><path style="stroke:#000000;stroke-width: 1.13 ;&st6;" d=" M  1640.23,   477.71  L  1640.23,   656.18  " /></a><a style="cursor:pointer;" ewd:lineID="47"><path style="stroke:#FFE600;stroke-width: 5.10 ;&st6;" d=" M  1640.23,   299.24  L  1640.23,   426.71  " /></a><a ewd:comment="4" style="cursor:pointer;" ewd:lineID="48"><path style="stroke:#000000;stroke-width: 5.10 ;&st6;" d=" M  1725.21,   656.18  L  1725.21,   460.71  " /><path style="stroke:#FFFFFF;stroke-width: 4.53 ;&st6;" d=" M  1725.21,   656.18  L  1725.21,   460.71  " /><path style="stroke:#000000;stroke-width: 1.13 ;&st6;" d=" M  1725.21,   656.18  L  1725.21,   460.71  " /></a><a ewd:comment="4" style="cursor:pointer;" ewd:lineID="49"><path style="stroke:#FFE600;stroke-width: 5.10 ;&st6;" d=" M  1725.21,   299.24  L  1725.21,   443.71  " /></a><a ewd:comment="3" style="cursor:pointer;" ewd:lineID="50"><path style="stroke:#000000;stroke-width: 5.10 ;&st6;" d=" M  1810.20,   551.93  L  1810.20,   681.67  " /><path style="stroke:#FFFFFF;stroke-width: 4.53 ;&st6;" d=" M  1810.20,   551.93  L  1810.20,   681.67  " /><path style="stroke:#000000;stroke-width: 1.13 ;&st6;" d=" M  1810.20,   551.93  L  1810.20,   681.67  " /></a><a ewd:comment="3" style="cursor:pointer;" ewd:lineID="51"><path style="stroke:#000000;stroke-width: 5.10 ;&st6;" d=" M  1810.20,   477.71  L  1810.20,   537.20  " /><path style="stroke:#FFFFFF;stroke-width: 4.53 ;&st6;" d=" M  1810.20,   477.71  L  1810.20,   537.20  " /><path style="stroke:#000000;stroke-width: 1.13 ;&st6;" d=" M  1810.20,   477.71  L  1810.20,   537.20  " /></a><a ewd:comment="3" style="cursor:pointer;" ewd:lineID="52"><path style="stroke:#F668B2;stroke-width: 5.10 ;&st6;" d=" M  1810.20,   358.73  L  1810.20,   426.71  " /></a><a ewd:comment="3" style="cursor:pointer;" ewd:lineID="53"><path style="stroke:#FF0000;stroke-width: 5.10 ;&st6;" d=" M  1810.20,   299.24  L  1810.20,   343.99  " /></a><a ewd:figtype="w2w" style="cursor:pointer;" ewd:pinNo="16" ewd:code="GH1" ewd:figID="28"><path style="&st2;" d=" M    67.99,   350.23  L    50.99,   350.23  L    50.99,   358.73  L    67.99,   358.73  L    67.99,   350.23 " /><text style="&st8;" transform="matrix(&st16;  53.66  356.6 )"><tspan x="0" style="&st18;" y="0">GH1</tspan></text></a><a ewd:figtype="w2w" style="cursor:pointer;" ewd:pinNo="24" ewd:code="AG1" ewd:figID="29"><path style="&st2;" d=" M    67.99,   171.76  L    50.99,   171.76  L    50.99,   180.26  L    67.99,   180.26  L    67.99,   171.76 " /><text style="&st8;" transform="matrix(&st16;  53.85  178.13 )"><tspan x="0" style="&st18;" y="0">AG1</tspan></text></a><a ewd:figtype="w2w" style="cursor:pointer;" ewd:pinNo="9" ewd:code="GH1" ewd:figID="30"><path style="&st2;" d=" M   144.48,   554.19  L   127.48,   554.19  L   127.48,   562.69  L   144.48,   562.69  L   144.48,   554.19 " /><text style="&st8;" transform="matrix(&st16;  130.15  560.56 )"><tspan x="0" style="&st18;" y="0">GH1</tspan></text></a><a ewd:figtype="w2w" style="cursor:pointer;" ewd:pinNo="1" ewd:code="GH1" ewd:figID="31"><path style="&st2;" d=" M   144.48,   350.23  L   127.48,   350.23  L   127.48,   358.73  L   144.48,   358.73  L   144.48,   350.23 " /><text style="&st8;" transform="matrix(&st16;  130.15  356.6 )"><tspan x="0" style="&st18;" y="0">GH1</tspan></text></a><a ewd:figtype="w2w" style="cursor:pointer;" ewd:pinNo="2" ewd:code="GH1" ewd:figID="32"><path style="&st2;" d=" M   212.46,   350.23  L   195.47,   350.23  L   195.47,   358.73  L   212.46,   358.73  L   212.46,   350.23 " /><text style="&st8;" transform="matrix(&st16;  198.13  356.6 )"><tspan x="0" style="&st18;" y="0">GH1</tspan></text></a><a ewd:figtype="w2w" style="cursor:pointer;" ewd:pinNo="24" ewd:code="AG1" ewd:figID="33"><path style="&st2;" d=" M   475.92,   137.76  L   458.92,   137.76  L   458.92,   146.26  L   475.92,   146.26  L   475.92,   137.76 " /><text style="&st8;" transform="matrix(&st16;  461.78  144.13 )"><tspan x="0" style="&st18;" y="0">AG1</tspan></text></a><a ewd:figtype="w2w" style="cursor:pointer;" ewd:pinNo="17" ewd:code="JN1" ewd:figID="34"><path style="&st2;" d=" M  1121.81,   537.20  L  1104.82,   537.20  L  1104.82,   545.69  L  1121.81,   545.69  L  1121.81,   537.20 " /><text style="&st8;" transform="matrix(&st16;  1108.65  543.57 )"><tspan x="0" style="&st18;" y="0">JN1</tspan></text></a><a ewd:figtype="w2w" style="cursor:pointer;" ewd:pinNo="12" ewd:code="JG1" ewd:figID="35"><path style="&st2;" d=" M  1121.81,   350.23  L  1104.82,   350.23  L  1104.82,   358.73  L  1121.81,   358.73  L  1121.81,   350.23 " /><text style="&st8;" transform="matrix(&st16;  1108.5  356.6 )"><tspan x="0" style="&st18;" y="0">JG1</tspan></text></a><a ewd:figtype="w2w" style="cursor:pointer;" ewd:pinNo="4" ewd:code="ON3" ewd:figID="36"><path style="&st2;" d=" M  1393.77,   367.22  L  1376.77,   367.22  L  1376.77,   375.72  L  1393.77,   375.72  L  1393.77,   367.22 " /><text style="&st8;" transform="matrix(&st16;  1379.47  373.59 )"><tspan x="0" style="&st18;" y="0">ON3</tspan></text></a><a ewd:figtype="w2w" style="cursor:pointer;" ewd:pinNo="3" ewd:code="ON2" ewd:figID="37"><path style="&st2;" d=" M  1478.75,   579.69  L  1461.76,   579.69  L  1461.76,   588.19  L  1478.75,   588.19  L  1478.75,   579.69 " /><text style="&st8;" transform="matrix(&st16;  1464.46  586.06 )"><tspan x="0" style="&st18;" y="0">ON2</tspan></text></a><a ewd:figtype="w2w" style="cursor:pointer;" ewd:pinNo="1" ewd:code="ON3" ewd:figID="38"><path style="&st2;" d=" M  1478.75,   367.22  L  1461.76,   367.22  L  1461.76,   375.72  L  1478.75,   375.72  L  1478.75,   367.22 " /><text style="&st8;" transform="matrix(&st16;  1464.46  373.59 )"><tspan x="0" style="&st18;" y="0">ON3</tspan></text></a><a ewd:figtype="w2w" style="cursor:pointer;" ewd:pinNo="8" ewd:code="KN1" ewd:figID="39"><path style="&st2;" d=" M  1818.70,   537.20  L  1801.70,   537.20  L  1801.70,   545.69  L  1818.70,   545.69  L  1818.70,   537.20 " /><text style="&st8;" transform="matrix(&st16;  1804.7  543.57 )"><tspan x="0" style="&st18;" y="0">KN1</tspan></text></a><a ewd:figtype="w2w" style="cursor:pointer;" ewd:pinNo="12" ewd:code="KG1" ewd:figID="40"><path style="&st2;" d=" M  1818.70,   350.23  L  1801.70,   350.23  L  1801.70,   358.73  L  1818.70,   358.73  L  1818.70,   350.23 " /><text style="&st8;" transform="matrix(&st16;  1804.55  356.6 )"><tspan x="0" style="&st18;" y="0">KG1</tspan></text></a><a ewd:figtype="gp" style="cursor:pointer;" ewd:code="GC" ewd:figID="41"><path style="&st2;" d=" M   269.83,   681.67  L   291.08,   681.67  L   280.45,   697.25  L   269.83,   681.67 " /><text style="&st8;" transform="matrix(&st16;  276.2  689.46 )"><tspan x="0" style="&st18;" y="0">GC</tspan></text></a><a ewd:figtype="gp" style="cursor:pointer;" ewd:code="GA" ewd:figID="42"><path style="&st2;" d=" M   626.77,   681.67  L   648.02,   681.67  L   637.39,   697.25  L   626.77,   681.67 " /><text style="&st8;" transform="matrix(&st16;  633.25  689.46 )"><tspan x="0" style="&st18;" y="0">GA</tspan></text></a><a ewd:figtype="gp" style="cursor:pointer;" ewd:code="GD" ewd:figID="43"><path style="&st2;" d=" M   669.26,   681.67  L   690.51,   681.67  L   679.89,   697.25  L   669.26,   681.67 " /><text style="&st8;" transform="matrix(&st16;  675.67  689.46 )"><tspan x="0" style="&st18;" y="0">GD</tspan></text></a><a ewd:figtype="gp" style="cursor:pointer;" ewd:code="GB" ewd:figID="44"><path style="&st2;" d=" M   745.75,   681.67  L   767.00,   681.67  L   756.37,   697.25  L   745.75,   681.67 " /><text style="&st8;" transform="matrix(&st16;  752.35  689.46 )"><tspan x="0" style="&st18;" y="0">GB</tspan></text></a><a ewd:figtype="gp" style="cursor:pointer;" ewd:code="GE" ewd:figID="45"><path style="&st2;" d=" M   788.24,   681.67  L   809.49,   681.67  L   798.87,   697.25  L   788.24,   681.67 " /><text style="&st8;" transform="matrix(&st16;  794.92  689.46 )"><tspan x="0" style="&st18;" y="0">GE</tspan></text></a><a ewd:figtype="gp" style="cursor:pointer;" ewd:code="NC" ewd:figID="46"><path style="&st2;" d=" M  1102.69,   681.67  L  1123.94,   681.67  L  1113.31,   697.25  L  1102.69,   681.67 " /><text style="&st8;" transform="matrix(&st16;  1109.21  689.46 )"><tspan x="0" style="&st18;" y="0">NC</tspan></text></a><a ewd:figtype="gp" style="cursor:pointer;" ewd:code="AE" ewd:figID="47"><path style="&st2;" d=" M  1204.67,   681.67  L  1225.92,   681.67  L  1215.30,   697.25  L  1204.67,   681.67 " /><text style="&st8;" transform="matrix(&st16;  1211.5  689.46 )"><tspan x="0" style="&st18;" y="0">AE</tspan></text></a><a ewd:figtype="gp" style="cursor:pointer;" ewd:code="NB" ewd:figID="48"><path style="&st2;" d=" M  1459.63,   681.67  L  1480.88,   681.67  L  1470.25,   697.25  L  1459.63,   681.67 " /><text style="&st8;" transform="matrix(&st16;  1466.38  689.46 )"><tspan x="0" style="&st18;" y="0">NB</tspan></text></a><a ewd:figtype="gp" style="cursor:pointer;" ewd:code="AC" ewd:figID="49"><path style="&st2;" d=" M  1629.60,   681.67  L  1650.85,   681.67  L  1640.23,   697.25  L  1629.60,   681.67 " /><text style="&st8;" transform="matrix(&st16;  1636.12  689.46 )"><tspan x="0" style="&st18;" y="0">AC</tspan></text></a><a ewd:figtype="gp" style="cursor:pointer;" ewd:code="NA" ewd:figID="50"><path style="&st2;" d=" M  1799.57,   681.67  L  1820.82,   681.67  L  1810.20,   697.25  L  1799.57,   681.67 " /><text style="&st8;" transform="matrix(&st16;  1806.21  689.46 )"><tspan x="0" style="&st18;" y="0">NA</tspan></text></a><a ewd:figtype="sp" style="cursor:pointer;" ewd:code="SP26" ewd:figID="51"><path style="&st2;" d=" M  1466.01,   520.20  L  1474.50,   520.20  L  1478.75,   524.45  L  1478.75,   532.95  L  1474.50,   537.20  L  1466.01,   537.20  L  1461.76,   532.95  L  1461.76,   524.45  L  1466.01,   520.20 " /></a></g></svg>