﻿<?xml version="1.0"?>
<!-- Generator: Adobe Illustrator 10.0, SVG Export Plug-In . SVG Version: 3.0.0 Build 77)  -->
<!DOCTYPE svg PUBLIC "-//W3C//DTD SVG 1.0//EN" "http://www.w3.org/TR/2001/REC-SVG-20010904/DTD/svg10.dtd"[
	<!ENTITY ns_flows "http://ns.adobe.com/Flows/1.0/">
	<!ENTITY ns_svg "http://www.w3.org/2000/svg">
	<!ENTITY ns_xlink "http://www.w3.org/1999/xlink">
	<!ENTITY st0 "fill:none;stroke:#000000;stroke-linecap:round;stroke-linejoin:round;">
	<!ENTITY st1 "fill:none;stroke:#000000;stroke-width:0.6;stroke-linecap:round;stroke-linejoin:round;">
	<!ENTITY st2 "font-size:6px;">
	<!ENTITY st3 "font-family:'Arial';">
	<!ATTLIST svg
		ewd:ver CDATA #IMPLIED
		xmlns:ewd CDATA #FIXED "http://shcl.co.jp/ewd"
		xmlns:a CDATA #FIXED "http://ns.adobe.com/AdobeSVGViewerExtensions/3.0/">
	<!ATTLIST g
		ewd:pinNo CDATA #IMPLIED>
]>
<svg width="64.217" height="71.196" viewBox="0 0 64.217 71.196" style="overflow:visible;enable-background:new 0 0 64.217 71.196" xml:space="preserve" onload="call_execInitLoadProc_svg('connector')" ewd:ver="2.1.2.9" xmlns="&ns_svg;" xmlns:ewd="http://shcl.co.jp/ewd" xmlns:a="http://ns.adobe.com/AdobeSVGViewerExtensions/3.0/" xmlns:xlink="&ns_xlink;">
<script type="text/javascript" xlink:href="../../../../../system/js/ewd/fig/svgfig.js"/>
<g id="レイヤー_1">
	<path style="&st1;" d="M11.711,44.633c0,5.789,4.693,10.481,10.481,10.481"/>
	<path style="&st1;" d="M22.192,14.605c-5.789,0-10.481,4.693-10.481,10.482"/>
	<path style="&st1;" d="M58.051,22.937c-0.154-7.62-6.255-13.722-13.875-13.875"/>
	<path style="&st1;" d="M52.504,25.087c0-5.789-4.693-10.482-10.482-10.482"/>
	<path style="&st0;" d="M63.717,22.823c-0.105-5.205-1.934-9.611-5.546-13.36"/>
	<path style="&st1;" d="M16.527,44.633c0,3.129,2.537,5.666,5.666,5.666"/>
	<path style="&st1;" d="M44.176,60.659c7.621-0.154,13.723-6.257,13.875-13.878"/>
	<path style="&st0;" d="M0.501,58.534c0,1.564,1.269,2.833,2.833,2.833"/>
	<path style="&st1;" d="M50.521,25.087c0-4.694-3.805-8.499-8.499-8.499"/>
	<path style="&st1;" d="M22.192,16.588c-4.693,0-8.499,3.805-8.499,8.499"/>
	<path style="&st1;" d="M42.022,53.132c4.694,0,8.499-3.805,8.499-8.499"/>
	<path style="&st1;" d="M13.694,44.633c0,4.694,3.805,8.499,8.499,8.499"/>
	<path style="&st1;" d="M42.022,55.115c5.789,0,10.482-4.693,10.482-10.481"/>
	<path style="&st1;" d="M42.022,50.299c3.129,0,5.666-2.537,5.666-5.666"/>
	<path style="&st1;" d="M44.176,9.061c-8.484-0.17-15.649-0.17-24.133,0"/>
	<path style="&st1;" d="M58.051,46.781c0.168-8.382,0.168-15.462,0-23.844"/>
	<path style="&st1;" d="M20.042,60.659c8.484,0.171,15.649,0.171,24.133,0"/>
	<path style="&st1;" d="M6.167,22.937c-0.168,8.382-0.168,15.462,0,23.844"/>
	<path style="&st1;" d="M20.042,9.061c-7.62,0.154-13.721,6.255-13.875,13.875"/>
	<path style="&st1;" d="M6.167,46.781c0.153,7.621,6.254,13.724,13.875,13.878"/>
	<path style="&st0;" d="M6.045,9.463c-3.612,3.749-5.44,8.155-5.545,13.36"/>
	<path style="&st0;" d="M60.884,61.367c1.564,0,2.833-1.269,2.833-2.833"/>
	<path style="&st0;" d="M58.17,3.333c0-1.564-1.269-2.833-2.833-2.833"/>
	<path style="&st1;" d="M19.929,66.322c3.584,0.072,6.61,0.107,10.195,0.119"/>
	<path style="&st0;" d="M30.125,66.443c1.395,0.005,2.572,0.005,3.966,0"/>
	<path style="&st1;" d="M17.209,3.333c-1.564,0-2.833,1.269-2.833,2.833"/>
	<path style="&st0;" d="M7.209,61.367c1.765,1.557,3.485,2.621,5.666,3.506"/>
	<path style="&st0;" d="M8.878,0.5c-1.565,0-2.833,1.269-2.833,2.833"/>
	<path style="&st1;" d="M49.841,6.166c0-1.564-1.269-2.833-2.833-2.833"/>
	<path style="&st1;" d="M44.289,66.322c2.545-0.051,4.694-0.493,7.053-1.45"/>
	<path style="&st1;" d="M34.091,66.443c3.585-0.012,6.613-0.047,10.198-0.119"/>
	<path style="&st1;" d="M12.875,64.874c2.359,0.957,4.508,1.398,7.054,1.45"/>
	<path style="&st0;" d="M12.875,68.712c0,1.095,0.888,1.983,1.983,1.983"/>
	<path style="&st0;" d="M51.343,64.874c2.181-0.885,3.901-1.949,5.667-3.506"/>
	<path style="&st0;" d="M49.36,70.696c1.095,0,1.983-0.888,1.983-1.983"/>
	<path style="&st1;" d="M22.192,55.115h19.83"/>
	<path style="&st1;" d="M11.711,44.633V25.087"/>
	<path style="&st1;" d="M22.192,14.605h19.83"/>
	<path style="&st1;" d="M42.022,14.605V3.333"/>
	<path style="&st0;" d="M8.878,0.5h46.458"/>
	<path style="&st1;" d="M29.275,35.285h1.7v13.031h-8.782v1.983"/>
	<path style="&st1;" d="M53.261,57.118h7.082v-5.666h-3.184"/>
	<path style="&st1;" d="M10.958,57.118H3.875v-5.666H7.06"/>
	<path style="&st1;" d="M42.022,4.75h7.439"/>
	<path style="&st1;" d="M19.36,24.237v7.082h9.915v-7.082H19.36"/>
	<path style="&st1;" d="M34.94,24.237v7.082h9.915v-7.082H34.94"/>
	<path style="&st1;" d="M19.36,33.302v11.332h9.915V33.302H19.36"/>
	<path style="&st1;" d="M34.94,33.302v11.332h9.915V33.302H34.94"/>
	<path style="&st1;" d="M14.756,4.75h7.436"/>
	<path style="&st1;" d="M37.773,6.166V3.333"/>
	<path style="&st0;" d="M6.045,3.333v6.13"/>
	<path style="&st1;" d="M30.691,16.588v6.232h2.833v-6.232"/>
	<path style="&st1;" d="M13.694,44.633V25.087"/>
	<path style="&st1;" d="M22.192,14.605V3.333"/>
	<path style="&st1;" d="M26.442,4.75h11.332"/>
	<path style="&st1;" d="M37.773,14.605v-5.64"/>
	<path style="&st1;" d="M26.442,8.965v5.64"/>
	<path style="&st1;" d="M30.691,20.837h2.833"/>
	<path style="&st1;" d="M22.192,16.588h19.83"/>
	<path style="&st1;" d="M22.192,53.132h19.83"/>
	<path style="&st1;" d="M50.521,25.087v19.546"/>
	<path style="&st0;" d="M58.17,3.333v6.13"/>
	<path style="&st1;" d="M16.527,44.633h1.417v-9.348h1.417"/>
	<path style="&st1;" d="M52.504,25.087v19.546"/>
	<path style="&st0;" d="M0.501,58.534V22.823"/>
	<path style="&st1;" d="M34.94,35.285h-1.7v13.031h8.782v1.983"/>
	<path style="&st1;" d="M47.688,44.633h-1.417v-9.348h-1.417"/>
	<path style="&st0;" d="M60.884,61.367h-3.875"/>
	<path style="&st1;" d="M30.691,14.605v-1.417h2.833v1.417"/>
	<path style="&st0;" d="M3.334,61.367h3.875"/>
	<path style="&st1;" d="M26.442,6.166V3.333"/>
	<path style="&st0;" d="M63.717,58.534V22.823"/>
	<path style="&st1;" d="M22.192,6.166h19.83"/>
	<path style="&st1;" d="M17.209,3.333h29.799"/>
	<path style="&st1;" d="M49.841,10.367V6.166"/>
	<path style="&st1;" d="M14.376,10.367V6.166"/>
	<path style="&st0;" d="M14.858,70.696h15.266v-4.25"/>
	<path style="&st0;" d="M34.091,66.446v4.25H49.36"/>
	<path style="&st0;" d="M51.343,64.874v3.838"/>
	<path style="&st0;" d="M12.875,64.874v3.838"/>
	<g ewd:pinNo="2">
		<text transform="matrix(1 0 0 1 38.2139 41.0337)"><tspan x="0" y="0" style="&st3; &st2;">2</tspan></text>
	</g>
	<g ewd:pinNo="1">
		<text transform="matrix(1 0 0 1 22.6328 41.0337)"><tspan x="0" y="0" style="&st3; &st2;">1</tspan></text>
	</g>
</g>
</svg>